%!PS-Adobe-3.0 EPSF-3.0 
%%BoundingBox: 0 0 327 66
%%Pages: 0
%%Creator: Sun Microsystems, Inc.
%%Title: none
%%CreationDate: none
%%LanguageLevel: 2
%%EndComments
%%BeginProlog
%%BeginResource: procset SDRes-Prolog 1.0 0
/b4_inc_state save def
/dict_count countdictstack def
/op_count count 1 sub def
userdict begin
0 setgray 0 setlinecap 1 setlinewidth 0 setlinejoin 10 setmiterlimit[] 0 setdash newpath
/languagelevel where {pop languagelevel 1 ne {false setstrokeadjust false setoverprint} if} if
/bdef {bind def} bind def
/c {setgray} bdef
/l {neg lineto} bdef
/rl {neg rlineto} bdef
/lc {setlinecap} bdef
/lj {setlinejoin} bdef
/lw {setlinewidth} bdef
/ml {setmiterlimit} bdef
/ld {setdash} bdef
/m {neg moveto} bdef
/ct {6 2 roll neg 6 2 roll neg 6 2 roll neg curveto} bdef
/r {rotate} bdef
/t {neg translate} bdef
/s {scale} bdef
/sw {show} bdef
/gs {gsave} bdef
/gr {grestore} bdef
/f {findfont dup length dict begin
{1 index /FID ne {def} {pop pop} ifelse} forall /Encoding ISOLatin1Encoding def
currentdict end /NFont exch definefont pop /NFont findfont} bdef
/p {closepath} bdef
/sf {scalefont setfont} bdef
/ef {eofill}bdef
/pc {closepath stroke}bdef
/ps {stroke}bdef
/pum {matrix currentmatrix}bdef
/pom {setmatrix}bdef
/bs {/aString exch def /nXOfs exch def /nWidth exch def currentpoint nXOfs 0 rmoveto pum nWidth aString stringwidth pop div 1 scale aString show pom moveto} bdef
%%EndResource
%%EndProlog
%%BeginSetup
%%EndSetup
%%Page: 1 1
%%BeginPageSetup
%%EndPageSetup
pum
0.02835 0.02836 s 
0 -2327 t
/tm matrix currentmatrix def
tm setmatrix
-1901 -3270 t 
1 1 s 
0.996 c 3222 3321 m  2529 3321 1952 3447 1952 3599 ct 1952 5267 l  1952 5418 2529 5545 3222 5545 ct 
3915 5545 4493 5418 4493 5267 ct 4493 3599 l  4493 3447 3915 3321 3222 3321 ct 
3222 3321 l  p ef
0.000 c 3223 3346 m  2969 3352 l  2968 3327 l  2968 3301 l  3221 3296 l 
3222 3321 l  3223 3346 l  p ef
2968 3327 m  2967 3301 l  2968 3301 l  2968 3327 l  p ef
2970 3352 m  2733 3369 l  2731 3343 l  2729 3318 l  2967 3301 l  2968 3327 l 
2970 3352 l  p ef
2731 3343 m  2728 3318 l  2729 3318 l  2731 3343 l  p ef
2734 3368 m  2519 3394 l  2516 3369 l  2513 3344 l  2728 3318 l  2731 3343 l 
2734 3368 l  p ef
2516 3369 m  2511 3344 l  2513 3344 l  2516 3369 l  p ef
2520 3394 m  2332 3428 l  2327 3403 l  2323 3378 l  2511 3344 l  2516 3369 l 
2520 3394 l  p ef
2327 3403 m  2321 3378 l  2323 3378 l  2327 3403 l  p ef
2334 3428 m  2178 3469 l  2171 3444 l  2165 3420 l  2321 3378 l  2327 3403 l 
2334 3428 l  p ef
2171 3444 m  2163 3420 l  2165 3420 l  2171 3444 l  p ef
2180 3468 m  2116 3491 l  2107 3467 l  2098 3443 l  2163 3420 l  2171 3444 l 
2180 3468 l  p ef
2107 3467 m  2097 3444 l  2098 3443 l  2107 3467 l  p ef
2117 3490 m  2063 3515 l  2053 3491 l  2043 3468 l  2097 3444 l  2107 3467 l 
2117 3490 l  p ef
2053 3491 m  2040 3469 l  2043 3468 l  2053 3491 l  p ef
2066 3513 m  2023 3539 l  2010 3517 l  1997 3495 l  2040 3469 l  2053 3491 l 
2066 3513 l  p ef
2010 3517 m  1994 3497 l  1997 3495 l  2010 3517 l  p ef
2025 3537 m  2008 3550 l  1993 3530 l  1977 3510 l  1994 3497 l  2010 3517 l 
2025 3537 l  p ef
1993 3530 m  1975 3511 l  1977 3510 l  1993 3530 l  p ef
2010 3549 m  1996 3562 l  1978 3543 l  1961 3525 l  1975 3511 l  1993 3530 l 
2010 3549 l  p ef
1978 3543 m  1959 3527 l  1961 3525 l  1978 3543 l  p ef
1998 3560 m  1986 3573 l  1967 3557 l  1947 3541 l  1959 3527 l  1978 3543 l 
1998 3560 l  p ef
1967 3557 m  1945 3544 l  1947 3541 l  1967 3557 l  p ef
1989 3570 m  1981 3584 l  1959 3571 l  1937 3558 l  1945 3544 l  1967 3557 l 
1989 3570 l  p ef
1959 3571 m  1935 3562 l  1936 3558 l  1937 3558 l  1959 3571 l  p ef
1983 3579 m  1978 3593 l  1954 3585 l  1930 3576 l  1935 3562 l  1959 3571 l 
1983 3579 l  p ef
1954 3585 m  1928 3582 l  1929 3577 l  1930 3576 l  1954 3585 l  p ef
1979 3588 m  1977 3602 l  1952 3599 l  1927 3596 l  1928 3582 l  1954 3585 l 
1979 3588 l  p ef
1952 3599 m  1927 3599 l  1927 3596 l  1952 3599 l  p ef
1978 3599 m  1978 5267 l  1952 5267 l  1927 5267 l  1927 3599 l  1952 3599 l 
1978 3599 l  p ef
1952 5267 m  1927 5270 l  1927 5267 l  1952 5267 l  p ef
1977 5264 m  1979 5278 l  1954 5281 l  1928 5284 l  1927 5270 l  1952 5267 l 
1977 5264 l  p ef
1954 5281 m  1930 5290 l  1929 5285 l  1928 5284 l  1954 5281 l  p ef
1978 5273 m  1983 5286 l  1959 5295 l  1935 5304 l  1930 5290 l  1954 5281 l 
1978 5273 l  p ef
1959 5295 m  1937 5308 l  1935 5304 l  1935 5304 l  1959 5295 l  p ef
1981 5282 m  1989 5296 l  1967 5309 l  1945 5322 l  1937 5308 l  1959 5295 l 
1981 5282 l  p ef
1967 5309 m  1947 5325 l  1945 5322 l  1967 5309 l  p ef
1986 5292 m  1998 5306 l  1978 5322 l  1959 5339 l  1947 5325 l  1967 5309 l 
1986 5292 l  p ef
1978 5322 m  1961 5341 l  1959 5339 l  1978 5322 l  p ef
1995 5304 m  2010 5317 l  1993 5336 l  1975 5354 l  1961 5341 l  1978 5322 l 
1995 5304 l  p ef
1993 5336 m  1977 5356 l  1975 5354 l  1993 5336 l  p ef
2008 5315 m  2025 5328 l  2010 5349 l  1994 5369 l  1977 5356 l  1993 5336 l 
2008 5315 l  p ef
2010 5349 m  1997 5371 l  1994 5369 l  2010 5349 l  p ef
2023 5327 m  2066 5352 l  2053 5374 l  2040 5396 l  1997 5371 l  2010 5349 l 
2023 5327 l  p ef
2053 5374 m  2043 5397 l  2040 5396 l  2053 5374 l  p ef
2063 5351 m  2117 5375 l  2107 5398 l  2097 5422 l  2043 5397 l  2053 5374 l 
2063 5351 l  p ef
2107 5398 m  2098 5422 l  2097 5422 l  2107 5398 l  p ef
2116 5374 m  2180 5397 l  2171 5421 l  2163 5445 l  2098 5422 l  2107 5398 l 
2116 5374 l  p ef
2171 5421 m  2165 5446 l  2163 5445 l  2171 5421 l  p ef
2178 5397 m  2334 5438 l  2327 5463 l  2321 5487 l  2165 5446 l  2171 5421 l 
2178 5397 l  p ef
2327 5463 m  2323 5488 l  2321 5487 l  2327 5463 l  p ef
2332 5438 m  2520 5472 l  2516 5497 l  2511 5522 l  2323 5488 l  2327 5463 l 
2332 5438 l  p ef
2516 5497 m  2513 5522 l  2511 5522 l  2516 5497 l  p ef
2519 5472 m  2734 5497 l  2731 5523 l  2728 5548 l  2513 5522 l  2516 5497 l 
2519 5472 l  p ef
2731 5523 m  2729 5548 l  2728 5548 l  2731 5523 l  p ef
2733 5497 m  2970 5514 l  2968 5539 l  2967 5565 l  2729 5548 l  2731 5523 l 
2733 5497 l  p ef
2968 5539 m  2968 5565 l  2967 5565 l  2968 5539 l  p ef
2969 5514 m  3223 5520 l  3222 5545 l  3221 5570 l  2968 5565 l  2968 5539 l 
2969 5514 l  p ef
3222 5545 m  3223 5570 l  3221 5570 l  3222 5545 l  p ef
3221 5520 m  3475 5514 l  3476 5539 l  3476 5565 l  3223 5570 l  3222 5545 l 
3221 5520 l  p ef
3476 5539 m  3477 5565 l  3476 5565 l  3476 5539 l  p ef
3474 5514 m  3711 5497 l  3713 5523 l  3715 5548 l  3477 5565 l  3476 5539 l 
3474 5514 l  p ef
3713 5523 m  3716 5548 l  3715 5548 l  3713 5523 l  p ef
3710 5497 m  3926 5472 l  3929 5497 l  3932 5522 l  3716 5548 l  3713 5523 l 
3710 5497 l  p ef
3929 5497 m  3933 5522 l  3932 5522 l  3929 5497 l  p ef
3924 5472 m  4113 5438 l  4117 5463 l  4122 5488 l  3933 5522 l  3929 5497 l 
3924 5472 l  p ef
4117 5463 m  4124 5487 l  4122 5488 l  4117 5463 l  p ef
4111 5438 m  4267 5397 l  4274 5421 l  4280 5446 l  4124 5487 l  4117 5463 l 
4111 5438 l  p ef
4274 5421 m  4282 5445 l  4280 5446 l  4274 5421 l  p ef
4265 5397 m  4329 5374 l  4338 5398 l  4346 5422 l  4282 5445 l  4274 5421 l 
4265 5397 l  p ef
4338 5398 m  4348 5422 l  4346 5422 l  4338 5398 l  p ef
4327 5375 m  4381 5351 l  4392 5374 l  4402 5397 l  4348 5422 l  4338 5398 l 
4327 5375 l  p ef
4392 5374 m  4405 5396 l  4402 5397 l  4392 5374 l  p ef
4379 5352 m  4422 5327 l  4435 5349 l  4448 5371 l  4405 5396 l  4392 5374 l 
4379 5352 l  p ef
4435 5349 m  4450 5369 l  4448 5371 l  4435 5349 l  p ef
4420 5328 m  4437 5315 l  4452 5336 l  4468 5356 l  4450 5369 l  4435 5349 l 
4420 5328 l  p ef
4452 5336 m  4470 5354 l  4468 5356 l  4452 5336 l  p ef
4435 5317 m  4449 5304 l  4467 5322 l  4484 5341 l  4470 5354 l  4452 5336 l 
4435 5317 l  p ef
4467 5322 m  4486 5339 l  4484 5341 l  4467 5322 l  p ef
4447 5306 m  4459 5292 l  4478 5309 l  4498 5325 l  4486 5339 l  4467 5322 l 
4447 5306 l  p ef
4478 5309 m  4500 5322 l  4498 5325 l  4478 5309 l  p ef
4456 5296 m  4464 5282 l  4486 5295 l  4508 5308 l  4500 5322 l  4478 5309 l 
4456 5296 l  p ef
4486 5295 m  4510 5304 l  4508 5308 l  4508 5308 l  4486 5295 l  p ef
4462 5286 m  4467 5272 l  4491 5281 l  4515 5290 l  4510 5304 l  4486 5295 l 
4462 5286 l  p ef
4491 5281 m  4517 5284 l  4516 5288 l  4515 5290 l  4491 5281 l  p ef
4466 5278 m  4468 5264 l  4493 5267 l  4518 5270 l  4517 5284 l  4491 5281 l 
4466 5278 l  p ef
4493 5267 m  4519 5267 l  4518 5270 l  4493 5267 l  p ef
4468 5267 m  4468 3599 l  4493 3599 l  4519 3599 l  4519 5267 l  4493 5267 l 
4468 5267 l  p ef
4493 3599 m  4518 3596 l  4519 3599 l  4493 3599 l  p ef
4468 3602 m  4466 3588 l  4491 3585 l  4517 3582 l  4518 3596 l  4493 3599 l 
4468 3602 l  p ef
4491 3585 m  4515 3576 l  4516 3581 l  4517 3582 l  4491 3585 l  p ef
4467 3593 m  4462 3579 l  4486 3571 l  4510 3562 l  4515 3576 l  4491 3585 l 
4467 3593 l  p ef
4486 3571 m  4508 3558 l  4510 3562 l  4510 3562 l  4486 3571 l  p ef
4464 3584 m  4456 3570 l  4478 3557 l  4500 3544 l  4508 3558 l  4486 3571 l 
4464 3584 l  p ef
4478 3557 m  4498 3541 l  4500 3544 l  4478 3557 l  p ef
4459 3573 m  4447 3560 l  4467 3543 l  4486 3527 l  4498 3541 l  4478 3557 l 
4459 3573 l  p ef
4467 3543 m  4484 3525 l  4486 3527 l  4467 3543 l  p ef
4449 3562 m  4435 3549 l  4452 3530 l  4470 3511 l  4484 3525 l  4467 3543 l 
4449 3562 l  p ef
4452 3530 m  4468 3510 l  4470 3511 l  4452 3530 l  p ef
4437 3550 m  4420 3537 l  4435 3517 l  4450 3497 l  4468 3510 l  4452 3530 l 
4437 3550 l  p ef
4435 3517 m  4448 3495 l  4450 3497 l  4435 3517 l  p ef
4422 3539 m  4379 3513 l  4392 3491 l  4405 3469 l  4448 3495 l  4435 3517 l 
4422 3539 l  p ef
4392 3491 m  4402 3468 l  4405 3469 l  4392 3491 l  p ef
4381 3515 m  4327 3490 l  4338 3467 l  4348 3444 l  4402 3468 l  4392 3491 l 
4381 3515 l  p ef
4338 3467 m  4346 3443 l  4348 3444 l  4338 3467 l  p ef
4329 3491 m  4265 3468 l  4274 3444 l  4282 3420 l  4346 3443 l  4338 3467 l 
4329 3491 l  p ef
4274 3444 m  4280 3420 l  4282 3420 l  4274 3444 l  p ef
4267 3469 m  4111 3428 l  4117 3403 l  4124 3378 l  4280 3420 l  4274 3444 l 
4267 3469 l  p ef
4117 3403 m  4122 3378 l  4124 3378 l  4117 3403 l  p ef
4113 3428 m  3924 3394 l  3929 3369 l  3933 3344 l  4122 3378 l  4117 3403 l 
4113 3428 l  p ef
3929 3369 m  3932 3344 l  3933 3344 l  3929 3369 l  p ef
3926 3394 m  3710 3368 l  3713 3343 l  3716 3318 l  3932 3344 l  3929 3369 l 
3926 3394 l  p ef
3713 3343 m  3715 3318 l  3716 3318 l  3713 3343 l  p ef
3711 3369 m  3474 3352 l  3476 3327 l  3477 3301 l  3715 3318 l  3713 3343 l 
3711 3369 l  p ef
3476 3327 m  3476 3301 l  3477 3301 l  3476 3327 l  p ef
3475 3352 m  3221 3346 l  3222 3321 l  3223 3296 l  3476 3301 l  3476 3327 l 
3475 3352 l  p ef
3222 3321 m  3221 3296 l  3223 3296 l  3222 3321 l  p ef
0.996 c 3222 3321 m  2529 3321 1952 3447 1952 3599 ct 1952 3750 2529 3877 3222 3877 ct 
3915 3877 4493 3750 4493 3599 ct 4493 3447 3915 3321 3222 3321 ct 3222 3321 l 
p ef
0.000 c 3223 3346 m  2969 3352 l  2968 3327 l  2968 3301 l  3221 3296 l 
3222 3321 l  3223 3346 l  p ef
2968 3327 m  2967 3301 l  2968 3301 l  2968 3327 l  p ef
2970 3352 m  2733 3369 l  2731 3343 l  2729 3318 l  2967 3301 l  2968 3327 l 
2970 3352 l  p ef
2731 3343 m  2728 3318 l  2729 3318 l  2731 3343 l  p ef
2734 3368 m  2519 3394 l  2516 3369 l  2513 3344 l  2728 3318 l  2731 3343 l 
2734 3368 l  p ef
2516 3369 m  2511 3344 l  2513 3344 l  2516 3369 l  p ef
2520 3394 m  2332 3428 l  2327 3403 l  2323 3378 l  2511 3344 l  2516 3369 l 
2520 3394 l  p ef
2327 3403 m  2321 3378 l  2323 3378 l  2327 3403 l  p ef
2334 3428 m  2178 3469 l  2171 3444 l  2165 3420 l  2321 3378 l  2327 3403 l 
2334 3428 l  p ef
2171 3444 m  2163 3420 l  2165 3420 l  2171 3444 l  p ef
2180 3468 m  2116 3491 l  2107 3467 l  2098 3443 l  2163 3420 l  2171 3444 l 
2180 3468 l  p ef
2107 3467 m  2097 3444 l  2098 3443 l  2107 3467 l  p ef
2117 3490 m  2063 3515 l  2053 3491 l  2043 3468 l  2097 3444 l  2107 3467 l 
2117 3490 l  p ef
2053 3491 m  2040 3469 l  2043 3468 l  2053 3491 l  p ef
2066 3513 m  2023 3539 l  2010 3517 l  1997 3495 l  2040 3469 l  2053 3491 l 
2066 3513 l  p ef
2010 3517 m  1994 3497 l  1997 3495 l  2010 3517 l  p ef
2025 3537 m  2008 3550 l  1993 3530 l  1977 3510 l  1994 3497 l  2010 3517 l 
2025 3537 l  p ef
1993 3530 m  1975 3511 l  1977 3510 l  1993 3530 l  p ef
2010 3549 m  1996 3562 l  1978 3543 l  1961 3525 l  1975 3511 l  1993 3530 l 
2010 3549 l  p ef
1978 3543 m  1959 3527 l  1961 3525 l  1978 3543 l  p ef
1998 3560 m  1986 3573 l  1967 3557 l  1947 3541 l  1959 3527 l  1978 3543 l 
1998 3560 l  p ef
1967 3557 m  1945 3544 l  1947 3541 l  1967 3557 l  p ef
1989 3570 m  1981 3584 l  1959 3571 l  1937 3558 l  1945 3544 l  1967 3557 l 
1989 3570 l  p ef
1959 3571 m  1935 3562 l  1936 3558 l  1937 3558 l  1959 3571 l  p ef
1983 3579 m  1978 3593 l  1954 3585 l  1930 3576 l  1935 3562 l  1959 3571 l 
1983 3579 l  p ef
1954 3585 m  1928 3582 l  1929 3577 l  1930 3576 l  1954 3585 l  p ef
1979 3588 m  1977 3602 l  1952 3599 l  1927 3596 l  1928 3582 l  1954 3585 l 
1979 3588 l  p ef
1952 3599 m  1927 3602 l  1927 3598 l  1927 3596 l  1952 3599 l  p ef
1977 3596 m  1979 3610 l  1954 3613 l  1928 3616 l  1927 3602 l  1952 3599 l 
1977 3596 l  p ef
1954 3613 m  1930 3622 l  1929 3617 l  1928 3616 l  1954 3613 l  p ef
1978 3605 m  1983 3618 l  1959 3627 l  1935 3636 l  1930 3622 l  1954 3613 l 
1978 3605 l  p ef
1959 3627 m  1937 3640 l  1935 3636 l  1935 3636 l  1959 3627 l  p ef
1981 3614 m  1989 3628 l  1967 3641 l  1945 3654 l  1937 3640 l  1959 3627 l 
1981 3614 l  p ef
1967 3641 m  1947 3657 l  1945 3654 l  1967 3641 l  p ef
1986 3624 m  1998 3638 l  1978 3654 l  1959 3671 l  1947 3657 l  1967 3641 l 
1986 3624 l  p ef
1978 3654 m  1961 3673 l  1959 3671 l  1978 3654 l  p ef
1995 3636 m  2010 3649 l  1993 3668 l  1975 3686 l  1961 3673 l  1978 3654 l 
1995 3636 l  p ef
1993 3668 m  1977 3688 l  1975 3686 l  1993 3668 l  p ef
2008 3647 m  2025 3660 l  2010 3681 l  1994 3701 l  1977 3688 l  1993 3668 l 
2008 3647 l  p ef
2010 3681 m  1997 3703 l  1994 3701 l  2010 3681 l  p ef
2023 3659 m  2066 3684 l  2053 3706 l  2040 3728 l  1997 3703 l  2010 3681 l 
2023 3659 l  p ef
2053 3706 m  2043 3729 l  2040 3728 l  2053 3706 l  p ef
2063 3683 m  2117 3707 l  2107 3730 l  2097 3754 l  2043 3729 l  2053 3706 l 
2063 3683 l  p ef
2107 3730 m  2098 3754 l  2097 3754 l  2107 3730 l  p ef
2116 3706 m  2180 3729 l  2171 3753 l  2163 3777 l  2098 3754 l  2107 3730 l 
2116 3706 l  p ef
2171 3753 m  2165 3778 l  2163 3777 l  2171 3753 l  p ef
2178 3729 m  2334 3770 l  2327 3795 l  2321 3819 l  2165 3778 l  2171 3753 l 
2178 3729 l  p ef
2327 3795 m  2323 3820 l  2321 3819 l  2327 3795 l  p ef
2332 3770 m  2520 3804 l  2516 3829 l  2511 3854 l  2323 3820 l  2327 3795 l 
2332 3770 l  p ef
2516 3829 m  2513 3854 l  2511 3854 l  2516 3829 l  p ef
2519 3804 m  2734 3829 l  2731 3855 l  2728 3880 l  2513 3854 l  2516 3829 l 
2519 3804 l  p ef
2731 3855 m  2729 3880 l  2728 3880 l  2731 3855 l  p ef
2733 3829 m  2970 3846 l  2968 3871 l  2967 3897 l  2729 3880 l  2731 3855 l 
2733 3829 l  p ef
2968 3871 m  2968 3897 l  2967 3897 l  2968 3871 l  p ef
2969 3846 m  3223 3852 l  3222 3877 l  3221 3902 l  2968 3897 l  2968 3871 l 
2969 3846 l  p ef
3222 3877 m  3223 3902 l  3221 3902 l  3222 3877 l  p ef
3221 3852 m  3475 3846 l  3476 3871 l  3476 3897 l  3223 3902 l  3222 3877 l 
3221 3852 l  p ef
3476 3871 m  3477 3897 l  3476 3897 l  3476 3871 l  p ef
3474 3846 m  3711 3829 l  3713 3855 l  3715 3880 l  3477 3897 l  3476 3871 l 
3474 3846 l  p ef
3713 3855 m  3716 3880 l  3715 3880 l  3713 3855 l  p ef
3710 3829 m  3926 3804 l  3929 3829 l  3932 3854 l  3716 3880 l  3713 3855 l 
3710 3829 l  p ef
3929 3829 m  3933 3854 l  3932 3854 l  3929 3829 l  p ef
3924 3804 m  4113 3770 l  4117 3795 l  4122 3820 l  3933 3854 l  3929 3829 l 
3924 3804 l  p ef
4117 3795 m  4124 3819 l  4122 3820 l  4117 3795 l  p ef
4111 3770 m  4267 3729 l  4274 3753 l  4280 3778 l  4124 3819 l  4117 3795 l 
4111 3770 l  p ef
4274 3753 m  4282 3777 l  4280 3778 l  4274 3753 l  p ef
4265 3729 m  4329 3706 l  4338 3730 l  4346 3754 l  4282 3777 l  4274 3753 l 
4265 3729 l  p ef
4338 3730 m  4348 3754 l  4346 3754 l  4338 3730 l  p ef
4327 3707 m  4381 3683 l  4392 3706 l  4402 3729 l  4348 3754 l  4338 3730 l 
4327 3707 l  p ef
4392 3706 m  4405 3728 l  4402 3729 l  4392 3706 l  p ef
4379 3684 m  4422 3659 l  4435 3681 l  4448 3703 l  4405 3728 l  4392 3706 l 
4379 3684 l  p ef
4435 3681 m  4450 3701 l  4448 3703 l  4435 3681 l  p ef
4420 3660 m  4437 3647 l  4452 3668 l  4468 3688 l  4450 3701 l  4435 3681 l 
4420 3660 l  p ef
4452 3668 m  4470 3686 l  4468 3688 l  4452 3668 l  p ef
4435 3649 m  4449 3636 l  4467 3654 l  4484 3673 l  4470 3686 l  4452 3668 l 
4435 3649 l  p ef
4467 3654 m  4486 3671 l  4484 3673 l  4467 3654 l  p ef
4447 3638 m  4459 3624 l  4478 3641 l  4498 3657 l  4486 3671 l  4467 3654 l 
4447 3638 l  p ef
4478 3641 m  4500 3654 l  4498 3657 l  4478 3641 l  p ef
4456 3628 m  4464 3614 l  4486 3627 l  4508 3640 l  4500 3654 l  4478 3641 l 
4456 3628 l  p ef
4486 3627 m  4510 3636 l  4508 3640 l  4508 3640 l  4486 3627 l  p ef
4462 3618 m  4467 3604 l  4491 3613 l  4515 3622 l  4510 3636 l  4486 3627 l 
4462 3618 l  p ef
4491 3613 m  4517 3616 l  4516 3620 l  4515 3622 l  4491 3613 l  p ef
4466 3610 m  4468 3596 l  4493 3599 l  4518 3602 l  4517 3616 l  4491 3613 l 
4466 3610 l  p ef
4493 3599 m  4518 3596 l  4518 3600 l  4518 3602 l  4493 3599 l  p ef
4468 3602 m  4466 3588 l  4491 3585 l  4517 3582 l  4518 3596 l  4493 3599 l 
4468 3602 l  p ef
4491 3585 m  4515 3576 l  4516 3581 l  4517 3582 l  4491 3585 l  p ef
4467 3593 m  4462 3579 l  4486 3571 l  4510 3562 l  4515 3576 l  4491 3585 l 
4467 3593 l  p ef
4486 3571 m  4508 3558 l  4510 3562 l  4510 3562 l  4486 3571 l  p ef
4464 3584 m  4456 3570 l  4478 3557 l  4500 3544 l  4508 3558 l  4486 3571 l 
4464 3584 l  p ef
4478 3557 m  4498 3541 l  4500 3544 l  4478 3557 l  p ef
4459 3573 m  4447 3560 l  4467 3543 l  4486 3527 l  4498 3541 l  4478 3557 l 
4459 3573 l  p ef
4467 3543 m  4484 3525 l  4486 3527 l  4467 3543 l  p ef
4449 3562 m  4435 3549 l  4452 3530 l  4470 3511 l  4484 3525 l  4467 3543 l 
4449 3562 l  p ef
4452 3530 m  4468 3510 l  4470 3511 l  4452 3530 l  p ef
4437 3550 m  4420 3537 l  4435 3517 l  4450 3497 l  4468 3510 l  4452 3530 l 
4437 3550 l  p ef
4435 3517 m  4448 3495 l  4450 3497 l  4435 3517 l  p ef
4422 3539 m  4379 3513 l  4392 3491 l  4405 3469 l  4448 3495 l  4435 3517 l 
4422 3539 l  p ef
4392 3491 m  4402 3468 l  4405 3469 l  4392 3491 l  p ef
4381 3515 m  4327 3490 l  4338 3467 l  4348 3444 l  4402 3468 l  4392 3491 l 
4381 3515 l  p ef
4338 3467 m  4346 3443 l  4348 3444 l  4338 3467 l  p ef
4329 3491 m  4265 3468 l  4274 3444 l  4282 3420 l  4346 3443 l  4338 3467 l 
4329 3491 l  p ef
4274 3444 m  4280 3420 l  4282 3420 l  4274 3444 l  p ef
4267 3469 m  4111 3428 l  4117 3403 l  4124 3378 l  4280 3420 l  4274 3444 l 
4267 3469 l  p ef
4117 3403 m  4122 3378 l  4124 3378 l  4117 3403 l  p ef
4113 3428 m  3924 3394 l  3929 3369 l  3933 3344 l  4122 3378 l  4117 3403 l 
4113 3428 l  p ef
3929 3369 m  3932 3344 l  3933 3344 l  3929 3369 l  p ef
3926 3394 m  3710 3368 l  3713 3343 l  3716 3318 l  3932 3344 l  3929 3369 l 
3926 3394 l  p ef
3713 3343 m  3715 3318 l  3716 3318 l  3713 3343 l  p ef
3711 3369 m  3474 3352 l  3476 3327 l  3477 3301 l  3715 3318 l  3713 3343 l 
3711 3369 l  p ef
3476 3327 m  3476 3301 l  3477 3301 l  3476 3327 l  p ef
3475 3352 m  3221 3346 l  3222 3321 l  3223 3296 l  3476 3301 l  3476 3327 l 
3475 3352 l  p ef
3222 3321 m  3221 3296 l  3223 3296 l  3222 3321 l  p ef
gs
gs
pum
2472 4475 t
28 -260 m  28 -303 l  65 -303 l  65 -260 l  28 -260 l  p
28 0 m  28 -219 l  65 -219 l  65 0 l  28 0 l  p ef
121 0 m  121 -219 l  154 -219 l  154 -188 l  161 -199 170 -208 182 -214 ct 
193 -221 206 -224 221 -224 ct 237 -224 250 -221 261 -214 ct 271 -207 278 -198 283 -186 ct 
300 -211 323 -224 350 -224 ct 372 -224 389 -218 401 -206 ct 412 -194 418 -175 418 -150 ct 
418 0 l  381 0 l  381 -138 l  381 -153 380 -164 378 -170 ct 375 -177 371 -182 364 -186 ct 
358 -190 351 -192 342 -192 ct 327 -192 314 -187 304 -176 ct 293 -166 288 -150 288 -127 ct 
288 0 l  251 0 l  251 -142 l  251 -159 248 -171 242 -179 ct 236 -188 226 -192 212 -192 ct 
202 -192 192 -189 183 -184 ct 174 -178 168 -170 164 -159 ct 160 -149 158 -134 158 -114 ct 
158 0 l  121 0 l  p ef
620 -27 m  606 -15 593 -7 580 -2 ct 568 3 554 5 539 5 ct 515 5 497 -1 484 -13 ct 
471 -24 464 -39 464 -58 ct 464 -68 467 -78 472 -87 ct 477 -96 483 -103 491 -108 ct 
499 -114 508 -118 518 -121 ct 525 -123 536 -124 551 -126 ct 581 -130 603 -134 617 -139 ct 
617 -144 617 -147 617 -149 ct 617 -164 614 -174 607 -181 ct 597 -189 583 -193 564 -193 ct 
547 -193 534 -190 526 -184 ct 517 -178 511 -167 507 -152 ct 471 -157 l  474 -172 479 -185 487 -194 ct 
495 -204 506 -211 520 -216 ct 534 -221 551 -224 570 -224 ct 588 -224 604 -222 615 -217 ct 
627 -213 636 -207 641 -201 ct 647 -194 650 -186 653 -176 ct 654 -169 655 -158 655 -141 ct 
655 -92 l  655 -57 655 -35 657 -26 ct 658 -17 662 -8 666 0 ct 627 0 l  624 -8 621 -17 620 -27 ct 
p
617 -110 m  603 -104 583 -100 556 -96 ct 541 -94 530 -91 524 -88 ct 517 -86 513 -82 509 -76 ct 
506 -71 504 -65 504 -59 ct 504 -49 508 -41 515 -34 ct 523 -27 534 -24 548 -24 ct 
562 -24 575 -27 586 -33 ct 598 -40 606 -48 611 -59 ct 615 -68 617 -80 617 -96 ct 
617 -110 l  p ef
707 18 m  743 24 l  745 35 749 43 756 48 ct 765 55 778 58 794 58 ct 811 58 824 55 833 48 ct 
843 41 849 31 852 19 ct 854 11 855 -4 855 -29 ct 839 -10 819 0 794 0 ct 764 0 741 -11 724 -33 ct 
708 -54 700 -80 700 -111 ct 700 -132 703 -151 711 -169 ct 719 -186 730 -200 744 -210 ct 
758 -219 775 -224 795 -224 ct 821 -224 842 -214 859 -193 ct 859 -219 l  893 -219 l 
893 -30 l  893 4 889 29 883 43 ct 876 57 865 68 849 77 ct 834 85 816 89 794 89 ct 
768 89 747 83 730 71 ct 714 60 707 42 707 18 ct p
738 -113 m  738 -85 744 -64 755 -51 ct 766 -37 781 -31 798 -31 ct 815 -31 829 -37 841 -50 ct 
852 -64 858 -84 858 -112 ct 858 -139 852 -159 840 -173 ct 828 -186 814 -193 797 -193 ct 
781 -193 767 -187 755 -173 ct 744 -160 738 -140 738 -113 ct p ef
1097 -71 m  1135 -66 l  1129 -43 1118 -26 1102 -14 ct 1085 -1 1064 5 1039 5 ct 
1007 5 981 -5 963 -25 ct 944 -44 934 -72 934 -108 ct 934 -145 944 -173 963 -193 ct 
982 -214 1007 -224 1037 -224 ct 1066 -224 1090 -214 1109 -194 ct 1127 -174 1137 -146 1137 -110 ct 
1137 -108 1137 -104 1136 -100 ct 973 -100 l  974 -76 981 -58 993 -45 ct 1006 -32 1021 -26 1039 -26 ct 
1053 -26 1064 -29 1074 -36 ct 1084 -43 1091 -55 1097 -71 ct p
975 -131 m  1097 -131 l  1096 -149 1091 -163 1083 -172 ct 1072 -186 1056 -193 1037 -193 ct 
1020 -193 1006 -188 994 -176 ct 983 -165 976 -150 975 -131 ct p ef
1169 -65 m  1206 -71 l  1208 -56 1214 -45 1223 -37 ct 1232 -29 1246 -26 1263 -26 ct 
1280 -26 1292 -29 1301 -36 ct 1309 -43 1313 -51 1313 -60 ct 1313 -69 1309 -75 1302 -80 ct 
1297 -84 1284 -88 1264 -93 ct 1237 -100 1218 -106 1207 -111 ct 1197 -116 1189 -123 1183 -131 ct 
1178 -140 1175 -150 1175 -161 ct 1175 -171 1177 -180 1182 -188 ct 1186 -196 1193 -203 1200 -209 ct 
1206 -213 1214 -217 1224 -220 ct 1234 -223 1245 -224 1256 -224 ct 1273 -224 1288 -222 1301 -217 ct 
1314 -212 1324 -205 1330 -196 ct 1336 -188 1341 -177 1343 -163 ct 1307 -158 l 
1305 -169 1300 -178 1292 -184 ct 1284 -190 1273 -193 1259 -193 ct 1242 -193 1229 -191 1222 -185 ct 
1215 -179 1211 -173 1211 -165 ct 1211 -160 1213 -156 1216 -152 ct 1219 -148 1223 -145 1230 -142 ct 
1234 -141 1245 -138 1263 -133 ct 1289 -126 1307 -120 1318 -116 ct 1328 -111 1336 -105 1342 -96 ct 
1348 -88 1351 -77 1351 -64 ct 1351 -52 1348 -40 1340 -29 ct 1333 -18 1323 -10 1309 -4 ct 
1295 2 1280 5 1263 5 ct 1234 5 1213 -1 1198 -13 ct 1183 -25 1173 -42 1169 -65 ct 
p ef
1405 0 m  1405 -42 l  1447 -42 l  1447 0 l  1447 16 1444 28 1439 38 ct 1433 47 1424 55 1412 60 ct 
1402 44 l  1410 40 1416 35 1419 29 ct 1423 22 1425 13 1426 0 ct 1405 0 l  p ef
pom
gr
gs
pum
2520 4949 t
27 0 m  27 -219 l  61 -219 l  61 -186 l  69 -201 77 -212 85 -217 ct 92 -222 100 -224 108 -224 ct 
121 -224 134 -220 147 -212 ct 134 -178 l  125 -183 116 -186 107 -186 ct 98 -186 91 -183 85 -178 ct 
78 -173 74 -167 71 -158 ct 67 -145 65 -130 65 -115 ct 65 0 l  27 0 l  p ef
318 -71 m  356 -66 l  350 -43 339 -26 323 -14 ct 306 -1 285 5 260 5 ct 228 5 202 -5 184 -25 ct 
165 -44 155 -72 155 -108 ct 155 -145 165 -173 184 -193 ct 203 -214 228 -224 258 -224 ct 
287 -224 311 -214 330 -194 ct 348 -174 358 -146 358 -110 ct 358 -108 358 -104 357 -100 ct 
194 -100 l  195 -76 202 -58 214 -45 ct 227 -32 242 -26 260 -26 ct 274 -26 285 -29 295 -36 ct 
305 -43 312 -55 318 -71 ct p
196 -131 m  318 -131 l  317 -149 312 -163 304 -172 ct 293 -186 277 -193 258 -193 ct 
241 -193 227 -188 215 -176 ct 204 -165 197 -150 196 -131 ct p ef
398 18 m  434 24 l  436 35 440 43 447 48 ct 456 55 469 58 485 58 ct 502 58 515 55 524 48 ct 
534 41 540 31 543 19 ct 545 11 546 -4 546 -29 ct 530 -10 510 0 485 0 ct 455 0 432 -11 415 -33 ct 
399 -54 391 -80 391 -111 ct 391 -132 394 -151 402 -169 ct 410 -186 421 -200 435 -210 ct 
449 -219 466 -224 486 -224 ct 512 -224 533 -214 550 -193 ct 550 -219 l  584 -219 l 
584 -30 l  584 4 580 29 574 43 ct 567 57 556 68 540 77 ct 525 85 507 89 485 89 ct 
459 89 438 83 421 71 ct 405 60 398 42 398 18 ct p
429 -113 m  429 -85 435 -64 446 -51 ct 457 -37 472 -31 489 -31 ct 506 -31 520 -37 532 -50 ct 
543 -64 549 -84 549 -112 ct 549 -139 543 -159 531 -173 ct 519 -186 505 -193 488 -193 ct 
472 -193 458 -187 446 -173 ct 435 -160 429 -140 429 -113 ct p ef
638 -260 m  638 -303 l  675 -303 l  675 -260 l  638 -260 l  p
638 0 m  638 -219 l  675 -219 l  675 0 l  638 0 l  p ef
717 -109 m  717 -150 728 -180 751 -200 ct 770 -216 793 -224 820 -224 ct 850 -224 875 -214 894 -194 ct 
913 -175 923 -147 923 -113 ct 923 -84 918 -62 910 -46 ct 901 -30 889 -17 873 -8 ct 
857 1 839 5 820 5 ct 789 5 764 -5 745 -25 ct 727 -44 717 -73 717 -109 ct p
755 -110 m  755 -81 761 -60 774 -46 ct 786 -33 801 -26 820 -26 ct 838 -26 854 -33 866 -47 ct 
878 -61 884 -82 884 -111 ct 884 -138 878 -158 866 -172 ct 854 -186 838 -193 820 -193 ct 
801 -193 786 -186 774 -172 ct 761 -159 755 -138 755 -110 ct p ef
968 0 m  968 -219 l  1001 -219 l  1001 -188 l  1017 -212 1041 -224 1071 -224 ct 
1084 -224 1097 -222 1108 -217 ct 1119 -212 1127 -206 1133 -198 ct 1138 -191 1142 -181 1144 -171 ct 
1145 -164 1146 -152 1146 -135 ct 1146 0 l  1109 0 l  1109 -133 l  1109 -148 1108 -160 1105 -167 ct 
1102 -175 1097 -181 1089 -185 ct 1082 -190 1073 -192 1063 -192 ct 1047 -192 1034 -187 1022 -177 ct 
1011 -167 1005 -148 1005 -120 ct 1005 0 l  968 0 l  p ef
1190 -65 m  1227 -71 l  1229 -56 1235 -45 1244 -37 ct 1253 -29 1267 -26 1284 -26 ct 
1301 -26 1313 -29 1322 -36 ct 1330 -43 1334 -51 1334 -60 ct 1334 -69 1330 -75 1323 -80 ct 
1318 -84 1305 -88 1285 -93 ct 1258 -100 1239 -106 1228 -111 ct 1218 -116 1210 -123 1204 -131 ct 
1199 -140 1196 -150 1196 -161 ct 1196 -171 1198 -180 1203 -188 ct 1207 -196 1214 -203 1221 -209 ct 
1227 -213 1235 -217 1245 -220 ct 1255 -223 1266 -224 1277 -224 ct 1294 -224 1309 -222 1322 -217 ct 
1335 -212 1345 -205 1351 -196 ct 1357 -188 1362 -177 1364 -163 ct 1328 -158 l 
1326 -169 1321 -178 1313 -184 ct 1305 -190 1294 -193 1280 -193 ct 1263 -193 1250 -191 1243 -185 ct 
1236 -179 1232 -173 1232 -165 ct 1232 -160 1234 -156 1237 -152 ct 1240 -148 1244 -145 1251 -142 ct 
1255 -141 1266 -138 1284 -133 ct 1310 -126 1328 -120 1339 -116 ct 1349 -111 1357 -105 1363 -96 ct 
1369 -88 1372 -77 1372 -64 ct 1372 -52 1369 -40 1361 -29 ct 1354 -18 1344 -10 1330 -4 ct 
1316 2 1301 5 1284 5 ct 1255 5 1234 -1 1219 -13 ct 1204 -25 1194 -42 1190 -65 ct 
p ef
pom
gr
gr
0.996 c 12112 3321 m  11419 3321 10842 3447 10842 3599 ct 10842 5267 l  10842 5418 11419 5545 12112 5545 ct 
12805 5545 13383 5418 13383 5267 ct 13383 3599 l  13383 3447 12805 3321 12112 3321 ct 
12112 3321 l  p ef
0.000 c 12113 3346 m  11859 3352 l  11858 3327 l  11858 3301 l  12111 3296 l 
12112 3321 l  12113 3346 l  p ef
11858 3327 m  11857 3301 l  11858 3301 l  11858 3327 l  p ef
11860 3352 m  11623 3369 l  11621 3343 l  11619 3318 l  11857 3301 l  11858 3327 l 
11860 3352 l  p ef
11621 3343 m  11618 3318 l  11619 3318 l  11621 3343 l  p ef
11624 3368 m  11409 3394 l  11406 3369 l  11403 3344 l  11618 3318 l  11621 3343 l 
11624 3368 l  p ef
11406 3369 m  11401 3344 l  11403 3344 l  11406 3369 l  p ef
11410 3394 m  11222 3428 l  11217 3403 l  11213 3378 l  11401 3344 l  11406 3369 l 
11410 3394 l  p ef
11217 3403 m  11211 3378 l  11213 3378 l  11217 3403 l  p ef
11224 3428 m  11068 3469 l  11061 3444 l  11055 3420 l  11211 3378 l  11217 3403 l 
11224 3428 l  p ef
11061 3444 m  11053 3420 l  11055 3420 l  11061 3444 l  p ef
11070 3468 m  11006 3491 l  10997 3467 l  10988 3443 l  11053 3420 l  11061 3444 l 
11070 3468 l  p ef
10997 3467 m  10987 3444 l  10988 3443 l  10997 3467 l  p ef
11007 3490 m  10953 3515 l  10943 3491 l  10933 3468 l  10987 3444 l  10997 3467 l 
11007 3490 l  p ef
10943 3491 m  10930 3469 l  10933 3468 l  10943 3491 l  p ef
10956 3513 m  10913 3539 l  10900 3517 l  10887 3495 l  10930 3469 l  10943 3491 l 
10956 3513 l  p ef
10900 3517 m  10884 3497 l  10887 3495 l  10900 3517 l  p ef
10915 3537 m  10898 3550 l  10883 3530 l  10867 3510 l  10884 3497 l  10900 3517 l 
10915 3537 l  p ef
10883 3530 m  10865 3511 l  10867 3510 l  10883 3530 l  p ef
10900 3549 m  10886 3562 l  10868 3543 l  10851 3525 l  10865 3511 l  10883 3530 l 
10900 3549 l  p ef
10868 3543 m  10849 3527 l  10851 3525 l  10868 3543 l  p ef
10888 3560 m  10876 3573 l  10857 3557 l  10837 3541 l  10849 3527 l  10868 3543 l 
10888 3560 l  p ef
10857 3557 m  10835 3544 l  10837 3541 l  10857 3557 l  p ef
10879 3570 m  10871 3584 l  10849 3571 l  10827 3558 l  10835 3544 l  10857 3557 l 
10879 3570 l  p ef
10849 3571 m  10825 3562 l  10826 3558 l  10827 3558 l  10849 3571 l  p ef
10873 3579 m  10868 3593 l  10844 3585 l  10820 3576 l  10825 3562 l  10849 3571 l 
10873 3579 l  p ef
10844 3585 m  10818 3582 l  10819 3577 l  10820 3576 l  10844 3585 l  p ef
10869 3588 m  10867 3602 l  10842 3599 l  10817 3596 l  10818 3582 l  10844 3585 l 
10869 3588 l  p ef
10842 3599 m  10817 3599 l  10817 3596 l  10842 3599 l  p ef
10868 3599 m  10868 5267 l  10842 5267 l  10817 5267 l  10817 3599 l  10842 3599 l 
10868 3599 l  p ef
10842 5267 m  10817 5270 l  10817 5267 l  10842 5267 l  p ef
10867 5264 m  10869 5278 l  10844 5281 l  10818 5284 l  10817 5270 l  10842 5267 l 
10867 5264 l  p ef
10844 5281 m  10820 5290 l  10819 5285 l  10818 5284 l  10844 5281 l  p ef
10868 5273 m  10873 5286 l  10849 5295 l  10825 5304 l  10820 5290 l  10844 5281 l 
10868 5273 l  p ef
10849 5295 m  10827 5308 l  10825 5304 l  10825 5304 l  10849 5295 l  p ef
10871 5282 m  10879 5296 l  10857 5309 l  10835 5322 l  10827 5308 l  10849 5295 l 
10871 5282 l  p ef
10857 5309 m  10837 5325 l  10835 5322 l  10857 5309 l  p ef
10876 5292 m  10888 5306 l  10868 5322 l  10849 5339 l  10837 5325 l  10857 5309 l 
10876 5292 l  p ef
10868 5322 m  10851 5341 l  10849 5339 l  10868 5322 l  p ef
10885 5304 m  10900 5317 l  10883 5336 l  10865 5354 l  10851 5341 l  10868 5322 l 
10885 5304 l  p ef
10883 5336 m  10867 5356 l  10865 5354 l  10883 5336 l  p ef
10898 5315 m  10915 5328 l  10900 5349 l  10884 5369 l  10867 5356 l  10883 5336 l 
10898 5315 l  p ef
10900 5349 m  10887 5371 l  10884 5369 l  10900 5349 l  p ef
10913 5327 m  10956 5352 l  10943 5374 l  10930 5396 l  10887 5371 l  10900 5349 l 
10913 5327 l  p ef
10943 5374 m  10933 5397 l  10930 5396 l  10943 5374 l  p ef
10953 5351 m  11007 5375 l  10997 5398 l  10987 5422 l  10933 5397 l  10943 5374 l 
10953 5351 l  p ef
10997 5398 m  10988 5422 l  10987 5422 l  10997 5398 l  p ef
11006 5374 m  11070 5397 l  11061 5421 l  11053 5445 l  10988 5422 l  10997 5398 l 
11006 5374 l  p ef
11061 5421 m  11055 5446 l  11053 5445 l  11061 5421 l  p ef
11068 5397 m  11224 5438 l  11217 5463 l  11211 5487 l  11055 5446 l  11061 5421 l 
11068 5397 l  p ef
11217 5463 m  11213 5488 l  11211 5487 l  11217 5463 l  p ef
11222 5438 m  11410 5472 l  11406 5497 l  11401 5522 l  11213 5488 l  11217 5463 l 
11222 5438 l  p ef
11406 5497 m  11403 5522 l  11401 5522 l  11406 5497 l  p ef
11409 5472 m  11624 5497 l  11621 5523 l  11618 5548 l  11403 5522 l  11406 5497 l 
11409 5472 l  p ef
11621 5523 m  11619 5548 l  11618 5548 l  11621 5523 l  p ef
11623 5497 m  11860 5514 l  11858 5539 l  11857 5565 l  11619 5548 l  11621 5523 l 
11623 5497 l  p ef
11858 5539 m  11858 5565 l  11857 5565 l  11858 5539 l  p ef
11859 5514 m  12113 5520 l  12112 5545 l  12111 5570 l  11858 5565 l  11858 5539 l 
11859 5514 l  p ef
12112 5545 m  12113 5570 l  12111 5570 l  12112 5545 l  p ef
12111 5520 m  12365 5514 l  12366 5539 l  12366 5565 l  12113 5570 l  12112 5545 l 
12111 5520 l  p ef
12366 5539 m  12367 5565 l  12366 5565 l  12366 5539 l  p ef
12364 5514 m  12601 5497 l  12603 5523 l  12605 5548 l  12367 5565 l  12366 5539 l 
12364 5514 l  p ef
12603 5523 m  12606 5548 l  12605 5548 l  12603 5523 l  p ef
12600 5497 m  12816 5472 l  12819 5497 l  12822 5522 l  12606 5548 l  12603 5523 l 
12600 5497 l  p ef
12819 5497 m  12823 5522 l  12822 5522 l  12819 5497 l  p ef
12814 5472 m  13003 5438 l  13007 5463 l  13012 5488 l  12823 5522 l  12819 5497 l 
12814 5472 l  p ef
13007 5463 m  13014 5487 l  13012 5488 l  13007 5463 l  p ef
13001 5438 m  13157 5397 l  13164 5421 l  13170 5446 l  13014 5487 l  13007 5463 l 
13001 5438 l  p ef
13164 5421 m  13172 5445 l  13170 5446 l  13164 5421 l  p ef
13155 5397 m  13219 5374 l  13228 5398 l  13236 5422 l  13172 5445 l  13164 5421 l 
13155 5397 l  p ef
13228 5398 m  13238 5422 l  13236 5422 l  13228 5398 l  p ef
13217 5375 m  13271 5351 l  13282 5374 l  13292 5397 l  13238 5422 l  13228 5398 l 
13217 5375 l  p ef
13282 5374 m  13295 5396 l  13292 5397 l  13282 5374 l  p ef
13269 5352 m  13312 5327 l  13325 5349 l  13338 5371 l  13295 5396 l  13282 5374 l 
13269 5352 l  p ef
13325 5349 m  13340 5369 l  13338 5371 l  13325 5349 l  p ef
13310 5328 m  13327 5315 l  13342 5336 l  13358 5356 l  13340 5369 l  13325 5349 l 
13310 5328 l  p ef
13342 5336 m  13360 5354 l  13358 5356 l  13342 5336 l  p ef
13325 5317 m  13339 5304 l  13357 5322 l  13374 5341 l  13360 5354 l  13342 5336 l 
13325 5317 l  p ef
13357 5322 m  13376 5339 l  13374 5341 l  13357 5322 l  p ef
13337 5306 m  13349 5292 l  13368 5309 l  13388 5325 l  13376 5339 l  13357 5322 l 
13337 5306 l  p ef
13368 5309 m  13390 5322 l  13388 5325 l  13368 5309 l  p ef
13346 5296 m  13354 5282 l  13376 5295 l  13398 5308 l  13390 5322 l  13368 5309 l 
13346 5296 l  p ef
13376 5295 m  13400 5304 l  13398 5308 l  13398 5308 l  13376 5295 l  p ef
13352 5286 m  13357 5272 l  13381 5281 l  13405 5290 l  13400 5304 l  13376 5295 l 
13352 5286 l  p ef
13381 5281 m  13407 5284 l  13406 5288 l  13405 5290 l  13381 5281 l  p ef
13356 5278 m  13358 5264 l  13383 5267 l  13408 5270 l  13407 5284 l  13381 5281 l 
13356 5278 l  p ef
13383 5267 m  13409 5267 l  13408 5270 l  13383 5267 l  p ef
13358 5267 m  13358 3599 l  13383 3599 l  13409 3599 l  13409 5267 l  13383 5267 l 
13358 5267 l  p ef
13383 3599 m  13408 3596 l  13409 3599 l  13383 3599 l  p ef
13358 3602 m  13356 3588 l  13381 3585 l  13407 3582 l  13408 3596 l  13383 3599 l 
13358 3602 l  p ef
13381 3585 m  13405 3576 l  13406 3581 l  13407 3582 l  13381 3585 l  p ef
13357 3593 m  13352 3579 l  13376 3571 l  13400 3562 l  13405 3576 l  13381 3585 l 
13357 3593 l  p ef
13376 3571 m  13398 3558 l  13400 3562 l  13400 3562 l  13376 3571 l  p ef
13354 3584 m  13346 3570 l  13368 3557 l  13390 3544 l  13398 3558 l  13376 3571 l 
13354 3584 l  p ef
13368 3557 m  13388 3541 l  13390 3544 l  13368 3557 l  p ef
13349 3573 m  13337 3560 l  13357 3543 l  13376 3527 l  13388 3541 l  13368 3557 l 
13349 3573 l  p ef
13357 3543 m  13374 3525 l  13376 3527 l  13357 3543 l  p ef
13339 3562 m  13325 3549 l  13342 3530 l  13360 3511 l  13374 3525 l  13357 3543 l 
13339 3562 l  p ef
13342 3530 m  13358 3510 l  13360 3511 l  13342 3530 l  p ef
13327 3550 m  13310 3537 l  13325 3517 l  13340 3497 l  13358 3510 l  13342 3530 l 
13327 3550 l  p ef
13325 3517 m  13338 3495 l  13340 3497 l  13325 3517 l  p ef
13312 3539 m  13269 3513 l  13282 3491 l  13295 3469 l  13338 3495 l  13325 3517 l 
13312 3539 l  p ef
13282 3491 m  13292 3468 l  13295 3469 l  13282 3491 l  p ef
13271 3515 m  13217 3490 l  13228 3467 l  13238 3444 l  13292 3468 l  13282 3491 l 
13271 3515 l  p ef
13228 3467 m  13236 3443 l  13238 3444 l  13228 3467 l  p ef
13219 3491 m  13155 3468 l  13164 3444 l  13172 3420 l  13236 3443 l  13228 3467 l 
13219 3491 l  p ef
13164 3444 m  13170 3420 l  13172 3420 l  13164 3444 l  p ef
13157 3469 m  13001 3428 l  13007 3403 l  13014 3378 l  13170 3420 l  13164 3444 l 
13157 3469 l  p ef
13007 3403 m  13012 3378 l  13014 3378 l  13007 3403 l  p ef
13003 3428 m  12814 3394 l  12819 3369 l  12823 3344 l  13012 3378 l  13007 3403 l 
13003 3428 l  p ef
12819 3369 m  12822 3344 l  12823 3344 l  12819 3369 l  p ef
12816 3394 m  12600 3368 l  12603 3343 l  12606 3318 l  12822 3344 l  12819 3369 l 
12816 3394 l  p ef
12603 3343 m  12605 3318 l  12606 3318 l  12603 3343 l  p ef
12601 3369 m  12364 3352 l  12366 3327 l  12367 3301 l  12605 3318 l  12603 3343 l 
12601 3369 l  p ef
12366 3327 m  12366 3301 l  12367 3301 l  12366 3327 l  p ef
12365 3352 m  12111 3346 l  12112 3321 l  12113 3296 l  12366 3301 l  12366 3327 l 
12365 3352 l  p ef
12112 3321 m  12111 3296 l  12113 3296 l  12112 3321 l  p ef
0.996 c 12112 3321 m  11419 3321 10842 3447 10842 3599 ct 10842 3750 11419 3877 12112 3877 ct 
12805 3877 13383 3750 13383 3599 ct 13383 3447 12805 3321 12112 3321 ct 12112 3321 l 
p ef
0.000 c 12113 3346 m  11859 3352 l  11858 3327 l  11858 3301 l  12111 3296 l 
12112 3321 l  12113 3346 l  p ef
11858 3327 m  11857 3301 l  11858 3301 l  11858 3327 l  p ef
11860 3352 m  11623 3369 l  11621 3343 l  11619 3318 l  11857 3301 l  11858 3327 l 
11860 3352 l  p ef
11621 3343 m  11618 3318 l  11619 3318 l  11621 3343 l  p ef
11624 3368 m  11409 3394 l  11406 3369 l  11403 3344 l  11618 3318 l  11621 3343 l 
11624 3368 l  p ef
11406 3369 m  11401 3344 l  11403 3344 l  11406 3369 l  p ef
11410 3394 m  11222 3428 l  11217 3403 l  11213 3378 l  11401 3344 l  11406 3369 l 
11410 3394 l  p ef
11217 3403 m  11211 3378 l  11213 3378 l  11217 3403 l  p ef
11224 3428 m  11068 3469 l  11061 3444 l  11055 3420 l  11211 3378 l  11217 3403 l 
11224 3428 l  p ef
11061 3444 m  11053 3420 l  11055 3420 l  11061 3444 l  p ef
11070 3468 m  11006 3491 l  10997 3467 l  10988 3443 l  11053 3420 l  11061 3444 l 
11070 3468 l  p ef
10997 3467 m  10987 3444 l  10988 3443 l  10997 3467 l  p ef
11007 3490 m  10953 3515 l  10943 3491 l  10933 3468 l  10987 3444 l  10997 3467 l 
11007 3490 l  p ef
10943 3491 m  10930 3469 l  10933 3468 l  10943 3491 l  p ef
10956 3513 m  10913 3539 l  10900 3517 l  10887 3495 l  10930 3469 l  10943 3491 l 
10956 3513 l  p ef
10900 3517 m  10884 3497 l  10887 3495 l  10900 3517 l  p ef
10915 3537 m  10898 3550 l  10883 3530 l  10867 3510 l  10884 3497 l  10900 3517 l 
10915 3537 l  p ef
10883 3530 m  10865 3511 l  10867 3510 l  10883 3530 l  p ef
10900 3549 m  10886 3562 l  10868 3543 l  10851 3525 l  10865 3511 l  10883 3530 l 
10900 3549 l  p ef
10868 3543 m  10849 3527 l  10851 3525 l  10868 3543 l  p ef
10888 3560 m  10876 3573 l  10857 3557 l  10837 3541 l  10849 3527 l  10868 3543 l 
10888 3560 l  p ef
10857 3557 m  10835 3544 l  10837 3541 l  10857 3557 l  p ef
10879 3570 m  10871 3584 l  10849 3571 l  10827 3558 l  10835 3544 l  10857 3557 l 
10879 3570 l  p ef
10849 3571 m  10825 3562 l  10826 3558 l  10827 3558 l  10849 3571 l  p ef
10873 3579 m  10868 3593 l  10844 3585 l  10820 3576 l  10825 3562 l  10849 3571 l 
10873 3579 l  p ef
10844 3585 m  10818 3582 l  10819 3577 l  10820 3576 l  10844 3585 l  p ef
10869 3588 m  10867 3602 l  10842 3599 l  10817 3596 l  10818 3582 l  10844 3585 l 
10869 3588 l  p ef
10842 3599 m  10817 3602 l  10817 3598 l  10817 3596 l  10842 3599 l  p ef
10867 3596 m  10869 3610 l  10844 3613 l  10818 3616 l  10817 3602 l  10842 3599 l 
10867 3596 l  p ef
10844 3613 m  10820 3622 l  10819 3617 l  10818 3616 l  10844 3613 l  p ef
10868 3605 m  10873 3618 l  10849 3627 l  10825 3636 l  10820 3622 l  10844 3613 l 
10868 3605 l  p ef
10849 3627 m  10827 3640 l  10825 3636 l  10825 3636 l  10849 3627 l  p ef
10871 3614 m  10879 3628 l  10857 3641 l  10835 3654 l  10827 3640 l  10849 3627 l 
10871 3614 l  p ef
10857 3641 m  10837 3657 l  10835 3654 l  10857 3641 l  p ef
10876 3624 m  10888 3638 l  10868 3654 l  10849 3671 l  10837 3657 l  10857 3641 l 
10876 3624 l  p ef
10868 3654 m  10851 3673 l  10849 3671 l  10868 3654 l  p ef
10885 3636 m  10900 3649 l  10883 3668 l  10865 3686 l  10851 3673 l  10868 3654 l 
10885 3636 l  p ef
10883 3668 m  10867 3688 l  10865 3686 l  10883 3668 l  p ef
10898 3647 m  10915 3660 l  10900 3681 l  10884 3701 l  10867 3688 l  10883 3668 l 
10898 3647 l  p ef
10900 3681 m  10887 3703 l  10884 3701 l  10900 3681 l  p ef
10913 3659 m  10956 3684 l  10943 3706 l  10930 3728 l  10887 3703 l  10900 3681 l 
10913 3659 l  p ef
10943 3706 m  10933 3729 l  10930 3728 l  10943 3706 l  p ef
10953 3683 m  11007 3707 l  10997 3730 l  10987 3754 l  10933 3729 l  10943 3706 l 
10953 3683 l  p ef
10997 3730 m  10988 3754 l  10987 3754 l  10997 3730 l  p ef
11006 3706 m  11070 3729 l  11061 3753 l  11053 3777 l  10988 3754 l  10997 3730 l 
11006 3706 l  p ef
11061 3753 m  11055 3778 l  11053 3777 l  11061 3753 l  p ef
11068 3729 m  11224 3770 l  11217 3795 l  11211 3819 l  11055 3778 l  11061 3753 l 
11068 3729 l  p ef
11217 3795 m  11213 3820 l  11211 3819 l  11217 3795 l  p ef
11222 3770 m  11410 3804 l  11406 3829 l  11401 3854 l  11213 3820 l  11217 3795 l 
11222 3770 l  p ef
11406 3829 m  11403 3854 l  11401 3854 l  11406 3829 l  p ef
11409 3804 m  11624 3829 l  11621 3855 l  11618 3880 l  11403 3854 l  11406 3829 l 
11409 3804 l  p ef
11621 3855 m  11619 3880 l  11618 3880 l  11621 3855 l  p ef
11623 3829 m  11860 3846 l  11858 3871 l  11857 3897 l  11619 3880 l  11621 3855 l 
11623 3829 l  p ef
11858 3871 m  11858 3897 l  11857 3897 l  11858 3871 l  p ef
11859 3846 m  12113 3852 l  12112 3877 l  12111 3902 l  11858 3897 l  11858 3871 l 
11859 3846 l  p ef
12112 3877 m  12113 3902 l  12111 3902 l  12112 3877 l  p ef
12111 3852 m  12365 3846 l  12366 3871 l  12366 3897 l  12113 3902 l  12112 3877 l 
12111 3852 l  p ef
12366 3871 m  12367 3897 l  12366 3897 l  12366 3871 l  p ef
12364 3846 m  12601 3829 l  12603 3855 l  12605 3880 l  12367 3897 l  12366 3871 l 
12364 3846 l  p ef
12603 3855 m  12606 3880 l  12605 3880 l  12603 3855 l  p ef
12600 3829 m  12816 3804 l  12819 3829 l  12822 3854 l  12606 3880 l  12603 3855 l 
12600 3829 l  p ef
12819 3829 m  12823 3854 l  12822 3854 l  12819 3829 l  p ef
12814 3804 m  13003 3770 l  13007 3795 l  13012 3820 l  12823 3854 l  12819 3829 l 
12814 3804 l  p ef
13007 3795 m  13014 3819 l  13012 3820 l  13007 3795 l  p ef
13001 3770 m  13157 3729 l  13164 3753 l  13170 3778 l  13014 3819 l  13007 3795 l 
13001 3770 l  p ef
13164 3753 m  13172 3777 l  13170 3778 l  13164 3753 l  p ef
13155 3729 m  13219 3706 l  13228 3730 l  13236 3754 l  13172 3777 l  13164 3753 l 
13155 3729 l  p ef
13228 3730 m  13238 3754 l  13236 3754 l  13228 3730 l  p ef
13217 3707 m  13271 3683 l  13282 3706 l  13292 3729 l  13238 3754 l  13228 3730 l 
13217 3707 l  p ef
13282 3706 m  13295 3728 l  13292 3729 l  13282 3706 l  p ef
13269 3684 m  13312 3659 l  13325 3681 l  13338 3703 l  13295 3728 l  13282 3706 l 
13269 3684 l  p ef
13325 3681 m  13340 3701 l  13338 3703 l  13325 3681 l  p ef
13310 3660 m  13327 3647 l  13342 3668 l  13358 3688 l  13340 3701 l  13325 3681 l 
13310 3660 l  p ef
13342 3668 m  13360 3686 l  13358 3688 l  13342 3668 l  p ef
13325 3649 m  13339 3636 l  13357 3654 l  13374 3673 l  13360 3686 l  13342 3668 l 
13325 3649 l  p ef
13357 3654 m  13376 3671 l  13374 3673 l  13357 3654 l  p ef
13337 3638 m  13349 3624 l  13368 3641 l  13388 3657 l  13376 3671 l  13357 3654 l 
13337 3638 l  p ef
13368 3641 m  13390 3654 l  13388 3657 l  13368 3641 l  p ef
13346 3628 m  13354 3614 l  13376 3627 l  13398 3640 l  13390 3654 l  13368 3641 l 
13346 3628 l  p ef
13376 3627 m  13400 3636 l  13398 3640 l  13398 3640 l  13376 3627 l  p ef
13352 3618 m  13357 3604 l  13381 3613 l  13405 3622 l  13400 3636 l  13376 3627 l 
13352 3618 l  p ef
13381 3613 m  13407 3616 l  13406 3620 l  13405 3622 l  13381 3613 l  p ef
13356 3610 m  13358 3596 l  13383 3599 l  13408 3602 l  13407 3616 l  13381 3613 l 
13356 3610 l  p ef
13383 3599 m  13408 3596 l  13408 3600 l  13408 3602 l  13383 3599 l  p ef
13358 3602 m  13356 3588 l  13381 3585 l  13407 3582 l  13408 3596 l  13383 3599 l 
13358 3602 l  p ef
13381 3585 m  13405 3576 l  13406 3581 l  13407 3582 l  13381 3585 l  p ef
13357 3593 m  13352 3579 l  13376 3571 l  13400 3562 l  13405 3576 l  13381 3585 l 
13357 3593 l  p ef
13376 3571 m  13398 3558 l  13400 3562 l  13400 3562 l  13376 3571 l  p ef
13354 3584 m  13346 3570 l  13368 3557 l  13390 3544 l  13398 3558 l  13376 3571 l 
13354 3584 l  p ef
13368 3557 m  13388 3541 l  13390 3544 l  13368 3557 l  p ef
13349 3573 m  13337 3560 l  13357 3543 l  13376 3527 l  13388 3541 l  13368 3557 l 
13349 3573 l  p ef
13357 3543 m  13374 3525 l  13376 3527 l  13357 3543 l  p ef
13339 3562 m  13325 3549 l  13342 3530 l  13360 3511 l  13374 3525 l  13357 3543 l 
13339 3562 l  p ef
13342 3530 m  13358 3510 l  13360 3511 l  13342 3530 l  p ef
13327 3550 m  13310 3537 l  13325 3517 l  13340 3497 l  13358 3510 l  13342 3530 l 
13327 3550 l  p ef
13325 3517 m  13338 3495 l  13340 3497 l  13325 3517 l  p ef
13312 3539 m  13269 3513 l  13282 3491 l  13295 3469 l  13338 3495 l  13325 3517 l 
13312 3539 l  p ef
13282 3491 m  13292 3468 l  13295 3469 l  13282 3491 l  p ef
13271 3515 m  13217 3490 l  13228 3467 l  13238 3444 l  13292 3468 l  13282 3491 l 
13271 3515 l  p ef
13228 3467 m  13236 3443 l  13238 3444 l  13228 3467 l  p ef
13219 3491 m  13155 3468 l  13164 3444 l  13172 3420 l  13236 3443 l  13228 3467 l 
13219 3491 l  p ef
13164 3444 m  13170 3420 l  13172 3420 l  13164 3444 l  p ef
13157 3469 m  13001 3428 l  13007 3403 l  13014 3378 l  13170 3420 l  13164 3444 l 
13157 3469 l  p ef
13007 3403 m  13012 3378 l  13014 3378 l  13007 3403 l  p ef
13003 3428 m  12814 3394 l  12819 3369 l  12823 3344 l  13012 3378 l  13007 3403 l 
13003 3428 l  p ef
12819 3369 m  12822 3344 l  12823 3344 l  12819 3369 l  p ef
12816 3394 m  12600 3368 l  12603 3343 l  12606 3318 l  12822 3344 l  12819 3369 l 
12816 3394 l  p ef
12603 3343 m  12605 3318 l  12606 3318 l  12603 3343 l  p ef
12601 3369 m  12364 3352 l  12366 3327 l  12367 3301 l  12605 3318 l  12603 3343 l 
12601 3369 l  p ef
12366 3327 m  12366 3301 l  12367 3301 l  12366 3327 l  p ef
12365 3352 m  12111 3346 l  12112 3321 l  12113 3296 l  12366 3301 l  12366 3327 l 
12365 3352 l  p ef
12112 3321 m  12111 3296 l  12113 3296 l  12112 3321 l  p ef
gs
gs
pum
11516 4475 t
27 0 m  27 -219 l  61 -219 l  61 -186 l  69 -201 77 -212 85 -217 ct 92 -222 100 -224 108 -224 ct 
121 -224 134 -220 147 -212 ct 134 -178 l  125 -183 116 -186 107 -186 ct 98 -186 91 -183 85 -178 ct 
78 -173 74 -167 71 -158 ct 67 -145 65 -130 65 -115 ct 65 0 l  27 0 l  p ef
318 -71 m  356 -66 l  350 -43 339 -26 323 -14 ct 306 -1 285 5 260 5 ct 228 5 202 -5 184 -25 ct 
165 -44 155 -72 155 -108 ct 155 -145 165 -173 184 -193 ct 203 -214 228 -224 258 -224 ct 
287 -224 311 -214 330 -194 ct 348 -174 358 -146 358 -110 ct 358 -108 358 -104 357 -100 ct 
194 -100 l  195 -76 202 -58 214 -45 ct 227 -32 242 -26 260 -26 ct 274 -26 285 -29 295 -36 ct 
305 -43 312 -55 318 -71 ct p
196 -131 m  318 -131 l  317 -149 312 -163 304 -172 ct 293 -186 277 -193 258 -193 ct 
241 -193 227 -188 215 -176 ct 204 -165 197 -150 196 -131 ct p ef
398 18 m  434 24 l  436 35 440 43 447 48 ct 456 55 469 58 485 58 ct 502 58 515 55 524 48 ct 
534 41 540 31 543 19 ct 545 11 546 -4 546 -29 ct 530 -10 510 0 485 0 ct 455 0 432 -11 415 -33 ct 
399 -54 391 -80 391 -111 ct 391 -132 394 -151 402 -169 ct 410 -186 421 -200 435 -210 ct 
449 -219 466 -224 486 -224 ct 512 -224 533 -214 550 -193 ct 550 -219 l  584 -219 l 
584 -30 l  584 4 580 29 574 43 ct 567 57 556 68 540 77 ct 525 85 507 89 485 89 ct 
459 89 438 83 421 71 ct 405 60 398 42 398 18 ct p
429 -113 m  429 -85 435 -64 446 -51 ct 457 -37 472 -31 489 -31 ct 506 -31 520 -37 532 -50 ct 
543 -64 549 -84 549 -112 ct 549 -139 543 -159 531 -173 ct 519 -186 505 -193 488 -193 ct 
472 -193 458 -187 446 -173 ct 435 -160 429 -140 429 -113 ct p ef
638 -260 m  638 -303 l  675 -303 l  675 -260 l  638 -260 l  p
638 0 m  638 -219 l  675 -219 l  675 0 l  638 0 l  p ef
717 -109 m  717 -150 728 -180 751 -200 ct 770 -216 793 -224 820 -224 ct 850 -224 875 -214 894 -194 ct 
913 -175 923 -147 923 -113 ct 923 -84 918 -62 910 -46 ct 901 -30 889 -17 873 -8 ct 
857 1 839 5 820 5 ct 789 5 764 -5 745 -25 ct 727 -44 717 -73 717 -109 ct p
755 -110 m  755 -81 761 -60 774 -46 ct 786 -33 801 -26 820 -26 ct 838 -26 854 -33 866 -47 ct 
878 -61 884 -82 884 -111 ct 884 -138 878 -158 866 -172 ct 854 -186 838 -193 820 -193 ct 
801 -193 786 -186 774 -172 ct 761 -159 755 -138 755 -110 ct p ef
968 0 m  968 -219 l  1001 -219 l  1001 -188 l  1017 -212 1041 -224 1071 -224 ct 
1084 -224 1097 -222 1108 -217 ct 1119 -212 1127 -206 1133 -198 ct 1138 -191 1142 -181 1144 -171 ct 
1145 -164 1146 -152 1146 -135 ct 1146 0 l  1109 0 l  1109 -133 l  1109 -148 1108 -160 1105 -167 ct 
1102 -175 1097 -181 1089 -185 ct 1082 -190 1073 -192 1063 -192 ct 1047 -192 1034 -187 1022 -177 ct 
1011 -167 1005 -148 1005 -120 ct 1005 0 l  968 0 l  p ef
pom
gr
gs
pum
11334 4949 t
37 0 m  37 -190 l  4 -190 l  4 -219 l  37 -219 l  37 -242 l  37 -257 38 -268 41 -275 ct 
44 -284 51 -292 60 -298 ct 69 -304 81 -307 97 -307 ct 108 -307 120 -306 132 -303 ct 
127 -271 l  119 -272 112 -273 105 -273 ct 93 -273 85 -271 81 -266 ct 76 -261 74 -252 74 -239 ct 
74 -219 l  116 -219 l  116 -190 l  74 -190 l  74 0 l  37 0 l  p ef
301 -71 m  339 -66 l  333 -43 322 -26 306 -14 ct 289 -1 268 5 243 5 ct 211 5 185 -5 167 -25 ct 
148 -44 138 -72 138 -108 ct 138 -145 148 -173 167 -193 ct 186 -214 211 -224 241 -224 ct 
270 -224 294 -214 313 -194 ct 331 -174 341 -146 341 -110 ct 341 -108 341 -104 340 -100 ct 
177 -100 l  178 -76 185 -58 197 -45 ct 210 -32 225 -26 243 -26 ct 257 -26 268 -29 278 -36 ct 
288 -43 295 -55 301 -71 ct p
179 -131 m  301 -131 l  300 -149 295 -163 287 -172 ct 276 -186 260 -193 241 -193 ct 
224 -193 210 -188 198 -176 ct 187 -165 180 -150 179 -131 ct p ef
531 -27 m  517 -15 504 -7 491 -2 ct 479 3 465 5 450 5 ct 426 5 408 -1 395 -13 ct 
382 -24 375 -39 375 -58 ct 375 -68 378 -78 383 -87 ct 388 -96 394 -103 402 -108 ct 
410 -114 419 -118 429 -121 ct 436 -123 447 -124 462 -126 ct 492 -130 514 -134 528 -139 ct 
528 -144 528 -147 528 -149 ct 528 -164 525 -174 518 -181 ct 508 -189 494 -193 475 -193 ct 
458 -193 445 -190 437 -184 ct 428 -178 422 -167 418 -152 ct 382 -157 l  385 -172 390 -185 398 -194 ct 
406 -204 417 -211 431 -216 ct 445 -221 462 -224 481 -224 ct 499 -224 515 -222 526 -217 ct 
538 -213 547 -207 552 -201 ct 558 -194 561 -186 564 -176 ct 565 -169 566 -158 566 -141 ct 
566 -92 l  566 -57 566 -35 568 -26 ct 569 -17 573 -8 577 0 ct 538 0 l  535 -8 532 -17 531 -27 ct 
p
528 -110 m  514 -104 494 -100 467 -96 ct 452 -94 441 -91 435 -88 ct 428 -86 424 -82 420 -76 ct 
417 -71 415 -65 415 -59 ct 415 -49 419 -41 426 -34 ct 434 -27 445 -24 459 -24 ct 
473 -24 486 -27 497 -33 ct 509 -40 517 -48 522 -59 ct 526 -68 528 -80 528 -96 ct 
528 -110 l  p ef
706 -33 m  711 0 l  701 2 692 3 683 3 ct 670 3 659 1 652 -3 ct 645 -8 639 -13 636 -20 ct 
633 -27 632 -42 632 -64 ct 632 -190 l  604 -190 l  604 -219 l  632 -219 l 
632 -273 l  669 -296 l  669 -219 l  706 -219 l  706 -190 l  669 -190 l 
669 -62 l  669 -51 669 -45 671 -42 ct 672 -39 674 -36 677 -34 ct 680 -33 684 -32 690 -32 ct 
694 -32 699 -32 706 -33 ct p ef
887 0 m  887 -32 l  870 -7 846 5 817 5 ct 804 5 792 3 781 -2 ct 770 -7 761 -14 756 -21 ct 
750 -29 747 -38 744 -49 ct 743 -56 742 -67 742 -83 ct 742 -219 l  779 -219 l 
779 -98 l  779 -78 780 -65 782 -58 ct 784 -49 789 -41 796 -35 ct 804 -30 813 -27 824 -27 ct 
836 -27 846 -30 856 -36 ct 866 -41 873 -49 877 -59 ct 881 -69 883 -83 883 -102 ct 
883 -219 l  920 -219 l  920 0 l  887 0 l  p ef
980 0 m  980 -219 l  1014 -219 l  1014 -186 l  1022 -201 1030 -212 1038 -217 ct 
1045 -222 1053 -224 1061 -224 ct 1074 -224 1087 -220 1100 -212 ct 1087 -178 l 
1078 -183 1069 -186 1060 -186 ct 1051 -186 1044 -183 1038 -178 ct 1031 -173 1027 -167 1024 -158 ct 
1020 -145 1018 -130 1018 -115 ct 1018 0 l  980 0 l  p ef
1270 -71 m  1308 -66 l  1302 -43 1291 -26 1275 -14 ct 1258 -1 1237 5 1212 5 ct 
1180 5 1154 -5 1136 -25 ct 1117 -44 1107 -72 1107 -108 ct 1107 -145 1117 -173 1136 -193 ct 
1155 -214 1180 -224 1210 -224 ct 1239 -224 1263 -214 1282 -194 ct 1300 -174 1310 -146 1310 -110 ct 
1310 -108 1310 -104 1309 -100 ct 1146 -100 l  1147 -76 1154 -58 1166 -45 ct 
1179 -32 1194 -26 1212 -26 ct 1226 -26 1237 -29 1247 -36 ct 1257 -43 1264 -55 1270 -71 ct 
p
1148 -131 m  1270 -131 l  1269 -149 1264 -163 1256 -172 ct 1245 -186 1229 -193 1210 -193 ct 
1193 -193 1179 -188 1167 -176 ct 1156 -165 1149 -150 1148 -131 ct p ef
1342 -65 m  1379 -71 l  1381 -56 1387 -45 1396 -37 ct 1405 -29 1419 -26 1436 -26 ct 
1453 -26 1465 -29 1474 -36 ct 1482 -43 1486 -51 1486 -60 ct 1486 -69 1482 -75 1475 -80 ct 
1470 -84 1457 -88 1437 -93 ct 1410 -100 1391 -106 1380 -111 ct 1370 -116 1362 -123 1356 -131 ct 
1351 -140 1348 -150 1348 -161 ct 1348 -171 1350 -180 1355 -188 ct 1359 -196 1366 -203 1373 -209 ct 
1379 -213 1387 -217 1397 -220 ct 1407 -223 1418 -224 1429 -224 ct 1446 -224 1461 -222 1474 -217 ct 
1487 -212 1497 -205 1503 -196 ct 1509 -188 1514 -177 1516 -163 ct 1480 -158 l 
1478 -169 1473 -178 1465 -184 ct 1457 -190 1446 -193 1432 -193 ct 1415 -193 1402 -191 1395 -185 ct 
1388 -179 1384 -173 1384 -165 ct 1384 -160 1386 -156 1389 -152 ct 1392 -148 1396 -145 1403 -142 ct 
1407 -141 1418 -138 1436 -133 ct 1462 -126 1480 -120 1491 -116 ct 1501 -111 1509 -105 1515 -96 ct 
1521 -88 1524 -77 1524 -64 ct 1524 -52 1521 -40 1513 -29 ct 1506 -18 1496 -10 1482 -4 ct 
1468 2 1453 5 1436 5 ct 1407 5 1386 -1 1371 -13 ct 1356 -25 1346 -42 1342 -65 ct 
p ef
pom
gr
gr
0.996 c 7666 5444 m  6079 5444 l  6079 3539 l  9254 3539 l  9254 5444 l 
7666 5444 l  p ef
0.000 c 7666 5470 m  6079 5470 l  6079 5444 l  6079 5419 l  7666 5419 l 
7666 5444 l  7666 5470 l  p ef
6079 5444 m  6079 5470 l  6075 5469 l  6070 5468 l  6066 5466 l  6063 5464 l 
6059 5460 l  6057 5457 l  6055 5453 l  6054 5448 l  6054 5444 l  6054 5444 l 
6079 5444 l  p ef
6054 5444 m  6054 3539 l  6079 3539 l  6105 3539 l  6105 5444 l  6079 5444 l 
6054 5444 l  p ef
6079 3539 m  6054 3539 l  6054 3535 l  6055 3530 l  6057 3526 l  6059 3523 l 
6063 3519 l  6066 3517 l  6070 3515 l  6075 3514 l  6079 3514 l  6079 3514 l 
6079 3539 l  p ef
6079 3514 m  9254 3514 l  9254 3539 l  9254 3565 l  6079 3565 l  6079 3539 l 
6079 3514 l  p ef
9254 3539 m  9254 3514 l  9258 3514 l  9263 3515 l  9267 3517 l  9270 3519 l 
9274 3523 l  9276 3526 l  9278 3530 l  9279 3535 l  9280 3539 l  9280 3539 l 
9254 3539 l  p ef
9280 3539 m  9280 5444 l  9254 5444 l  9229 5444 l  9229 3539 l  9254 3539 l 
9280 3539 l  p ef
9254 5444 m  9280 5444 l  9279 5448 l  9278 5453 l  9276 5457 l  9274 5460 l 
9270 5464 l  9267 5466 l  9263 5468 l  9258 5469 l  9254 5470 l  9254 5470 l 
9254 5444 l  p ef
9254 5470 m  7666 5470 l  7666 5444 l  7666 5419 l  9254 5419 l  9254 5444 l 
9254 5470 l  p ef
gs
gs
pum
7000 4158 t
33 0 m  33 -303 l  252 -303 l  252 -267 l  74 -267 l  74 -174 l  241 -174 l 
241 -139 l  74 -139 l  74 -36 l  259 -36 l  259 0 l  33 0 l  p ef
287 0 m  367 -114 l  293 -219 l  340 -219 l  373 -168 l  380 -158 385 -150 389 -143 ct 
395 -152 400 -160 405 -167 ct 442 -219 l  487 -219 l  411 -116 l  492 0 l 
447 0 l  402 -68 l  390 -86 l  332 0 l  287 0 l  p ef
600 -33 m  605 0 l  595 2 586 3 577 3 ct 564 3 553 1 546 -3 ct 539 -8 533 -13 530 -20 ct 
527 -27 526 -42 526 -64 ct 526 -190 l  498 -190 l  498 -219 l  526 -219 l 
526 -273 l  563 -296 l  563 -219 l  600 -219 l  600 -190 l  563 -190 l 
563 -62 l  563 -51 563 -45 565 -42 ct 566 -39 568 -36 571 -34 ct 574 -33 578 -32 584 -32 ct 
588 -32 593 -32 600 -33 ct p ef
637 0 m  637 -219 l  671 -219 l  671 -186 l  679 -201 687 -212 695 -217 ct 
702 -222 710 -224 718 -224 ct 731 -224 744 -220 757 -212 ct 744 -178 l  735 -183 726 -186 717 -186 ct 
708 -186 701 -183 695 -178 ct 688 -173 684 -167 681 -158 ct 677 -145 675 -130 675 -115 ct 
675 0 l  637 0 l  p ef
920 -27 m  906 -15 893 -7 880 -2 ct 868 3 854 5 839 5 ct 815 5 797 -1 784 -13 ct 
771 -24 764 -39 764 -58 ct 764 -68 767 -78 772 -87 ct 777 -96 783 -103 791 -108 ct 
799 -114 808 -118 818 -121 ct 825 -123 836 -124 851 -126 ct 881 -130 903 -134 917 -139 ct 
917 -144 917 -147 917 -149 ct 917 -164 914 -174 907 -181 ct 897 -189 883 -193 864 -193 ct 
847 -193 834 -190 826 -184 ct 817 -178 811 -167 807 -152 ct 771 -157 l  774 -172 779 -185 787 -194 ct 
795 -204 806 -211 820 -216 ct 834 -221 851 -224 870 -224 ct 888 -224 904 -222 915 -217 ct 
927 -213 936 -207 941 -201 ct 947 -194 950 -186 953 -176 ct 954 -169 955 -158 955 -141 ct 
955 -92 l  955 -57 955 -35 957 -26 ct 958 -17 962 -8 966 0 ct 927 0 l  924 -8 921 -17 920 -27 ct 
p
917 -110 m  903 -104 883 -100 856 -96 ct 841 -94 830 -91 824 -88 ct 817 -86 813 -82 809 -76 ct 
806 -71 804 -65 804 -59 ct 804 -49 808 -41 815 -34 ct 823 -27 834 -24 848 -24 ct 
862 -24 875 -27 886 -33 ct 898 -40 906 -48 911 -59 ct 915 -68 917 -80 917 -96 ct 
917 -110 l  p ef
1157 -80 m  1194 -75 l  1190 -50 1179 -31 1163 -16 ct 1146 -2 1126 5 1102 5 ct 
1072 5 1048 -5 1030 -24 ct 1012 -44 1003 -72 1003 -109 ct 1003 -132 1006 -153 1014 -171 ct 
1022 -189 1034 -202 1050 -211 ct 1066 -220 1084 -224 1102 -224 ct 1126 -224 1146 -218 1161 -206 ct 
1176 -194 1186 -177 1190 -155 ct 1154 -149 l  1150 -164 1144 -175 1136 -182 ct 
1127 -190 1116 -193 1104 -193 ct 1085 -193 1070 -187 1058 -173 ct 1047 -160 1041 -139 1041 -110 ct 
1041 -80 1046 -59 1058 -46 ct 1069 -32 1084 -26 1102 -26 ct 1116 -26 1129 -30 1138 -39 ct 
1148 -48 1154 -62 1157 -80 ct p ef
1307 -33 m  1312 0 l  1302 2 1293 3 1284 3 ct 1271 3 1260 1 1253 -3 ct 1246 -8 1240 -13 1237 -20 ct 
1234 -27 1233 -42 1233 -64 ct 1233 -190 l  1205 -190 l  1205 -219 l  1233 -219 l 
1233 -273 l  1270 -296 l  1270 -219 l  1307 -219 l  1307 -190 l  1270 -190 l 
1270 -62 l  1270 -51 1270 -45 1272 -42 ct 1273 -39 1275 -36 1278 -34 ct 1281 -33 1285 -32 1291 -32 ct 
1295 -32 1300 -32 1307 -33 ct p ef
pom
gr
gs
pum
6433 4632 t
28 -260 m  28 -303 l  65 -303 l  65 -260 l  28 -260 l  p
28 0 m  28 -219 l  65 -219 l  65 0 l  28 0 l  p ef
121 0 m  121 -219 l  154 -219 l  154 -188 l  161 -199 170 -208 182 -214 ct 
193 -221 206 -224 221 -224 ct 237 -224 250 -221 261 -214 ct 271 -207 278 -198 283 -186 ct 
300 -211 323 -224 350 -224 ct 372 -224 389 -218 401 -206 ct 412 -194 418 -175 418 -150 ct 
418 0 l  381 0 l  381 -138 l  381 -153 380 -164 378 -170 ct 375 -177 371 -182 364 -186 ct 
358 -190 351 -192 342 -192 ct 327 -192 314 -187 304 -176 ct 293 -166 288 -150 288 -127 ct 
288 0 l  251 0 l  251 -142 l  251 -159 248 -171 242 -179 ct 236 -188 226 -192 212 -192 ct 
202 -192 192 -189 183 -184 ct 174 -178 168 -170 164 -159 ct 160 -149 158 -134 158 -114 ct 
158 0 l  121 0 l  p ef
620 -27 m  606 -15 593 -7 580 -2 ct 568 3 554 5 539 5 ct 515 5 497 -1 484 -13 ct 
471 -24 464 -39 464 -58 ct 464 -68 467 -78 472 -87 ct 477 -96 483 -103 491 -108 ct 
499 -114 508 -118 518 -121 ct 525 -123 536 -124 551 -126 ct 581 -130 603 -134 617 -139 ct 
617 -144 617 -147 617 -149 ct 617 -164 614 -174 607 -181 ct 597 -189 583 -193 564 -193 ct 
547 -193 534 -190 526 -184 ct 517 -178 511 -167 507 -152 ct 471 -157 l  474 -172 479 -185 487 -194 ct 
495 -204 506 -211 520 -216 ct 534 -221 551 -224 570 -224 ct 588 -224 604 -222 615 -217 ct 
627 -213 636 -207 641 -201 ct 647 -194 650 -186 653 -176 ct 654 -169 655 -158 655 -141 ct 
655 -92 l  655 -57 655 -35 657 -26 ct 658 -17 662 -8 666 0 ct 627 0 l  624 -8 621 -17 620 -27 ct 
p
617 -110 m  603 -104 583 -100 556 -96 ct 541 -94 530 -91 524 -88 ct 517 -86 513 -82 509 -76 ct 
506 -71 504 -65 504 -59 ct 504 -49 508 -41 515 -34 ct 523 -27 534 -24 548 -24 ct 
562 -24 575 -27 586 -33 ct 598 -40 606 -48 611 -59 ct 615 -68 617 -80 617 -96 ct 
617 -110 l  p ef
707 18 m  743 24 l  745 35 749 43 756 48 ct 765 55 778 58 794 58 ct 811 58 824 55 833 48 ct 
843 41 849 31 852 19 ct 854 11 855 -4 855 -29 ct 839 -10 819 0 794 0 ct 764 0 741 -11 724 -33 ct 
708 -54 700 -80 700 -111 ct 700 -132 703 -151 711 -169 ct 719 -186 730 -200 744 -210 ct 
758 -219 775 -224 795 -224 ct 821 -224 842 -214 859 -193 ct 859 -219 l  893 -219 l 
893 -30 l  893 4 889 29 883 43 ct 876 57 865 68 849 77 ct 834 85 816 89 794 89 ct 
768 89 747 83 730 71 ct 714 60 707 42 707 18 ct p
738 -113 m  738 -85 744 -64 755 -51 ct 766 -37 781 -31 798 -31 ct 815 -31 829 -37 841 -50 ct 
852 -64 858 -84 858 -112 ct 858 -139 852 -159 840 -173 ct 828 -186 814 -193 797 -193 ct 
781 -193 767 -187 755 -173 ct 744 -160 738 -140 738 -113 ct p ef
1097 -71 m  1135 -66 l  1129 -43 1118 -26 1102 -14 ct 1085 -1 1064 5 1039 5 ct 
1007 5 981 -5 963 -25 ct 944 -44 934 -72 934 -108 ct 934 -145 944 -173 963 -193 ct 
982 -214 1007 -224 1037 -224 ct 1066 -224 1090 -214 1109 -194 ct 1127 -174 1137 -146 1137 -110 ct 
1137 -108 1137 -104 1136 -100 ct 973 -100 l  974 -76 981 -58 993 -45 ct 1006 -32 1021 -26 1039 -26 ct 
1053 -26 1064 -29 1074 -36 ct 1084 -43 1091 -55 1097 -71 ct p
975 -131 m  1097 -131 l  1096 -149 1091 -163 1083 -172 ct 1072 -186 1056 -193 1037 -193 ct 
1020 -193 1006 -188 994 -176 ct 983 -165 976 -150 975 -131 ct p ef
1301 0 m  1301 -219 l  1335 -219 l  1335 -186 l  1343 -201 1351 -212 1359 -217 ct 
1366 -222 1374 -224 1382 -224 ct 1395 -224 1408 -220 1421 -212 ct 1408 -178 l 
1399 -183 1390 -186 1381 -186 ct 1372 -186 1365 -183 1359 -178 ct 1352 -173 1348 -167 1345 -158 ct 
1341 -145 1339 -130 1339 -115 ct 1339 0 l  1301 0 l  p ef
1592 -71 m  1630 -66 l  1624 -43 1613 -26 1597 -14 ct 1580 -1 1559 5 1534 5 ct 
1502 5 1476 -5 1458 -25 ct 1439 -44 1429 -72 1429 -108 ct 1429 -145 1439 -173 1458 -193 ct 
1477 -214 1502 -224 1532 -224 ct 1561 -224 1585 -214 1604 -194 ct 1622 -174 1632 -146 1632 -110 ct 
1632 -108 1632 -104 1631 -100 ct 1468 -100 l  1469 -76 1476 -58 1488 -45 ct 
1501 -32 1516 -26 1534 -26 ct 1548 -26 1559 -29 1569 -36 ct 1579 -43 1586 -55 1592 -71 ct 
p
1470 -131 m  1592 -131 l  1591 -149 1586 -163 1578 -172 ct 1567 -186 1551 -193 1532 -193 ct 
1515 -193 1501 -188 1489 -176 ct 1478 -165 1471 -150 1470 -131 ct p ef
1672 18 m  1708 24 l  1710 35 1714 43 1721 48 ct 1730 55 1743 58 1759 58 ct 
1776 58 1789 55 1798 48 ct 1808 41 1814 31 1817 19 ct 1819 11 1820 -4 1820 -29 ct 
1804 -10 1784 0 1759 0 ct 1729 0 1706 -11 1689 -33 ct 1673 -54 1665 -80 1665 -111 ct 
1665 -132 1668 -151 1676 -169 ct 1684 -186 1695 -200 1709 -210 ct 1723 -219 1740 -224 1760 -224 ct 
1786 -224 1807 -214 1824 -193 ct 1824 -219 l  1858 -219 l  1858 -30 l  1858 4 1854 29 1848 43 ct 
1841 57 1830 68 1814 77 ct 1799 85 1781 89 1759 89 ct 1733 89 1712 83 1695 71 ct 
1679 60 1672 42 1672 18 ct p
1703 -113 m  1703 -85 1709 -64 1720 -51 ct 1731 -37 1746 -31 1763 -31 ct 1780 -31 1794 -37 1806 -50 ct 
1817 -64 1823 -84 1823 -112 ct 1823 -139 1817 -159 1805 -173 ct 1793 -186 1779 -193 1762 -193 ct 
1746 -193 1732 -187 1720 -173 ct 1709 -160 1703 -140 1703 -113 ct p ef
1912 -260 m  1912 -303 l  1949 -303 l  1949 -260 l  1912 -260 l  p
1912 0 m  1912 -219 l  1949 -219 l  1949 0 l  1912 0 l  p ef
1991 -109 m  1991 -150 2002 -180 2025 -200 ct 2044 -216 2067 -224 2094 -224 ct 
2124 -224 2149 -214 2168 -194 ct 2187 -175 2197 -147 2197 -113 ct 2197 -84 2192 -62 2184 -46 ct 
2175 -30 2163 -17 2147 -8 ct 2131 1 2113 5 2094 5 ct 2063 5 2038 -5 2019 -25 ct 
2001 -44 1991 -73 1991 -109 ct p
2029 -110 m  2029 -81 2035 -60 2048 -46 ct 2060 -33 2075 -26 2094 -26 ct 2112 -26 2128 -33 2140 -47 ct 
2152 -61 2158 -82 2158 -111 ct 2158 -138 2152 -158 2140 -172 ct 2128 -186 2112 -193 2094 -193 ct 
2075 -193 2060 -186 2048 -172 ct 2035 -159 2029 -138 2029 -110 ct p ef
2242 0 m  2242 -219 l  2275 -219 l  2275 -188 l  2291 -212 2315 -224 2345 -224 ct 
2358 -224 2371 -222 2382 -217 ct 2393 -212 2401 -206 2407 -198 ct 2412 -191 2416 -181 2418 -171 ct 
2419 -164 2420 -152 2420 -135 ct 2420 0 l  2383 0 l  2383 -133 l  2383 -148 2382 -160 2379 -167 ct 
2376 -175 2371 -181 2363 -185 ct 2356 -190 2347 -192 2337 -192 ct 2321 -192 2308 -187 2296 -177 ct 
2285 -167 2279 -148 2279 -120 ct 2279 0 l  2242 0 l  p ef
pom
gr
gs
pum
6888 5106 t
37 0 m  37 -190 l  4 -190 l  4 -219 l  37 -219 l  37 -242 l  37 -257 38 -268 41 -275 ct 
44 -284 51 -292 60 -298 ct 69 -304 81 -307 97 -307 ct 108 -307 120 -306 132 -303 ct 
127 -271 l  119 -272 112 -273 105 -273 ct 93 -273 85 -271 81 -266 ct 76 -261 74 -252 74 -239 ct 
74 -219 l  116 -219 l  116 -190 l  74 -190 l  74 0 l  37 0 l  p ef
301 -71 m  339 -66 l  333 -43 322 -26 306 -14 ct 289 -1 268 5 243 5 ct 211 5 185 -5 167 -25 ct 
148 -44 138 -72 138 -108 ct 138 -145 148 -173 167 -193 ct 186 -214 211 -224 241 -224 ct 
270 -224 294 -214 313 -194 ct 331 -174 341 -146 341 -110 ct 341 -108 341 -104 340 -100 ct 
177 -100 l  178 -76 185 -58 197 -45 ct 210 -32 225 -26 243 -26 ct 257 -26 268 -29 278 -36 ct 
288 -43 295 -55 301 -71 ct p
179 -131 m  301 -131 l  300 -149 295 -163 287 -172 ct 276 -186 260 -193 241 -193 ct 
224 -193 210 -188 198 -176 ct 187 -165 180 -150 179 -131 ct p ef
531 -27 m  517 -15 504 -7 491 -2 ct 479 3 465 5 450 5 ct 426 5 408 -1 395 -13 ct 
382 -24 375 -39 375 -58 ct 375 -68 378 -78 383 -87 ct 388 -96 394 -103 402 -108 ct 
410 -114 419 -118 429 -121 ct 436 -123 447 -124 462 -126 ct 492 -130 514 -134 528 -139 ct 
528 -144 528 -147 528 -149 ct 528 -164 525 -174 518 -181 ct 508 -189 494 -193 475 -193 ct 
458 -193 445 -190 437 -184 ct 428 -178 422 -167 418 -152 ct 382 -157 l  385 -172 390 -185 398 -194 ct 
406 -204 417 -211 431 -216 ct 445 -221 462 -224 481 -224 ct 499 -224 515 -222 526 -217 ct 
538 -213 547 -207 552 -201 ct 558 -194 561 -186 564 -176 ct 565 -169 566 -158 566 -141 ct 
566 -92 l  566 -57 566 -35 568 -26 ct 569 -17 573 -8 577 0 ct 538 0 l  535 -8 532 -17 531 -27 ct 
p
528 -110 m  514 -104 494 -100 467 -96 ct 452 -94 441 -91 435 -88 ct 428 -86 424 -82 420 -76 ct 
417 -71 415 -65 415 -59 ct 415 -49 419 -41 426 -34 ct 434 -27 445 -24 459 -24 ct 
473 -24 486 -27 497 -33 ct 509 -40 517 -48 522 -59 ct 526 -68 528 -80 528 -96 ct 
528 -110 l  p ef
706 -33 m  711 0 l  701 2 692 3 683 3 ct 670 3 659 1 652 -3 ct 645 -8 639 -13 636 -20 ct 
633 -27 632 -42 632 -64 ct 632 -190 l  604 -190 l  604 -219 l  632 -219 l 
632 -273 l  669 -296 l  669 -219 l  706 -219 l  706 -190 l  669 -190 l 
669 -62 l  669 -51 669 -45 671 -42 ct 672 -39 674 -36 677 -34 ct 680 -33 684 -32 690 -32 ct 
694 -32 699 -32 706 -33 ct p ef
887 0 m  887 -32 l  870 -7 846 5 817 5 ct 804 5 792 3 781 -2 ct 770 -7 761 -14 756 -21 ct 
750 -29 747 -38 744 -49 ct 743 -56 742 -67 742 -83 ct 742 -219 l  779 -219 l 
779 -98 l  779 -78 780 -65 782 -58 ct 784 -49 789 -41 796 -35 ct 804 -30 813 -27 824 -27 ct 
836 -27 846 -30 856 -36 ct 866 -41 873 -49 877 -59 ct 881 -69 883 -83 883 -102 ct 
883 -219 l  920 -219 l  920 0 l  887 0 l  p ef
980 0 m  980 -219 l  1014 -219 l  1014 -186 l  1022 -201 1030 -212 1038 -217 ct 
1045 -222 1053 -224 1061 -224 ct 1074 -224 1087 -220 1100 -212 ct 1087 -178 l 
1078 -183 1069 -186 1060 -186 ct 1051 -186 1044 -183 1038 -178 ct 1031 -173 1027 -167 1024 -158 ct 
1020 -145 1018 -130 1018 -115 ct 1018 0 l  980 0 l  p ef
1270 -71 m  1308 -66 l  1302 -43 1291 -26 1275 -14 ct 1258 -1 1237 5 1212 5 ct 
1180 5 1154 -5 1136 -25 ct 1117 -44 1107 -72 1107 -108 ct 1107 -145 1117 -173 1136 -193 ct 
1155 -214 1180 -224 1210 -224 ct 1239 -224 1263 -214 1282 -194 ct 1300 -174 1310 -146 1310 -110 ct 
1310 -108 1310 -104 1309 -100 ct 1146 -100 l  1147 -76 1154 -58 1166 -45 ct 
1179 -32 1194 -26 1212 -26 ct 1226 -26 1237 -29 1247 -36 ct 1257 -43 1264 -55 1270 -71 ct 
p
1148 -131 m  1270 -131 l  1269 -149 1264 -163 1256 -172 ct 1245 -186 1229 -193 1210 -193 ct 
1193 -193 1179 -188 1167 -176 ct 1156 -165 1149 -150 1148 -131 ct p ef
1342 -65 m  1379 -71 l  1381 -56 1387 -45 1396 -37 ct 1405 -29 1419 -26 1436 -26 ct 
1453 -26 1465 -29 1474 -36 ct 1482 -43 1486 -51 1486 -60 ct 1486 -69 1482 -75 1475 -80 ct 
1470 -84 1457 -88 1437 -93 ct 1410 -100 1391 -106 1380 -111 ct 1370 -116 1362 -123 1356 -131 ct 
1351 -140 1348 -150 1348 -161 ct 1348 -171 1350 -180 1355 -188 ct 1359 -196 1366 -203 1373 -209 ct 
1379 -213 1387 -217 1397 -220 ct 1407 -223 1418 -224 1429 -224 ct 1446 -224 1461 -222 1474 -217 ct 
1487 -212 1497 -205 1503 -196 ct 1509 -188 1514 -177 1516 -163 ct 1480 -158 l 
1478 -169 1473 -178 1465 -184 ct 1457 -190 1446 -193 1432 -193 ct 1415 -193 1402 -191 1395 -185 ct 
1388 -179 1384 -173 1384 -165 ct 1384 -160 1386 -156 1389 -152 ct 1392 -148 1396 -145 1403 -142 ct 
1407 -141 1418 -138 1436 -133 ct 1462 -126 1480 -120 1491 -116 ct 1501 -111 1509 -105 1515 -96 ct 
1521 -88 1524 -77 1524 -64 ct 1524 -52 1521 -40 1513 -29 ct 1506 -18 1496 -10 1482 -4 ct 
1468 2 1453 5 1436 5 ct 1407 5 1386 -1 1371 -13 ct 1356 -25 1346 -42 1342 -65 ct 
p ef
pom
gr
gr
5584 4641 m  5607 4594 l  5622 4543 l  5627 4490 l  5621 4436 l  5606 4387 l 
5583 4342 l  5555 4304 l  6080 4492 l  5555 4680 l  5584 4641 l  p ef
4492 4467 m  5660 4467 l  5660 4518 l  4492 4518 l  4492 4467 l  p ef
10364 4641 m  10387 4594 l  10402 4543 l  10407 4490 l  10401 4436 l  10386 4387 l 
10363 4342 l  10335 4304 l  10860 4492 l  10335 4680 l  10364 4641 l  p ef
9272 4467 m  10440 4467 l  10440 4518 l  9272 4518 l  9272 4467 l  p ef
0 2327 t 
pom
count op_count sub {pop} repeat countdictstack dict_count sub {end} repeat b4_inc_state restore
%%PageTrailer
%%Trailer
%%EOF
