%!PS-Adobe-3.0 EPSF-3.0 
%%BoundingBox: 0 0 486 378
%%Pages: 0
%%Creator: Sun Microsystems, Inc.
%%Title: none
%%CreationDate: none
%%LanguageLevel: 2
%%EndComments
%%BeginProlog
%%BeginResource: procset SDRes-Prolog 1.0 0
/b4_inc_state save def
/dict_count countdictstack def
/op_count count 1 sub def
userdict begin
0 setgray 0 setlinecap 1 setlinewidth 0 setlinejoin 10 setmiterlimit[] 0 setdash newpath
/languagelevel where {pop languagelevel 1 ne {false setstrokeadjust false setoverprint} if} if
/bdef {bind def} bind def
/c {setgray} bdef
/l {neg lineto} bdef
/rl {neg rlineto} bdef
/lc {setlinecap} bdef
/lj {setlinejoin} bdef
/lw {setlinewidth} bdef
/ml {setmiterlimit} bdef
/ld {setdash} bdef
/m {neg moveto} bdef
/ct {6 2 roll neg 6 2 roll neg 6 2 roll neg curveto} bdef
/r {rotate} bdef
/t {neg translate} bdef
/s {scale} bdef
/sw {show} bdef
/gs {gsave} bdef
/gr {grestore} bdef
/f {findfont dup length dict begin
{1 index /FID ne {def} {pop pop} ifelse} forall /Encoding ISOLatin1Encoding def
currentdict end /NFont exch definefont pop /NFont findfont} bdef
/p {closepath} bdef
/sf {scalefont setfont} bdef
/ef {eofill}bdef
/pc {closepath stroke}bdef
/ps {stroke}bdef
/pum {matrix currentmatrix}bdef
/pom {setmatrix}bdef
/bs {/aString exch def /nXOfs exch def /nWidth exch def currentpoint nXOfs 0 rmoveto pum nWidth aString stringwidth pop div 1 scale aString show pom moveto} bdef
%%EndResource
%%EndProlog
%%BeginSetup
%%EndSetup
%%Page: 1 1
%%BeginPageSetup
%%EndPageSetup
pum
0.02834 0.02834 s 
0 -13335 t
/tm matrix currentmatrix def
tm setmatrix
-1951 -5445 t 
1 1 s 
0.996 c 5443 6715 m  1951 6715 l  1951 5445 l  8936 5445 l  8936 6715 l 
5443 6715 l  p ef
0.000 c 5443 6715 m  1951 6715 l  1951 5445 l  8936 5445 l  8936 6715 l 
5443 6715 l  pc
gs
gs
pum
3743 6312 t
20 -99 m  75 -107 l  78 -85 86 -68 101 -57 ct 115 -45 135 -39 160 -39 ct 186 -39 205 -44 217 -55 ct 
229 -65 236 -77 236 -91 ct 236 -104 230 -114 219 -121 ct 212 -126 193 -132 162 -140 ct 
121 -150 93 -159 77 -167 ct 61 -174 49 -185 41 -198 ct 33 -211 29 -226 29 -242 ct 
29 -257 32 -270 39 -283 ct 46 -295 55 -306 66 -314 ct 75 -320 87 -326 102 -330 ct 
117 -335 133 -337 150 -337 ct 176 -337 199 -333 218 -326 ct 238 -318 252 -308 261 -296 ct 
271 -283 277 -266 281 -245 ct 226 -237 l  224 -254 216 -267 204 -277 ct 193 -286 176 -291 154 -291 ct 
128 -291 110 -287 99 -278 ct 88 -270 83 -260 83 -249 ct 83 -241 85 -235 90 -229 ct 
94 -223 101 -218 111 -214 ct 117 -212 133 -207 160 -200 ct 200 -189 227 -181 243 -174 ct 
259 -167 271 -158 280 -145 ct 289 -132 293 -116 293 -97 ct 293 -79 288 -61 277 -45 ct 
266 -28 250 -15 230 -6 ct 209 3 186 7 160 7 ct 118 7 85 -2 62 -20 ct 40 -37 26 -64 20 -99 ct 
p ef
451 0 m  326 -330 l  385 -330 l  456 -132 l  463 -111 470 -89 477 -66 ct 
482 -83 489 -104 498 -128 ct 571 -330 l  628 -330 l  503 0 l  451 0 l  p ef
676 0 m  676 -455 l  731 -455 l  731 0 l  676 0 l  p ef
1148 -159 m  1208 -144 l  1196 -95 1173 -57 1140 -31 ct 1108 -5 1068 8 1020 8 ct 
971 8 931 -2 901 -22 ct 870 -42 847 -71 831 -109 ct 815 -147 807 -187 807 -231 ct 
807 -278 816 -319 834 -355 ct 852 -390 878 -417 911 -435 ct 944 -453 981 -463 1021 -463 ct 
1067 -463 1105 -451 1136 -428 ct 1167 -405 1189 -372 1201 -330 ct 1141 -316 l 
1131 -349 1116 -373 1096 -388 ct 1076 -403 1050 -411 1020 -411 ct 985 -411 956 -403 932 -386 ct 
909 -369 892 -347 883 -318 ct 873 -290 869 -261 869 -231 ct 869 -192 874 -159 886 -130 ct 
897 -101 914 -79 938 -65 ct 962 -51 988 -44 1015 -44 ct 1049 -44 1078 -53 1101 -73 ct 
1124 -92 1140 -121 1148 -159 ct p ef
1273 0 m  1273 -455 l  1328 -455 l  1328 0 l  1273 0 l  p ef
1629 -41 m  1608 -24 1588 -11 1569 -4 ct 1550 3 1529 7 1508 7 ct 1471 7 1444 -2 1424 -20 ct 
1405 -37 1395 -60 1395 -87 ct 1395 -103 1399 -118 1406 -131 ct 1413 -145 1423 -156 1435 -164 ct 
1447 -172 1460 -178 1475 -182 ct 1486 -185 1502 -188 1525 -190 ct 1570 -196 1603 -202 1624 -209 ct 
1624 -217 1624 -222 1624 -224 ct 1624 -247 1619 -263 1609 -272 ct 1594 -285 1573 -291 1545 -291 ct 
1519 -291 1499 -286 1487 -277 ct 1474 -268 1465 -252 1459 -228 ct 1405 -236 l 
1410 -259 1418 -278 1429 -292 ct 1440 -307 1457 -318 1478 -326 ct 1500 -333 1525 -337 1553 -337 ct 
1581 -337 1604 -334 1622 -327 ct 1639 -321 1652 -312 1660 -302 ct 1669 -292 1674 -280 1678 -264 ct 
1680 -255 1681 -238 1681 -213 ct 1681 -138 l  1681 -87 1682 -54 1684 -40 ct 
1686 -26 1691 -13 1698 0 ct 1640 0 l  1634 -12 1630 -26 1629 -41 ct p
1624 -166 m  1604 -157 1573 -150 1533 -145 ct 1510 -141 1494 -138 1484 -133 ct 
1475 -129 1467 -123 1462 -115 ct 1457 -107 1454 -99 1454 -89 ct 1454 -74 1460 -62 1471 -52 ct 
1483 -42 1499 -37 1521 -37 ct 1542 -37 1561 -41 1578 -51 ct 1595 -60 1607 -73 1615 -89 ct 
1621 -102 1624 -121 1624 -145 ct 1624 -166 l  p ef
1743 -99 m  1798 -107 l  1801 -85 1809 -68 1824 -57 ct 1838 -45 1858 -39 1883 -39 ct 
1909 -39 1928 -44 1940 -55 ct 1952 -65 1959 -77 1959 -91 ct 1959 -104 1953 -114 1942 -121 ct 
1935 -126 1916 -132 1885 -140 ct 1844 -150 1816 -159 1800 -167 ct 1784 -174 1772 -185 1764 -198 ct 
1756 -211 1752 -226 1752 -242 ct 1752 -257 1755 -270 1762 -283 ct 1769 -295 1778 -306 1789 -314 ct 
1798 -320 1810 -326 1825 -330 ct 1840 -335 1856 -337 1873 -337 ct 1899 -337 1922 -333 1941 -326 ct 
1961 -318 1975 -308 1984 -296 ct 1994 -283 2000 -266 2004 -245 ct 1949 -237 l 
1947 -254 1939 -267 1927 -277 ct 1916 -286 1899 -291 1877 -291 ct 1851 -291 1833 -287 1822 -278 ct 
1811 -270 1806 -260 1806 -249 ct 1806 -241 1808 -235 1813 -229 ct 1817 -223 1824 -218 1834 -214 ct 
1840 -212 1856 -207 1883 -200 ct 1923 -189 1950 -181 1966 -174 ct 1982 -167 1994 -158 2003 -145 ct 
2012 -132 2016 -116 2016 -97 ct 2016 -79 2011 -61 2000 -45 ct 1989 -28 1973 -15 1953 -6 ct 
1932 3 1909 7 1883 7 ct 1841 7 1808 -2 1785 -20 ct 1763 -37 1749 -64 1743 -99 ct 
p ef
2060 -99 m  2115 -107 l  2118 -85 2126 -68 2141 -57 ct 2155 -45 2175 -39 2200 -39 ct 
2226 -39 2245 -44 2257 -55 ct 2269 -65 2276 -77 2276 -91 ct 2276 -104 2270 -114 2259 -121 ct 
2252 -126 2233 -132 2202 -140 ct 2161 -150 2133 -159 2117 -167 ct 2101 -174 2089 -185 2081 -198 ct 
2073 -211 2069 -226 2069 -242 ct 2069 -257 2072 -270 2079 -283 ct 2086 -295 2095 -306 2106 -314 ct 
2115 -320 2127 -326 2142 -330 ct 2157 -335 2173 -337 2190 -337 ct 2216 -337 2239 -333 2258 -326 ct 
2278 -318 2292 -308 2301 -296 ct 2311 -283 2317 -266 2321 -245 ct 2266 -237 l 
2264 -254 2256 -267 2244 -277 ct 2233 -286 2216 -291 2194 -291 ct 2168 -291 2150 -287 2139 -278 ct 
2128 -270 2123 -260 2123 -249 ct 2123 -241 2125 -235 2130 -229 ct 2134 -223 2141 -218 2151 -214 ct 
2157 -212 2173 -207 2200 -200 ct 2240 -189 2267 -181 2283 -174 ct 2299 -167 2311 -158 2320 -145 ct 
2329 -132 2333 -116 2333 -97 ct 2333 -79 2328 -61 2317 -45 ct 2306 -28 2290 -15 2270 -6 ct 
2249 3 2226 7 2200 7 ct 2158 7 2125 -2 2102 -20 ct 2080 -37 2066 -64 2060 -99 ct 
p ef
2400 -391 m  2400 -455 l  2456 -455 l  2456 -391 l  2400 -391 l  p
2400 0 m  2400 -330 l  2456 -330 l  2456 0 l  2400 0 l  p ef
2553 0 m  2553 -286 l  2504 -286 l  2504 -329 l  2553 -329 l  2553 -364 l 
2553 -387 2555 -403 2559 -414 ct 2564 -428 2574 -440 2587 -449 ct 2601 -458 2620 -462 2644 -462 ct 
2660 -462 2677 -460 2696 -457 ct 2688 -408 l  2676 -410 2666 -411 2655 -411 ct 
2638 -411 2626 -407 2619 -400 ct 2612 -393 2609 -379 2609 -360 ct 2609 -329 l 
2673 -329 l  2673 -286 l  2609 -286 l  2609 0 l  2553 0 l  p ef
2717 -391 m  2717 -455 l  2773 -455 l  2773 -391 l  2717 -391 l  p
2717 0 m  2717 -330 l  2773 -330 l  2773 0 l  2717 0 l  p ef
3082 -107 m  3140 -99 l  3131 -66 3114 -40 3089 -21 ct 3065 -2 3033 7 2995 7 ct 
2947 7 2909 -8 2881 -37 ct 2852 -67 2838 -109 2838 -162 ct 2838 -218 2853 -261 2881 -291 ct 
2910 -322 2947 -337 2992 -337 ct 3036 -337 3072 -322 3100 -292 ct 3128 -262 3142 -220 3142 -166 ct 
3142 -163 3142 -158 3141 -151 ct 2896 -151 l  2898 -115 2908 -87 2927 -68 ct 
2945 -49 2968 -39 2995 -39 ct 3016 -39 3033 -44 3048 -55 ct 3062 -66 3074 -83 3082 -107 ct 
p
2899 -197 m  3083 -197 l  3080 -225 3073 -245 3062 -259 ct 3044 -280 3021 -291 2993 -291 ct 
2967 -291 2945 -283 2928 -265 ct 2911 -248 2901 -226 2899 -197 ct p ef
3208 0 m  3208 -330 l  3258 -330 l  3258 -280 l  3271 -303 3283 -318 3294 -326 ct 
3305 -333 3317 -337 3330 -337 ct 3349 -337 3368 -331 3387 -319 ct 3368 -267 l 
3354 -275 3341 -279 3327 -279 ct 3315 -279 3304 -276 3294 -268 ct 3284 -261 3277 -251 3273 -238 ct 
3267 -218 3264 -196 3264 -173 ct 3264 0 l  3208 0 l  p ef
pom
gr
gr
0.996 c 10524 8619 m  7032 8619 l  7032 7350 l  14016 7350 l  14016 8619 l 
10524 8619 l  p ef
0.000 c 10524 8619 m  7032 8619 l  7032 7350 l  14016 7350 l  14016 8619 l 
10524 8619 l  pc
gs
gs
pum
7929 8217 t
20 -99 m  75 -107 l  78 -85 86 -68 101 -57 ct 115 -45 135 -39 160 -39 ct 186 -39 205 -44 217 -55 ct 
229 -65 236 -77 236 -91 ct 236 -104 230 -114 219 -121 ct 212 -126 193 -132 162 -140 ct 
121 -150 93 -159 77 -167 ct 61 -174 49 -185 41 -198 ct 33 -211 29 -226 29 -242 ct 
29 -257 32 -270 39 -283 ct 46 -295 55 -306 66 -314 ct 75 -320 87 -326 102 -330 ct 
117 -335 133 -337 150 -337 ct 176 -337 199 -333 218 -326 ct 238 -318 252 -308 261 -296 ct 
271 -283 277 -266 281 -245 ct 226 -237 l  224 -254 216 -267 204 -277 ct 193 -286 176 -291 154 -291 ct 
128 -291 110 -287 99 -278 ct 88 -270 83 -260 83 -249 ct 83 -241 85 -235 90 -229 ct 
94 -223 101 -218 111 -214 ct 117 -212 133 -207 160 -200 ct 200 -189 227 -181 243 -174 ct 
259 -167 271 -158 280 -145 ct 289 -132 293 -116 293 -97 ct 293 -79 288 -61 277 -45 ct 
266 -28 250 -15 230 -6 ct 209 3 186 7 160 7 ct 118 7 85 -2 62 -20 ct 40 -37 26 -64 20 -99 ct 
p ef
451 0 m  326 -330 l  385 -330 l  456 -132 l  463 -111 470 -89 477 -66 ct 
482 -83 489 -104 498 -128 ct 571 -330 l  628 -330 l  503 0 l  451 0 l  p ef
676 0 m  676 -455 l  731 -455 l  731 0 l  676 0 l  p ef
822 0 m  822 -455 l  992 -455 l  1027 -455 1055 -450 1076 -441 ct 1097 -432 1113 -418 1125 -399 ct 
1137 -380 1143 -359 1143 -339 ct 1143 -319 1137 -301 1127 -284 ct 1116 -266 1100 -253 1079 -242 ct 
1107 -234 1128 -220 1143 -201 ct 1157 -181 1165 -158 1165 -132 ct 1165 -111 1160 -91 1151 -72 ct 
1142 -54 1131 -40 1118 -30 ct 1105 -20 1088 -13 1068 -8 ct 1048 -3 1024 0 995 0 ct 
822 0 l  p
882 -264 m  980 -264 l  1007 -264 1026 -265 1037 -269 ct 1053 -274 1064 -281 1072 -292 ct 
1080 -302 1084 -315 1084 -331 ct 1084 -347 1080 -360 1073 -371 ct 1065 -383 1055 -391 1042 -395 ct 
1028 -399 1005 -401 973 -401 ct 882 -401 l  882 -264 l  p
882 -54 m  995 -54 l  1014 -54 1028 -54 1036 -56 ct 1050 -58 1061 -62 1070 -68 ct 
1080 -74 1087 -82 1093 -94 ct 1099 -105 1102 -117 1102 -132 ct 1102 -149 1098 -164 1089 -176 ct 
1081 -189 1069 -197 1053 -202 ct 1038 -207 1016 -210 987 -210 ct 882 -210 l 
882 -54 l  p ef
1240 -391 m  1240 -455 l  1296 -455 l  1296 -391 l  1240 -391 l  p
1240 0 m  1240 -330 l  1296 -330 l  1296 0 l  1240 0 l  p ef
1380 0 m  1380 -330 l  1430 -330 l  1430 -283 l  1454 -319 1489 -337 1535 -337 ct 
1555 -337 1573 -333 1590 -326 ct 1606 -319 1619 -310 1627 -298 ct 1635 -287 1641 -273 1644 -257 ct 
1646 -247 1647 -229 1647 -203 ct 1647 0 l  1592 0 l  1592 -200 l  1592 -223 1589 -240 1585 -252 ct 
1581 -263 1573 -272 1562 -279 ct 1551 -285 1538 -289 1523 -289 ct 1499 -289 1479 -281 1462 -266 ct 
1444 -251 1436 -222 1436 -180 ct 1436 0 l  1380 0 l  p ef
1946 -41 m  1925 -24 1905 -11 1886 -4 ct 1867 3 1846 7 1825 7 ct 1788 7 1761 -2 1741 -20 ct 
1722 -37 1712 -60 1712 -87 ct 1712 -103 1716 -118 1723 -131 ct 1730 -145 1740 -156 1752 -164 ct 
1764 -172 1777 -178 1792 -182 ct 1803 -185 1819 -188 1842 -190 ct 1887 -196 1920 -202 1941 -209 ct 
1941 -217 1941 -222 1941 -224 ct 1941 -247 1936 -263 1926 -272 ct 1911 -285 1890 -291 1862 -291 ct 
1836 -291 1816 -286 1804 -277 ct 1791 -268 1782 -252 1776 -228 ct 1722 -236 l 
1727 -259 1735 -278 1746 -292 ct 1757 -307 1774 -318 1795 -326 ct 1817 -333 1842 -337 1870 -337 ct 
1898 -337 1921 -334 1939 -327 ct 1956 -321 1969 -312 1977 -302 ct 1986 -292 1991 -280 1995 -264 ct 
1997 -255 1998 -238 1998 -213 ct 1998 -138 l  1998 -87 1999 -54 2001 -40 ct 
2003 -26 2008 -13 2015 0 ct 1957 0 l  1951 -12 1947 -26 1946 -41 ct p
1941 -166 m  1921 -157 1890 -150 1850 -145 ct 1827 -141 1811 -138 1801 -133 ct 
1792 -129 1784 -123 1779 -115 ct 1774 -107 1771 -99 1771 -89 ct 1771 -74 1777 -62 1788 -52 ct 
1800 -42 1816 -37 1838 -37 ct 1859 -37 1878 -41 1895 -51 ct 1912 -60 1924 -73 1932 -89 ct 
1938 -102 1941 -121 1941 -145 ct 1941 -166 l  p ef
2081 0 m  2081 -330 l  2131 -330 l  2131 -280 l  2144 -303 2156 -318 2167 -326 ct 
2178 -333 2190 -337 2203 -337 ct 2222 -337 2241 -331 2260 -319 ct 2241 -267 l 
2227 -275 2214 -279 2200 -279 ct 2188 -279 2177 -276 2167 -268 ct 2157 -261 2150 -251 2146 -238 ct 
2140 -218 2137 -196 2137 -173 ct 2137 0 l  2081 0 l  p ef
2291 127 m  2285 75 l  2297 78 2308 80 2317 80 ct 2330 80 2339 78 2347 73 ct 
2354 69 2360 64 2365 56 ct 2369 51 2374 37 2382 15 ct 2383 11 2385 7 2387 1 ct 
2262 -330 l  2322 -330 l  2391 -139 l  2400 -114 2408 -89 2415 -62 ct 2421 -88 2429 -113 2438 -137 ct 
2508 -330 l  2564 -330 l  2439 6 l  2425 42 2415 67 2407 81 ct 2397 99 2386 113 2373 121 ct 
2360 130 2345 134 2327 134 ct 2317 134 2305 132 2291 127 ct p ef
2934 -159 m  2994 -144 l  2982 -95 2959 -57 2926 -31 ct 2894 -5 2854 8 2806 8 ct 
2757 8 2717 -2 2687 -22 ct 2656 -42 2633 -71 2617 -109 ct 2601 -147 2593 -187 2593 -231 ct 
2593 -278 2602 -319 2620 -355 ct 2638 -390 2664 -417 2697 -435 ct 2730 -453 2767 -463 2807 -463 ct 
2853 -463 2891 -451 2922 -428 ct 2953 -405 2975 -372 2987 -330 ct 2927 -316 l 
2917 -349 2902 -373 2882 -388 ct 2862 -403 2836 -411 2806 -411 ct 2771 -411 2742 -403 2718 -386 ct 
2695 -369 2678 -347 2669 -318 ct 2659 -290 2655 -261 2655 -231 ct 2655 -192 2660 -159 2672 -130 ct 
2683 -101 2700 -79 2724 -65 ct 2748 -51 2774 -44 2801 -44 ct 2835 -44 2864 -53 2887 -73 ct 
2910 -92 2926 -121 2934 -159 ct p ef
3059 0 m  3059 -455 l  3114 -455 l  3114 0 l  3059 0 l  p ef
3415 -41 m  3394 -24 3374 -11 3355 -4 ct 3336 3 3315 7 3294 7 ct 3257 7 3230 -2 3210 -20 ct 
3191 -37 3181 -60 3181 -87 ct 3181 -103 3185 -118 3192 -131 ct 3199 -145 3209 -156 3221 -164 ct 
3233 -172 3246 -178 3261 -182 ct 3272 -185 3288 -188 3311 -190 ct 3356 -196 3389 -202 3410 -209 ct 
3410 -217 3410 -222 3410 -224 ct 3410 -247 3405 -263 3395 -272 ct 3380 -285 3359 -291 3331 -291 ct 
3305 -291 3285 -286 3273 -277 ct 3260 -268 3251 -252 3245 -228 ct 3191 -236 l 
3196 -259 3204 -278 3215 -292 ct 3226 -307 3243 -318 3264 -326 ct 3286 -333 3311 -337 3339 -337 ct 
3367 -337 3390 -334 3408 -327 ct 3425 -321 3438 -312 3446 -302 ct 3455 -292 3460 -280 3464 -264 ct 
3466 -255 3467 -238 3467 -213 ct 3467 -138 l  3467 -87 3468 -54 3470 -40 ct 
3472 -26 3477 -13 3484 0 ct 3426 0 l  3420 -12 3416 -26 3415 -41 ct p
3410 -166 m  3390 -157 3359 -150 3319 -145 ct 3296 -141 3280 -138 3270 -133 ct 
3261 -129 3253 -123 3248 -115 ct 3243 -107 3240 -99 3240 -89 ct 3240 -74 3246 -62 3257 -52 ct 
3269 -42 3285 -37 3307 -37 ct 3328 -37 3347 -41 3364 -51 ct 3381 -60 3393 -73 3401 -89 ct 
3407 -102 3410 -121 3410 -145 ct 3410 -166 l  p ef
3529 -99 m  3584 -107 l  3587 -85 3595 -68 3610 -57 ct 3624 -45 3644 -39 3669 -39 ct 
3695 -39 3714 -44 3726 -55 ct 3738 -65 3745 -77 3745 -91 ct 3745 -104 3739 -114 3728 -121 ct 
3721 -126 3702 -132 3671 -140 ct 3630 -150 3602 -159 3586 -167 ct 3570 -174 3558 -185 3550 -198 ct 
3542 -211 3538 -226 3538 -242 ct 3538 -257 3541 -270 3548 -283 ct 3555 -295 3564 -306 3575 -314 ct 
3584 -320 3596 -326 3611 -330 ct 3626 -335 3642 -337 3659 -337 ct 3685 -337 3708 -333 3727 -326 ct 
3747 -318 3761 -308 3770 -296 ct 3780 -283 3786 -266 3790 -245 ct 3735 -237 l 
3733 -254 3725 -267 3713 -277 ct 3702 -286 3685 -291 3663 -291 ct 3637 -291 3619 -287 3608 -278 ct 
3597 -270 3592 -260 3592 -249 ct 3592 -241 3594 -235 3599 -229 ct 3603 -223 3610 -218 3620 -214 ct 
3626 -212 3642 -207 3669 -200 ct 3709 -189 3736 -181 3752 -174 ct 3768 -167 3780 -158 3789 -145 ct 
3798 -132 3802 -116 3802 -97 ct 3802 -79 3797 -61 3786 -45 ct 3775 -28 3759 -15 3739 -6 ct 
3718 3 3695 7 3669 7 ct 3627 7 3594 -2 3571 -20 ct 3549 -37 3535 -64 3529 -99 ct 
p ef
3847 -99 m  3902 -107 l  3905 -85 3913 -68 3928 -57 ct 3942 -45 3962 -39 3987 -39 ct 
4013 -39 4032 -44 4044 -55 ct 4056 -65 4063 -77 4063 -91 ct 4063 -104 4057 -114 4046 -121 ct 
4039 -126 4020 -132 3989 -140 ct 3948 -150 3920 -159 3904 -167 ct 3888 -174 3876 -185 3868 -198 ct 
3860 -211 3856 -226 3856 -242 ct 3856 -257 3859 -270 3866 -283 ct 3873 -295 3882 -306 3893 -314 ct 
3902 -320 3914 -326 3929 -330 ct 3944 -335 3960 -337 3977 -337 ct 4003 -337 4026 -333 4045 -326 ct 
4065 -318 4079 -308 4088 -296 ct 4098 -283 4104 -266 4108 -245 ct 4053 -237 l 
4051 -254 4043 -267 4031 -277 ct 4020 -286 4003 -291 3981 -291 ct 3955 -291 3937 -287 3926 -278 ct 
3915 -270 3910 -260 3910 -249 ct 3910 -241 3912 -235 3917 -229 ct 3921 -223 3928 -218 3938 -214 ct 
3944 -212 3960 -207 3987 -200 ct 4027 -189 4054 -181 4070 -174 ct 4086 -167 4098 -158 4107 -145 ct 
4116 -132 4120 -116 4120 -97 ct 4120 -79 4115 -61 4104 -45 ct 4093 -28 4077 -15 4057 -6 ct 
4036 3 4013 7 3987 7 ct 3945 7 3912 -2 3889 -20 ct 3867 -37 3853 -64 3847 -99 ct 
p ef
4186 -391 m  4186 -455 l  4242 -455 l  4242 -391 l  4186 -391 l  p
4186 0 m  4186 -330 l  4242 -330 l  4242 0 l  4186 0 l  p ef
4339 0 m  4339 -286 l  4290 -286 l  4290 -329 l  4339 -329 l  4339 -364 l 
4339 -387 4341 -403 4345 -414 ct 4350 -428 4360 -440 4373 -449 ct 4387 -458 4406 -462 4430 -462 ct 
4446 -462 4463 -460 4482 -457 ct 4474 -408 l  4462 -410 4452 -411 4441 -411 ct 
4424 -411 4412 -407 4405 -400 ct 4398 -393 4395 -379 4395 -360 ct 4395 -329 l 
4459 -329 l  4459 -286 l  4395 -286 l  4395 0 l  4339 0 l  p ef
4504 -391 m  4504 -455 l  4560 -455 l  4560 -391 l  4504 -391 l  p
4504 0 m  4504 -330 l  4560 -330 l  4560 0 l  4504 0 l  p ef
4869 -107 m  4927 -99 l  4918 -66 4901 -40 4876 -21 ct 4852 -2 4820 7 4782 7 ct 
4734 7 4696 -8 4668 -37 ct 4639 -67 4625 -109 4625 -162 ct 4625 -218 4640 -261 4668 -291 ct 
4697 -322 4734 -337 4779 -337 ct 4823 -337 4859 -322 4887 -292 ct 4915 -262 4929 -220 4929 -166 ct 
4929 -163 4929 -158 4928 -151 ct 4683 -151 l  4685 -115 4695 -87 4714 -68 ct 
4732 -49 4755 -39 4782 -39 ct 4803 -39 4820 -44 4835 -55 ct 4849 -66 4861 -83 4869 -107 ct 
p
4686 -197 m  4870 -197 l  4867 -225 4860 -245 4849 -259 ct 4831 -280 4808 -291 4780 -291 ct 
4754 -291 4732 -283 4715 -265 ct 4698 -248 4688 -226 4686 -197 ct p ef
4994 0 m  4994 -330 l  5044 -330 l  5044 -280 l  5057 -303 5069 -318 5080 -326 ct 
5091 -333 5103 -337 5116 -337 ct 5135 -337 5154 -331 5173 -319 ct 5154 -267 l 
5140 -275 5127 -279 5113 -279 ct 5101 -279 5090 -276 5080 -268 ct 5070 -261 5063 -251 5059 -238 ct 
5053 -218 5050 -196 5050 -173 ct 5050 0 l  4994 0 l  p ef
pom
gr
gr
0.996 c 15605 15604 m  12113 15604 l  12113 14335 l  19097 14335 l  19097 15604 l 
15605 15604 l  p ef
0.000 c 15605 15604 m  12113 15604 l  12113 14335 l  19097 14335 l  19097 15604 l 
15605 15604 l  pc
gs
gs
pum
14158 15202 t
20 -99 m  75 -107 l  78 -85 86 -68 101 -57 ct 115 -45 135 -39 160 -39 ct 186 -39 205 -44 217 -55 ct 
229 -65 236 -77 236 -91 ct 236 -104 230 -114 219 -121 ct 212 -126 193 -132 162 -140 ct 
121 -150 93 -159 77 -167 ct 61 -174 49 -185 41 -198 ct 33 -211 29 -226 29 -242 ct 
29 -257 32 -270 39 -283 ct 46 -295 55 -306 66 -314 ct 75 -320 87 -326 102 -330 ct 
117 -335 133 -337 150 -337 ct 176 -337 199 -333 218 -326 ct 238 -318 252 -308 261 -296 ct 
271 -283 277 -266 281 -245 ct 226 -237 l  224 -254 216 -267 204 -277 ct 193 -286 176 -291 154 -291 ct 
128 -291 110 -287 99 -278 ct 88 -270 83 -260 83 -249 ct 83 -241 85 -235 90 -229 ct 
94 -223 101 -218 111 -214 ct 117 -212 133 -207 160 -200 ct 200 -189 227 -181 243 -174 ct 
259 -167 271 -158 280 -145 ct 289 -132 293 -116 293 -97 ct 293 -79 288 -61 277 -45 ct 
266 -28 250 -15 230 -6 ct 209 3 186 7 160 7 ct 118 7 85 -2 62 -20 ct 40 -37 26 -64 20 -99 ct 
p ef
451 0 m  326 -330 l  385 -330 l  456 -132 l  463 -111 470 -89 477 -66 ct 
482 -83 489 -104 498 -128 ct 571 -330 l  628 -330 l  503 0 l  451 0 l  p ef
676 0 m  676 -455 l  731 -455 l  731 0 l  676 0 l  p ef
822 0 m  822 -455 l  882 -455 l  882 -54 l  1106 -54 l  1106 0 l  822 0 l 
p ef
1147 -165 m  1147 -226 1164 -271 1198 -301 ct 1226 -325 1261 -337 1302 -337 ct 
1347 -337 1384 -322 1412 -293 ct 1441 -263 1456 -222 1456 -170 ct 1456 -127 1449 -94 1437 -70 ct 
1424 -45 1405 -27 1381 -13 ct 1357 0 1330 7 1302 7 ct 1255 7 1218 -8 1190 -37 ct 
1161 -67 1147 -110 1147 -165 ct p
1204 -165 m  1204 -123 1214 -91 1232 -70 ct 1250 -49 1274 -39 1302 -39 ct 1329 -39 1352 -49 1371 -71 ct 
1389 -92 1398 -124 1398 -167 ct 1398 -208 1389 -239 1370 -260 ct 1352 -281 1329 -291 1302 -291 ct 
1274 -291 1250 -281 1232 -260 ct 1214 -239 1204 -207 1204 -165 ct p ef
1509 28 m  1563 36 l  1565 52 1571 65 1582 72 ct 1596 83 1615 88 1639 88 ct 
1664 88 1684 83 1698 72 ct 1712 62 1722 47 1727 29 ct 1730 17 1731 -6 1731 -43 ct 
1707 -14 1676 0 1640 0 ct 1595 0 1559 -16 1535 -49 ct 1510 -82 1497 -121 1497 -167 ct 
1497 -198 1503 -227 1515 -254 ct 1526 -280 1542 -301 1564 -315 ct 1586 -330 1611 -337 1640 -337 ct 
1679 -337 1711 -321 1736 -290 ct 1736 -330 l  1788 -330 l  1788 -45 l  1788 7 1782 43 1772 65 ct 
1762 86 1745 103 1722 115 ct 1700 128 1672 134 1639 134 ct 1600 134 1568 125 1544 107 ct 
1519 90 1508 63 1509 28 ct p
1555 -171 m  1555 -127 1563 -96 1581 -76 ct 1598 -56 1619 -46 1645 -46 ct 1671 -46 1692 -56 1710 -76 ct 
1727 -95 1736 -126 1736 -169 ct 1736 -209 1727 -240 1709 -260 ct 1691 -281 1669 -291 1644 -291 ct 
1619 -291 1598 -281 1581 -260 ct 1564 -240 1555 -210 1555 -171 ct p ef
1871 -391 m  1871 -455 l  1927 -455 l  1927 -391 l  1871 -391 l  p
1871 0 m  1871 -330 l  1927 -330 l  1927 0 l  1871 0 l  p ef
1989 -99 m  2044 -107 l  2047 -85 2055 -68 2070 -57 ct 2084 -45 2104 -39 2129 -39 ct 
2155 -39 2174 -44 2186 -55 ct 2198 -65 2205 -77 2205 -91 ct 2205 -104 2199 -114 2188 -121 ct 
2181 -126 2162 -132 2131 -140 ct 2090 -150 2062 -159 2046 -167 ct 2030 -174 2018 -185 2010 -198 ct 
2002 -211 1998 -226 1998 -242 ct 1998 -257 2001 -270 2008 -283 ct 2015 -295 2024 -306 2035 -314 ct 
2044 -320 2056 -326 2071 -330 ct 2086 -335 2102 -337 2119 -337 ct 2145 -337 2168 -333 2187 -326 ct 
2207 -318 2221 -308 2230 -296 ct 2240 -283 2246 -266 2250 -245 ct 2195 -237 l 
2193 -254 2185 -267 2173 -277 ct 2162 -286 2145 -291 2123 -291 ct 2097 -291 2079 -287 2068 -278 ct 
2057 -270 2052 -260 2052 -249 ct 2052 -241 2054 -235 2059 -229 ct 2063 -223 2070 -218 2080 -214 ct 
2086 -212 2102 -207 2129 -200 ct 2169 -189 2196 -181 2212 -174 ct 2228 -167 2240 -158 2249 -145 ct 
2258 -132 2262 -116 2262 -97 ct 2262 -79 2257 -61 2246 -45 ct 2235 -28 2219 -15 2199 -6 ct 
2178 3 2155 7 2129 7 ct 2087 7 2054 -2 2031 -20 ct 2009 -37 1995 -64 1989 -99 ct 
p ef
2450 -50 m  2458 -1 l  2442 2 2428 4 2416 4 ct 2395 4 2380 1 2368 -6 ct 2357 -12 2349 -20 2345 -31 ct 
2340 -41 2338 -63 2338 -97 ct 2338 -287 l  2297 -287 l  2297 -330 l  2338 -330 l 
2338 -412 l  2394 -445 l  2394 -330 l  2450 -330 l  2450 -287 l  2394 -287 l 
2394 -94 l  2394 -78 2395 -68 2397 -63 ct 2399 -58 2402 -55 2406 -52 ct 2411 -49 2417 -48 2425 -48 ct 
2431 -48 2440 -49 2450 -50 ct p ef
2506 -391 m  2506 -455 l  2562 -455 l  2562 -391 l  2506 -391 l  p
2506 0 m  2506 -330 l  2562 -330 l  2562 0 l  2506 0 l  p ef
2861 -121 m  2916 -114 l  2910 -76 2894 -46 2870 -25 ct 2845 -4 2815 7 2779 7 ct 
2734 7 2697 -8 2670 -37 ct 2643 -67 2629 -109 2629 -164 ct 2629 -199 2635 -230 2646 -257 ct 
2658 -284 2676 -304 2700 -317 ct 2724 -330 2751 -337 2779 -337 ct 2815 -337 2844 -328 2867 -310 ct 
2889 -292 2904 -266 2910 -233 ct 2856 -224 l  2851 -247 2842 -263 2829 -274 ct 
2816 -286 2800 -291 2781 -291 ct 2753 -291 2730 -281 2713 -261 ct 2695 -241 2686 -209 2686 -165 ct 
2686 -121 2695 -89 2712 -69 ct 2729 -49 2751 -39 2778 -39 ct 2800 -39 2818 -46 2833 -59 ct 
2848 -72 2857 -93 2861 -121 ct p ef
pom
gr
gr
0.996 c 15604 17191 m  12112 17191 l  12112 15922 l  19096 15922 l  19096 17191 l 
15604 17191 l  p ef
0.000 c 15604 17191 m  12112 17191 l  12112 15922 l  19096 15922 l  19096 17191 l 
15604 17191 l  pc
gs
gs
pum
12674 16790 t
20 -99 m  75 -107 l  78 -85 86 -68 101 -57 ct 115 -45 135 -39 160 -39 ct 186 -39 205 -44 217 -55 ct 
229 -65 236 -77 236 -91 ct 236 -104 230 -114 219 -121 ct 212 -126 193 -132 162 -140 ct 
121 -150 93 -159 77 -167 ct 61 -174 49 -185 41 -198 ct 33 -211 29 -226 29 -242 ct 
29 -257 32 -270 39 -283 ct 46 -295 55 -306 66 -314 ct 75 -320 87 -326 102 -330 ct 
117 -335 133 -337 150 -337 ct 176 -337 199 -333 218 -326 ct 238 -318 252 -308 261 -296 ct 
271 -283 277 -266 281 -245 ct 226 -237 l  224 -254 216 -267 204 -277 ct 193 -286 176 -291 154 -291 ct 
128 -291 110 -287 99 -278 ct 88 -270 83 -260 83 -249 ct 83 -241 85 -235 90 -229 ct 
94 -223 101 -218 111 -214 ct 117 -212 133 -207 160 -200 ct 200 -189 227 -181 243 -174 ct 
259 -167 271 -158 280 -145 ct 289 -132 293 -116 293 -97 ct 293 -79 288 -61 277 -45 ct 
266 -28 250 -15 230 -6 ct 209 3 186 7 160 7 ct 118 7 85 -2 62 -20 ct 40 -37 26 -64 20 -99 ct 
p ef
451 0 m  326 -330 l  385 -330 l  456 -132 l  463 -111 470 -89 477 -66 ct 
482 -83 489 -104 498 -128 ct 571 -330 l  628 -330 l  503 0 l  451 0 l  p ef
676 0 m  676 -455 l  731 -455 l  731 0 l  676 0 l  p ef
822 0 m  822 -455 l  913 -455 l  1020 -133 l  1030 -103 1037 -80 1042 -65 ct 
1047 -82 1055 -106 1066 -138 ct 1175 -455 l  1256 -455 l  1256 0 l  1198 0 l 
1198 -381 l  1066 0 l  1012 0 l  880 -387 l  880 0 l  822 0 l  p ef
1553 0 m  1553 -49 l  1527 -12 1492 7 1448 7 ct 1429 7 1411 3 1394 -4 ct 1377 -12 1364 -21 1356 -32 ct 
1348 -44 1342 -57 1339 -74 ct 1337 -85 1336 -102 1336 -126 ct 1336 -330 l  1391 -330 l 
1391 -147 l  1391 -118 1393 -98 1395 -88 ct 1398 -74 1406 -62 1417 -54 ct 1429 -45 1443 -41 1459 -41 ct 
1476 -41 1492 -45 1506 -54 ct 1521 -63 1532 -74 1538 -89 ct 1544 -104 1547 -125 1547 -153 ct 
1547 -330 l  1603 -330 l  1603 0 l  1553 0 l  p ef
1688 0 m  1688 -455 l  1743 -455 l  1743 0 l  1688 0 l  p ef
1950 -50 m  1958 -1 l  1942 2 1928 4 1916 4 ct 1895 4 1880 1 1868 -6 ct 1857 -12 1849 -20 1845 -31 ct 
1840 -41 1838 -63 1838 -97 ct 1838 -287 l  1797 -287 l  1797 -330 l  1838 -330 l 
1838 -412 l  1894 -445 l  1894 -330 l  1950 -330 l  1950 -287 l  1894 -287 l 
1894 -94 l  1894 -78 1895 -68 1897 -63 ct 1899 -58 1902 -55 1906 -52 ct 1911 -49 1917 -48 1925 -48 ct 
1931 -48 1940 -49 1950 -50 ct p ef
2006 -391 m  2006 -455 l  2062 -455 l  2062 -391 l  2006 -391 l  p
2006 0 m  2006 -330 l  2062 -330 l  2062 0 l  2006 0 l  p ef
2477 -159 m  2537 -144 l  2525 -95 2502 -57 2469 -31 ct 2437 -5 2397 8 2349 8 ct 
2300 8 2260 -2 2230 -22 ct 2199 -42 2176 -71 2160 -109 ct 2144 -147 2136 -187 2136 -231 ct 
2136 -278 2145 -319 2163 -355 ct 2181 -390 2207 -417 2240 -435 ct 2273 -453 2310 -463 2350 -463 ct 
2396 -463 2434 -451 2465 -428 ct 2496 -405 2518 -372 2530 -330 ct 2470 -316 l 
2460 -349 2445 -373 2425 -388 ct 2405 -403 2379 -411 2349 -411 ct 2314 -411 2285 -403 2261 -386 ct 
2238 -369 2221 -347 2212 -318 ct 2202 -290 2198 -261 2198 -231 ct 2198 -192 2203 -159 2215 -130 ct 
2226 -101 2243 -79 2267 -65 ct 2291 -51 2317 -44 2344 -44 ct 2378 -44 2407 -53 2430 -73 ct 
2453 -92 2469 -121 2477 -159 ct p ef
2602 0 m  2602 -455 l  2657 -455 l  2657 0 l  2602 0 l  p ef
2958 -41 m  2937 -24 2917 -11 2898 -4 ct 2879 3 2858 7 2837 7 ct 2800 7 2773 -2 2753 -20 ct 
2734 -37 2724 -60 2724 -87 ct 2724 -103 2728 -118 2735 -131 ct 2742 -145 2752 -156 2764 -164 ct 
2776 -172 2789 -178 2804 -182 ct 2815 -185 2831 -188 2854 -190 ct 2899 -196 2932 -202 2953 -209 ct 
2953 -217 2953 -222 2953 -224 ct 2953 -247 2948 -263 2938 -272 ct 2923 -285 2902 -291 2874 -291 ct 
2848 -291 2828 -286 2816 -277 ct 2803 -268 2794 -252 2788 -228 ct 2734 -236 l 
2739 -259 2747 -278 2758 -292 ct 2769 -307 2786 -318 2807 -326 ct 2829 -333 2854 -337 2882 -337 ct 
2910 -337 2933 -334 2951 -327 ct 2968 -321 2981 -312 2989 -302 ct 2998 -292 3003 -280 3007 -264 ct 
3009 -255 3010 -238 3010 -213 ct 3010 -138 l  3010 -87 3011 -54 3013 -40 ct 
3015 -26 3020 -13 3027 0 ct 2969 0 l  2963 -12 2959 -26 2958 -41 ct p
2953 -166 m  2933 -157 2902 -150 2862 -145 ct 2839 -141 2823 -138 2813 -133 ct 
2804 -129 2796 -123 2791 -115 ct 2786 -107 2783 -99 2783 -89 ct 2783 -74 2789 -62 2800 -52 ct 
2812 -42 2828 -37 2850 -37 ct 2871 -37 2890 -41 2907 -51 ct 2924 -60 2936 -73 2944 -89 ct 
2950 -102 2953 -121 2953 -145 ct 2953 -166 l  p ef
3072 -99 m  3127 -107 l  3130 -85 3138 -68 3153 -57 ct 3167 -45 3187 -39 3212 -39 ct 
3238 -39 3257 -44 3269 -55 ct 3281 -65 3288 -77 3288 -91 ct 3288 -104 3282 -114 3271 -121 ct 
3264 -126 3245 -132 3214 -140 ct 3173 -150 3145 -159 3129 -167 ct 3113 -174 3101 -185 3093 -198 ct 
3085 -211 3081 -226 3081 -242 ct 3081 -257 3084 -270 3091 -283 ct 3098 -295 3107 -306 3118 -314 ct 
3127 -320 3139 -326 3154 -330 ct 3169 -335 3185 -337 3202 -337 ct 3228 -337 3251 -333 3270 -326 ct 
3290 -318 3304 -308 3313 -296 ct 3323 -283 3329 -266 3333 -245 ct 3278 -237 l 
3276 -254 3268 -267 3256 -277 ct 3245 -286 3228 -291 3206 -291 ct 3180 -291 3162 -287 3151 -278 ct 
3140 -270 3135 -260 3135 -249 ct 3135 -241 3137 -235 3142 -229 ct 3146 -223 3153 -218 3163 -214 ct 
3169 -212 3185 -207 3212 -200 ct 3252 -189 3279 -181 3295 -174 ct 3311 -167 3323 -158 3332 -145 ct 
3341 -132 3345 -116 3345 -97 ct 3345 -79 3340 -61 3329 -45 ct 3318 -28 3302 -15 3282 -6 ct 
3261 3 3238 7 3212 7 ct 3170 7 3137 -2 3114 -20 ct 3092 -37 3078 -64 3072 -99 ct 
p ef
3390 -99 m  3445 -107 l  3448 -85 3456 -68 3471 -57 ct 3485 -45 3505 -39 3530 -39 ct 
3556 -39 3575 -44 3587 -55 ct 3599 -65 3606 -77 3606 -91 ct 3606 -104 3600 -114 3589 -121 ct 
3582 -126 3563 -132 3532 -140 ct 3491 -150 3463 -159 3447 -167 ct 3431 -174 3419 -185 3411 -198 ct 
3403 -211 3399 -226 3399 -242 ct 3399 -257 3402 -270 3409 -283 ct 3416 -295 3425 -306 3436 -314 ct 
3445 -320 3457 -326 3472 -330 ct 3487 -335 3503 -337 3520 -337 ct 3546 -337 3569 -333 3588 -326 ct 
3608 -318 3622 -308 3631 -296 ct 3641 -283 3647 -266 3651 -245 ct 3596 -237 l 
3594 -254 3586 -267 3574 -277 ct 3563 -286 3546 -291 3524 -291 ct 3498 -291 3480 -287 3469 -278 ct 
3458 -270 3453 -260 3453 -249 ct 3453 -241 3455 -235 3460 -229 ct 3464 -223 3471 -218 3481 -214 ct 
3487 -212 3503 -207 3530 -200 ct 3570 -189 3597 -181 3613 -174 ct 3629 -167 3641 -158 3650 -145 ct 
3659 -132 3663 -116 3663 -97 ct 3663 -79 3658 -61 3647 -45 ct 3636 -28 3620 -15 3600 -6 ct 
3579 3 3556 7 3530 7 ct 3488 7 3455 -2 3432 -20 ct 3410 -37 3396 -64 3390 -99 ct 
p ef
3734 0 m  3734 -455 l  3794 -455 l  3794 -54 l  4018 -54 l  4018 0 l  3734 0 l 
p ef
4060 -165 m  4060 -226 4077 -271 4111 -301 ct 4139 -325 4174 -337 4215 -337 ct 
4260 -337 4297 -322 4325 -293 ct 4354 -263 4369 -222 4369 -170 ct 4369 -127 4362 -94 4350 -70 ct 
4337 -45 4318 -27 4294 -13 ct 4270 0 4243 7 4215 7 ct 4168 7 4131 -8 4103 -37 ct 
4074 -67 4060 -110 4060 -165 ct p
4117 -165 m  4117 -123 4127 -91 4145 -70 ct 4163 -49 4187 -39 4215 -39 ct 4242 -39 4265 -49 4284 -71 ct 
4302 -92 4311 -124 4311 -167 ct 4311 -208 4302 -239 4283 -260 ct 4265 -281 4242 -291 4215 -291 ct 
4187 -291 4163 -281 4145 -260 ct 4127 -239 4117 -207 4117 -165 ct p ef
4422 28 m  4476 36 l  4478 52 4484 65 4495 72 ct 4509 83 4528 88 4552 88 ct 
4577 88 4597 83 4611 72 ct 4625 62 4635 47 4640 29 ct 4643 17 4644 -6 4644 -43 ct 
4620 -14 4589 0 4553 0 ct 4508 0 4472 -16 4448 -49 ct 4423 -82 4410 -121 4410 -167 ct 
4410 -198 4416 -227 4428 -254 ct 4439 -280 4455 -301 4477 -315 ct 4499 -330 4524 -337 4553 -337 ct 
4592 -337 4624 -321 4649 -290 ct 4649 -330 l  4701 -330 l  4701 -45 l  4701 7 4695 43 4685 65 ct 
4675 86 4658 103 4635 115 ct 4613 128 4585 134 4552 134 ct 4513 134 4481 125 4457 107 ct 
4432 90 4421 63 4422 28 ct p
4468 -171 m  4468 -127 4476 -96 4494 -76 ct 4511 -56 4532 -46 4558 -46 ct 4584 -46 4605 -56 4623 -76 ct 
4640 -95 4649 -126 4649 -169 ct 4649 -209 4640 -240 4622 -260 ct 4604 -281 4582 -291 4557 -291 ct 
4532 -291 4511 -281 4494 -260 ct 4477 -240 4468 -210 4468 -171 ct p ef
4783 -391 m  4783 -455 l  4839 -455 l  4839 -391 l  4783 -391 l  p
4783 0 m  4783 -330 l  4839 -330 l  4839 0 l  4783 0 l  p ef
4901 -99 m  4956 -107 l  4959 -85 4967 -68 4982 -57 ct 4996 -45 5016 -39 5041 -39 ct 
5067 -39 5086 -44 5098 -55 ct 5110 -65 5117 -77 5117 -91 ct 5117 -104 5111 -114 5100 -121 ct 
5093 -126 5074 -132 5043 -140 ct 5002 -150 4974 -159 4958 -167 ct 4942 -174 4930 -185 4922 -198 ct 
4914 -211 4910 -226 4910 -242 ct 4910 -257 4913 -270 4920 -283 ct 4927 -295 4936 -306 4947 -314 ct 
4956 -320 4968 -326 4983 -330 ct 4998 -335 5014 -337 5031 -337 ct 5057 -337 5080 -333 5099 -326 ct 
5119 -318 5133 -308 5142 -296 ct 5152 -283 5158 -266 5162 -245 ct 5107 -237 l 
5105 -254 5097 -267 5085 -277 ct 5074 -286 5057 -291 5035 -291 ct 5009 -291 4991 -287 4980 -278 ct 
4969 -270 4964 -260 4964 -249 ct 4964 -241 4966 -235 4971 -229 ct 4975 -223 4982 -218 4992 -214 ct 
4998 -212 5014 -207 5041 -200 ct 5081 -189 5108 -181 5124 -174 ct 5140 -167 5152 -158 5161 -145 ct 
5170 -132 5174 -116 5174 -97 ct 5174 -79 5169 -61 5158 -45 ct 5147 -28 5131 -15 5111 -6 ct 
5090 3 5067 7 5041 7 ct 4999 7 4966 -2 4943 -20 ct 4921 -37 4907 -64 4901 -99 ct 
p ef
5363 -50 m  5371 -1 l  5355 2 5341 4 5329 4 ct 5308 4 5293 1 5281 -6 ct 5270 -12 5262 -20 5258 -31 ct 
5253 -41 5251 -63 5251 -97 ct 5251 -287 l  5210 -287 l  5210 -330 l  5251 -330 l 
5251 -412 l  5307 -445 l  5307 -330 l  5363 -330 l  5363 -287 l  5307 -287 l 
5307 -94 l  5307 -78 5308 -68 5310 -63 ct 5312 -58 5315 -55 5319 -52 ct 5324 -49 5330 -48 5338 -48 ct 
5344 -48 5353 -49 5363 -50 ct p ef
5418 -391 m  5418 -455 l  5474 -455 l  5474 -391 l  5418 -391 l  p
5418 0 m  5418 -330 l  5474 -330 l  5474 0 l  5418 0 l  p ef
5773 -121 m  5828 -114 l  5822 -76 5806 -46 5782 -25 ct 5757 -4 5727 7 5691 7 ct 
5646 7 5609 -8 5582 -37 ct 5555 -67 5541 -109 5541 -164 ct 5541 -199 5547 -230 5558 -257 ct 
5570 -284 5588 -304 5612 -317 ct 5636 -330 5663 -337 5691 -337 ct 5727 -337 5756 -328 5779 -310 ct 
5801 -292 5816 -266 5822 -233 ct 5768 -224 l  5763 -247 5754 -263 5741 -274 ct 
5728 -286 5712 -291 5693 -291 ct 5665 -291 5642 -281 5625 -261 ct 5607 -241 5598 -209 5598 -165 ct 
5598 -121 5607 -89 5624 -69 ct 5641 -49 5663 -39 5690 -39 ct 5712 -39 5730 -46 5745 -59 ct 
5760 -72 5769 -93 5773 -121 ct p ef
pom
gr
gr
0.996 c 15604 10523 m  12112 10523 l  12112 9254 l  19096 9254 l  19096 10523 l 
15604 10523 l  p ef
0.000 c 15604 10523 m  12112 10523 l  12112 9254 l  19096 9254 l  19096 10523 l 
15604 10523 l  pc
gs
gs
pum
12740 10122 t
20 -99 m  75 -107 l  78 -85 86 -68 101 -57 ct 115 -45 135 -39 160 -39 ct 186 -39 205 -44 217 -55 ct 
229 -65 236 -77 236 -91 ct 236 -104 230 -114 219 -121 ct 212 -126 193 -132 162 -140 ct 
121 -150 93 -159 77 -167 ct 61 -174 49 -185 41 -198 ct 33 -211 29 -226 29 -242 ct 
29 -257 32 -270 39 -283 ct 46 -295 55 -306 66 -314 ct 75 -320 87 -326 102 -330 ct 
117 -335 133 -337 150 -337 ct 176 -337 199 -333 218 -326 ct 238 -318 252 -308 261 -296 ct 
271 -283 277 -266 281 -245 ct 226 -237 l  224 -254 216 -267 204 -277 ct 193 -286 176 -291 154 -291 ct 
128 -291 110 -287 99 -278 ct 88 -270 83 -260 83 -249 ct 83 -241 85 -235 90 -229 ct 
94 -223 101 -218 111 -214 ct 117 -212 133 -207 160 -200 ct 200 -189 227 -181 243 -174 ct 
259 -167 271 -158 280 -145 ct 289 -132 293 -116 293 -97 ct 293 -79 288 -61 277 -45 ct 
266 -28 250 -15 230 -6 ct 209 3 186 7 160 7 ct 118 7 85 -2 62 -20 ct 40 -37 26 -64 20 -99 ct 
p ef
451 0 m  326 -330 l  385 -330 l  456 -132 l  463 -111 470 -89 477 -66 ct 
482 -83 489 -104 498 -128 ct 571 -330 l  628 -330 l  503 0 l  451 0 l  p ef
676 0 m  676 -455 l  731 -455 l  731 0 l  676 0 l  p ef
822 0 m  822 -455 l  992 -455 l  1027 -455 1055 -450 1076 -441 ct 1097 -432 1113 -418 1125 -399 ct 
1137 -380 1143 -359 1143 -339 ct 1143 -319 1137 -301 1127 -284 ct 1116 -266 1100 -253 1079 -242 ct 
1107 -234 1128 -220 1143 -201 ct 1157 -181 1165 -158 1165 -132 ct 1165 -111 1160 -91 1151 -72 ct 
1142 -54 1131 -40 1118 -30 ct 1105 -20 1088 -13 1068 -8 ct 1048 -3 1024 0 995 0 ct 
822 0 l  p
882 -264 m  980 -264 l  1007 -264 1026 -265 1037 -269 ct 1053 -274 1064 -281 1072 -292 ct 
1080 -302 1084 -315 1084 -331 ct 1084 -347 1080 -360 1073 -371 ct 1065 -383 1055 -391 1042 -395 ct 
1028 -399 1005 -401 973 -401 ct 882 -401 l  882 -264 l  p
882 -54 m  995 -54 l  1014 -54 1028 -54 1036 -56 ct 1050 -58 1061 -62 1070 -68 ct 
1080 -74 1087 -82 1093 -94 ct 1099 -105 1102 -117 1102 -132 ct 1102 -149 1098 -164 1089 -176 ct 
1081 -189 1069 -197 1053 -202 ct 1038 -207 1016 -210 987 -210 ct 882 -210 l 
882 -54 l  p ef
1219 -165 m  1219 -226 1236 -271 1270 -301 ct 1298 -325 1333 -337 1374 -337 ct 
1419 -337 1456 -322 1484 -293 ct 1513 -263 1528 -222 1528 -170 ct 1528 -127 1521 -94 1509 -70 ct 
1496 -45 1477 -27 1453 -13 ct 1429 0 1402 7 1374 7 ct 1327 7 1290 -8 1262 -37 ct 
1233 -67 1219 -110 1219 -165 ct p
1276 -165 m  1276 -123 1286 -91 1304 -70 ct 1322 -49 1346 -39 1374 -39 ct 1401 -39 1424 -49 1443 -71 ct 
1461 -92 1470 -124 1470 -167 ct 1470 -208 1461 -239 1442 -260 ct 1424 -281 1401 -291 1374 -291 ct 
1346 -291 1322 -281 1304 -260 ct 1286 -239 1276 -207 1276 -165 ct p ef
1570 -165 m  1570 -226 1587 -271 1621 -301 ct 1649 -325 1684 -337 1725 -337 ct 
1770 -337 1807 -322 1835 -293 ct 1864 -263 1879 -222 1879 -170 ct 1879 -127 1872 -94 1860 -70 ct 
1847 -45 1828 -27 1804 -13 ct 1780 0 1753 7 1725 7 ct 1678 7 1641 -8 1613 -37 ct 
1584 -67 1570 -110 1570 -165 ct p
1627 -165 m  1627 -123 1637 -91 1655 -70 ct 1673 -49 1697 -39 1725 -39 ct 1752 -39 1775 -49 1794 -71 ct 
1812 -92 1821 -124 1821 -167 ct 1821 -208 1812 -239 1793 -260 ct 1775 -281 1752 -291 1725 -291 ct 
1697 -291 1673 -281 1655 -260 ct 1637 -239 1627 -207 1627 -165 ct p ef
1921 -99 m  1976 -107 l  1979 -85 1987 -68 2002 -57 ct 2016 -45 2036 -39 2061 -39 ct 
2087 -39 2106 -44 2118 -55 ct 2130 -65 2137 -77 2137 -91 ct 2137 -104 2131 -114 2120 -121 ct 
2113 -126 2094 -132 2063 -140 ct 2022 -150 1994 -159 1978 -167 ct 1962 -174 1950 -185 1942 -198 ct 
1934 -211 1930 -226 1930 -242 ct 1930 -257 1933 -270 1940 -283 ct 1947 -295 1956 -306 1967 -314 ct 
1976 -320 1988 -326 2003 -330 ct 2018 -335 2034 -337 2051 -337 ct 2077 -337 2100 -333 2119 -326 ct 
2139 -318 2153 -308 2162 -296 ct 2172 -283 2178 -266 2182 -245 ct 2127 -237 l 
2125 -254 2117 -267 2105 -277 ct 2094 -286 2077 -291 2055 -291 ct 2029 -291 2011 -287 2000 -278 ct 
1989 -270 1984 -260 1984 -249 ct 1984 -241 1986 -235 1991 -229 ct 1995 -223 2002 -218 2012 -214 ct 
2018 -212 2034 -207 2061 -200 ct 2101 -189 2128 -181 2144 -174 ct 2160 -167 2172 -158 2181 -145 ct 
2190 -132 2194 -116 2194 -97 ct 2194 -79 2189 -61 2178 -45 ct 2167 -28 2151 -15 2131 -6 ct 
2110 3 2087 7 2061 7 ct 2019 7 1986 -2 1963 -20 ct 1941 -37 1927 -64 1921 -99 ct 
p ef
2382 -50 m  2390 -1 l  2374 2 2360 4 2348 4 ct 2327 4 2312 1 2300 -6 ct 2289 -12 2281 -20 2277 -31 ct 
2272 -41 2270 -63 2270 -97 ct 2270 -287 l  2229 -287 l  2229 -330 l  2270 -330 l 
2270 -412 l  2326 -445 l  2326 -330 l  2382 -330 l  2382 -287 l  2326 -287 l 
2326 -94 l  2326 -78 2327 -68 2329 -63 ct 2331 -58 2334 -55 2338 -52 ct 2343 -49 2349 -48 2357 -48 ct 
2363 -48 2372 -49 2382 -50 ct p ef
2663 -107 m  2721 -99 l  2712 -66 2695 -40 2670 -21 ct 2646 -2 2614 7 2576 7 ct 
2528 7 2490 -8 2462 -37 ct 2433 -67 2419 -109 2419 -162 ct 2419 -218 2434 -261 2462 -291 ct 
2491 -322 2528 -337 2573 -337 ct 2617 -337 2653 -322 2681 -292 ct 2709 -262 2723 -220 2723 -166 ct 
2723 -163 2723 -158 2722 -151 ct 2477 -151 l  2479 -115 2489 -87 2508 -68 ct 
2526 -49 2549 -39 2576 -39 ct 2597 -39 2614 -44 2629 -55 ct 2643 -66 2655 -83 2663 -107 ct 
p
2480 -197 m  2664 -197 l  2661 -225 2654 -245 2643 -259 ct 2625 -280 2602 -291 2574 -291 ct 
2548 -291 2526 -283 2509 -265 ct 2492 -248 2482 -226 2480 -197 ct p ef
3002 0 m  3002 -42 l  2982 -9 2951 7 2910 7 ct 2884 7 2860 0 2838 -15 ct 2816 -29 2799 -49 2787 -75 ct 
2775 -101 2769 -131 2769 -165 ct 2769 -198 2774 -228 2785 -254 ct 2796 -281 2813 -302 2834 -316 ct 
2856 -330 2881 -337 2908 -337 ct 2928 -337 2945 -333 2961 -325 ct 2976 -316 2989 -305 2999 -292 ct 
2999 -455 l  3054 -455 l  3054 0 l  3002 0 l  p
2826 -165 m  2826 -123 2835 -91 2853 -70 ct 2871 -49 2891 -39 2916 -39 ct 2940 -39 2961 -49 2978 -69 ct 
2995 -89 3003 -119 3003 -160 ct 3003 -205 2995 -238 2977 -259 ct 2960 -280 2939 -291 2913 -291 ct 
2888 -291 2868 -281 2851 -261 ct 2834 -240 2826 -208 2826 -165 ct p ef
3472 -159 m  3532 -144 l  3520 -95 3497 -57 3464 -31 ct 3432 -5 3392 8 3344 8 ct 
3295 8 3255 -2 3225 -22 ct 3194 -42 3171 -71 3155 -109 ct 3139 -147 3131 -187 3131 -231 ct 
3131 -278 3140 -319 3158 -355 ct 3176 -390 3202 -417 3235 -435 ct 3268 -453 3305 -463 3345 -463 ct 
3391 -463 3429 -451 3460 -428 ct 3491 -405 3513 -372 3525 -330 ct 3465 -316 l 
3455 -349 3440 -373 3420 -388 ct 3400 -403 3374 -411 3344 -411 ct 3309 -411 3280 -403 3256 -386 ct 
3233 -369 3216 -347 3207 -318 ct 3197 -290 3193 -261 3193 -231 ct 3193 -192 3198 -159 3210 -130 ct 
3221 -101 3238 -79 3262 -65 ct 3286 -51 3312 -44 3339 -44 ct 3373 -44 3402 -53 3425 -73 ct 
3448 -92 3464 -121 3472 -159 ct p ef
3597 0 m  3597 -455 l  3652 -455 l  3652 0 l  3597 0 l  p ef
3953 -41 m  3932 -24 3912 -11 3893 -4 ct 3874 3 3853 7 3832 7 ct 3795 7 3768 -2 3748 -20 ct 
3729 -37 3719 -60 3719 -87 ct 3719 -103 3723 -118 3730 -131 ct 3737 -145 3747 -156 3759 -164 ct 
3771 -172 3784 -178 3799 -182 ct 3810 -185 3826 -188 3849 -190 ct 3894 -196 3927 -202 3948 -209 ct 
3948 -217 3948 -222 3948 -224 ct 3948 -247 3943 -263 3933 -272 ct 3918 -285 3897 -291 3869 -291 ct 
3843 -291 3823 -286 3811 -277 ct 3798 -268 3789 -252 3783 -228 ct 3729 -236 l 
3734 -259 3742 -278 3753 -292 ct 3764 -307 3781 -318 3802 -326 ct 3824 -333 3849 -337 3877 -337 ct 
3905 -337 3928 -334 3946 -327 ct 3963 -321 3976 -312 3984 -302 ct 3993 -292 3998 -280 4002 -264 ct 
4004 -255 4005 -238 4005 -213 ct 4005 -138 l  4005 -87 4006 -54 4008 -40 ct 
4010 -26 4015 -13 4022 0 ct 3964 0 l  3958 -12 3954 -26 3953 -41 ct p
3948 -166 m  3928 -157 3897 -150 3857 -145 ct 3834 -141 3818 -138 3808 -133 ct 
3799 -129 3791 -123 3786 -115 ct 3781 -107 3778 -99 3778 -89 ct 3778 -74 3784 -62 3795 -52 ct 
3807 -42 3823 -37 3845 -37 ct 3866 -37 3885 -41 3902 -51 ct 3919 -60 3931 -73 3939 -89 ct 
3945 -102 3948 -121 3948 -145 ct 3948 -166 l  p ef
4067 -99 m  4122 -107 l  4125 -85 4133 -68 4148 -57 ct 4162 -45 4182 -39 4207 -39 ct 
4233 -39 4252 -44 4264 -55 ct 4276 -65 4283 -77 4283 -91 ct 4283 -104 4277 -114 4266 -121 ct 
4259 -126 4240 -132 4209 -140 ct 4168 -150 4140 -159 4124 -167 ct 4108 -174 4096 -185 4088 -198 ct 
4080 -211 4076 -226 4076 -242 ct 4076 -257 4079 -270 4086 -283 ct 4093 -295 4102 -306 4113 -314 ct 
4122 -320 4134 -326 4149 -330 ct 4164 -335 4180 -337 4197 -337 ct 4223 -337 4246 -333 4265 -326 ct 
4285 -318 4299 -308 4308 -296 ct 4318 -283 4324 -266 4328 -245 ct 4273 -237 l 
4271 -254 4263 -267 4251 -277 ct 4240 -286 4223 -291 4201 -291 ct 4175 -291 4157 -287 4146 -278 ct 
4135 -270 4130 -260 4130 -249 ct 4130 -241 4132 -235 4137 -229 ct 4141 -223 4148 -218 4158 -214 ct 
4164 -212 4180 -207 4207 -200 ct 4247 -189 4274 -181 4290 -174 ct 4306 -167 4318 -158 4327 -145 ct 
4336 -132 4340 -116 4340 -97 ct 4340 -79 4335 -61 4324 -45 ct 4313 -28 4297 -15 4277 -6 ct 
4256 3 4233 7 4207 7 ct 4165 7 4132 -2 4109 -20 ct 4087 -37 4073 -64 4067 -99 ct 
p ef
4385 -99 m  4440 -107 l  4443 -85 4451 -68 4466 -57 ct 4480 -45 4500 -39 4525 -39 ct 
4551 -39 4570 -44 4582 -55 ct 4594 -65 4601 -77 4601 -91 ct 4601 -104 4595 -114 4584 -121 ct 
4577 -126 4558 -132 4527 -140 ct 4486 -150 4458 -159 4442 -167 ct 4426 -174 4414 -185 4406 -198 ct 
4398 -211 4394 -226 4394 -242 ct 4394 -257 4397 -270 4404 -283 ct 4411 -295 4420 -306 4431 -314 ct 
4440 -320 4452 -326 4467 -330 ct 4482 -335 4498 -337 4515 -337 ct 4541 -337 4564 -333 4583 -326 ct 
4603 -318 4617 -308 4626 -296 ct 4636 -283 4642 -266 4646 -245 ct 4591 -237 l 
4589 -254 4581 -267 4569 -277 ct 4558 -286 4541 -291 4519 -291 ct 4493 -291 4475 -287 4464 -278 ct 
4453 -270 4448 -260 4448 -249 ct 4448 -241 4450 -235 4455 -229 ct 4459 -223 4466 -218 4476 -214 ct 
4482 -212 4498 -207 4525 -200 ct 4565 -189 4592 -181 4608 -174 ct 4624 -167 4636 -158 4645 -145 ct 
4654 -132 4658 -116 4658 -97 ct 4658 -79 4653 -61 4642 -45 ct 4631 -28 4615 -15 4595 -6 ct 
4574 3 4551 7 4525 7 ct 4483 7 4450 -2 4427 -20 ct 4405 -37 4391 -64 4385 -99 ct 
p ef
4724 -391 m  4724 -455 l  4780 -455 l  4780 -391 l  4724 -391 l  p
4724 0 m  4724 -330 l  4780 -330 l  4780 0 l  4724 0 l  p ef
4877 0 m  4877 -286 l  4828 -286 l  4828 -329 l  4877 -329 l  4877 -364 l 
4877 -387 4879 -403 4883 -414 ct 4888 -428 4898 -440 4911 -449 ct 4925 -458 4944 -462 4968 -462 ct 
4984 -462 5001 -460 5020 -457 ct 5012 -408 l  5000 -410 4990 -411 4979 -411 ct 
4962 -411 4950 -407 4943 -400 ct 4936 -393 4933 -379 4933 -360 ct 4933 -329 l 
4997 -329 l  4997 -286 l  4933 -286 l  4933 0 l  4877 0 l  p ef
5042 -391 m  5042 -455 l  5098 -455 l  5098 -391 l  5042 -391 l  p
5042 0 m  5042 -330 l  5098 -330 l  5098 0 l  5042 0 l  p ef
5406 -107 m  5464 -99 l  5455 -66 5438 -40 5413 -21 ct 5389 -2 5357 7 5319 7 ct 
5271 7 5233 -8 5205 -37 ct 5176 -67 5162 -109 5162 -162 ct 5162 -218 5177 -261 5205 -291 ct 
5234 -322 5271 -337 5316 -337 ct 5360 -337 5396 -322 5424 -292 ct 5452 -262 5466 -220 5466 -166 ct 
5466 -163 5466 -158 5465 -151 ct 5220 -151 l  5222 -115 5232 -87 5251 -68 ct 
5269 -49 5292 -39 5319 -39 ct 5340 -39 5357 -44 5372 -55 ct 5386 -66 5398 -83 5406 -107 ct 
p
5223 -197 m  5407 -197 l  5404 -225 5397 -245 5386 -259 ct 5368 -280 5345 -291 5317 -291 ct 
5291 -291 5269 -283 5252 -265 ct 5235 -248 5225 -226 5223 -197 ct p ef
5532 0 m  5532 -330 l  5582 -330 l  5582 -280 l  5595 -303 5607 -318 5618 -326 ct 
5629 -333 5641 -337 5654 -337 ct 5673 -337 5692 -331 5711 -319 ct 5692 -267 l 
5678 -275 5665 -279 5651 -279 ct 5639 -279 5628 -276 5618 -268 ct 5608 -261 5601 -251 5597 -238 ct 
5591 -218 5588 -196 5588 -173 ct 5588 0 l  5532 0 l  p ef
pom
gr
gr
0.996 c 15604 12429 m  12112 12429 l  12112 11160 l  19096 11160 l  19096 12429 l 
15604 12429 l  p ef
0.000 c 15604 12429 m  12112 12429 l  12112 11160 l  19096 11160 l  19096 12429 l 
15604 12429 l  pc
gs
gs
pum
12270 12027 t
20 -99 m  75 -107 l  78 -85 86 -68 101 -57 ct 115 -45 135 -39 160 -39 ct 186 -39 205 -44 217 -55 ct 
229 -65 236 -77 236 -91 ct 236 -104 230 -114 219 -121 ct 212 -126 193 -132 162 -140 ct 
121 -150 93 -159 77 -167 ct 61 -174 49 -185 41 -198 ct 33 -211 29 -226 29 -242 ct 
29 -257 32 -270 39 -283 ct 46 -295 55 -306 66 -314 ct 75 -320 87 -326 102 -330 ct 
117 -335 133 -337 150 -337 ct 176 -337 199 -333 218 -326 ct 238 -318 252 -308 261 -296 ct 
271 -283 277 -266 281 -245 ct 226 -237 l  224 -254 216 -267 204 -277 ct 193 -286 176 -291 154 -291 ct 
128 -291 110 -287 99 -278 ct 88 -270 83 -260 83 -249 ct 83 -241 85 -235 90 -229 ct 
94 -223 101 -218 111 -214 ct 117 -212 133 -207 160 -200 ct 200 -189 227 -181 243 -174 ct 
259 -167 271 -158 280 -145 ct 289 -132 293 -116 293 -97 ct 293 -79 288 -61 277 -45 ct 
266 -28 250 -15 230 -6 ct 209 3 186 7 160 7 ct 118 7 85 -2 62 -20 ct 40 -37 26 -64 20 -99 ct 
p ef
451 0 m  326 -330 l  385 -330 l  456 -132 l  463 -111 470 -89 477 -66 ct 
482 -83 489 -104 498 -128 ct 571 -330 l  628 -330 l  503 0 l  451 0 l  p ef
676 0 m  676 -455 l  731 -455 l  731 0 l  676 0 l  p ef
822 0 m  822 -455 l  992 -455 l  1027 -455 1055 -450 1076 -441 ct 1097 -432 1113 -418 1125 -399 ct 
1137 -380 1143 -359 1143 -339 ct 1143 -319 1137 -301 1127 -284 ct 1116 -266 1100 -253 1079 -242 ct 
1107 -234 1128 -220 1143 -201 ct 1157 -181 1165 -158 1165 -132 ct 1165 -111 1160 -91 1151 -72 ct 
1142 -54 1131 -40 1118 -30 ct 1105 -20 1088 -13 1068 -8 ct 1048 -3 1024 0 995 0 ct 
822 0 l  p
882 -264 m  980 -264 l  1007 -264 1026 -265 1037 -269 ct 1053 -274 1064 -281 1072 -292 ct 
1080 -302 1084 -315 1084 -331 ct 1084 -347 1080 -360 1073 -371 ct 1065 -383 1055 -391 1042 -395 ct 
1028 -399 1005 -401 973 -401 ct 882 -401 l  882 -264 l  p
882 -54 m  995 -54 l  1014 -54 1028 -54 1036 -56 ct 1050 -58 1061 -62 1070 -68 ct 
1080 -74 1087 -82 1093 -94 ct 1099 -105 1102 -117 1102 -132 ct 1102 -149 1098 -164 1089 -176 ct 
1081 -189 1069 -197 1053 -202 ct 1038 -207 1016 -210 987 -210 ct 882 -210 l 
882 -54 l  p ef
1219 -165 m  1219 -226 1236 -271 1270 -301 ct 1298 -325 1333 -337 1374 -337 ct 
1419 -337 1456 -322 1484 -293 ct 1513 -263 1528 -222 1528 -170 ct 1528 -127 1521 -94 1509 -70 ct 
1496 -45 1477 -27 1453 -13 ct 1429 0 1402 7 1374 7 ct 1327 7 1290 -8 1262 -37 ct 
1233 -67 1219 -110 1219 -165 ct p
1276 -165 m  1276 -123 1286 -91 1304 -70 ct 1322 -49 1346 -39 1374 -39 ct 1401 -39 1424 -49 1443 -71 ct 
1461 -92 1470 -124 1470 -167 ct 1470 -208 1461 -239 1442 -260 ct 1424 -281 1401 -291 1374 -291 ct 
1346 -291 1322 -281 1304 -260 ct 1286 -239 1276 -207 1276 -165 ct p ef
1570 -165 m  1570 -226 1587 -271 1621 -301 ct 1649 -325 1684 -337 1725 -337 ct 
1770 -337 1807 -322 1835 -293 ct 1864 -263 1879 -222 1879 -170 ct 1879 -127 1872 -94 1860 -70 ct 
1847 -45 1828 -27 1804 -13 ct 1780 0 1753 7 1725 7 ct 1678 7 1641 -8 1613 -37 ct 
1584 -67 1570 -110 1570 -165 ct p
1627 -165 m  1627 -123 1637 -91 1655 -70 ct 1673 -49 1697 -39 1725 -39 ct 1752 -39 1775 -49 1794 -71 ct 
1812 -92 1821 -124 1821 -167 ct 1821 -208 1812 -239 1793 -260 ct 1775 -281 1752 -291 1725 -291 ct 
1697 -291 1673 -281 1655 -260 ct 1637 -239 1627 -207 1627 -165 ct p ef
1921 -99 m  1976 -107 l  1979 -85 1987 -68 2002 -57 ct 2016 -45 2036 -39 2061 -39 ct 
2087 -39 2106 -44 2118 -55 ct 2130 -65 2137 -77 2137 -91 ct 2137 -104 2131 -114 2120 -121 ct 
2113 -126 2094 -132 2063 -140 ct 2022 -150 1994 -159 1978 -167 ct 1962 -174 1950 -185 1942 -198 ct 
1934 -211 1930 -226 1930 -242 ct 1930 -257 1933 -270 1940 -283 ct 1947 -295 1956 -306 1967 -314 ct 
1976 -320 1988 -326 2003 -330 ct 2018 -335 2034 -337 2051 -337 ct 2077 -337 2100 -333 2119 -326 ct 
2139 -318 2153 -308 2162 -296 ct 2172 -283 2178 -266 2182 -245 ct 2127 -237 l 
2125 -254 2117 -267 2105 -277 ct 2094 -286 2077 -291 2055 -291 ct 2029 -291 2011 -287 2000 -278 ct 
1989 -270 1984 -260 1984 -249 ct 1984 -241 1986 -235 1991 -229 ct 1995 -223 2002 -218 2012 -214 ct 
2018 -212 2034 -207 2061 -200 ct 2101 -189 2128 -181 2144 -174 ct 2160 -167 2172 -158 2181 -145 ct 
2190 -132 2194 -116 2194 -97 ct 2194 -79 2189 -61 2178 -45 ct 2167 -28 2151 -15 2131 -6 ct 
2110 3 2087 7 2061 7 ct 2019 7 1986 -2 1963 -20 ct 1941 -37 1927 -64 1921 -99 ct 
p ef
2382 -50 m  2390 -1 l  2374 2 2360 4 2348 4 ct 2327 4 2312 1 2300 -6 ct 2289 -12 2281 -20 2277 -31 ct 
2272 -41 2270 -63 2270 -97 ct 2270 -287 l  2229 -287 l  2229 -330 l  2270 -330 l 
2270 -412 l  2326 -445 l  2326 -330 l  2382 -330 l  2382 -287 l  2326 -287 l 
2326 -94 l  2326 -78 2327 -68 2329 -63 ct 2331 -58 2334 -55 2338 -52 ct 2343 -49 2349 -48 2357 -48 ct 
2363 -48 2372 -49 2382 -50 ct p ef
2663 -107 m  2721 -99 l  2712 -66 2695 -40 2670 -21 ct 2646 -2 2614 7 2576 7 ct 
2528 7 2490 -8 2462 -37 ct 2433 -67 2419 -109 2419 -162 ct 2419 -218 2434 -261 2462 -291 ct 
2491 -322 2528 -337 2573 -337 ct 2617 -337 2653 -322 2681 -292 ct 2709 -262 2723 -220 2723 -166 ct 
2723 -163 2723 -158 2722 -151 ct 2477 -151 l  2479 -115 2489 -87 2508 -68 ct 
2526 -49 2549 -39 2576 -39 ct 2597 -39 2614 -44 2629 -55 ct 2643 -66 2655 -83 2663 -107 ct 
p
2480 -197 m  2664 -197 l  2661 -225 2654 -245 2643 -259 ct 2625 -280 2602 -291 2574 -291 ct 
2548 -291 2526 -283 2509 -265 ct 2492 -248 2482 -226 2480 -197 ct p ef
3002 0 m  3002 -42 l  2982 -9 2951 7 2910 7 ct 2884 7 2860 0 2838 -15 ct 2816 -29 2799 -49 2787 -75 ct 
2775 -101 2769 -131 2769 -165 ct 2769 -198 2774 -228 2785 -254 ct 2796 -281 2813 -302 2834 -316 ct 
2856 -330 2881 -337 2908 -337 ct 2928 -337 2945 -333 2961 -325 ct 2976 -316 2989 -305 2999 -292 ct 
2999 -455 l  3054 -455 l  3054 0 l  3002 0 l  p
2826 -165 m  2826 -123 2835 -91 2853 -70 ct 2871 -49 2891 -39 2916 -39 ct 2940 -39 2961 -49 2978 -69 ct 
2995 -89 3003 -119 3003 -160 ct 3003 -205 2995 -238 2977 -259 ct 2960 -280 2939 -291 2913 -291 ct 
2888 -291 2868 -281 2851 -261 ct 2834 -240 2826 -208 2826 -165 ct p ef
3472 -159 m  3532 -144 l  3520 -95 3497 -57 3464 -31 ct 3432 -5 3392 8 3344 8 ct 
3295 8 3255 -2 3225 -22 ct 3194 -42 3171 -71 3155 -109 ct 3139 -147 3131 -187 3131 -231 ct 
3131 -278 3140 -319 3158 -355 ct 3176 -390 3202 -417 3235 -435 ct 3268 -453 3305 -463 3345 -463 ct 
3391 -463 3429 -451 3460 -428 ct 3491 -405 3513 -372 3525 -330 ct 3465 -316 l 
3455 -349 3440 -373 3420 -388 ct 3400 -403 3374 -411 3344 -411 ct 3309 -411 3280 -403 3256 -386 ct 
3233 -369 3216 -347 3207 -318 ct 3197 -290 3193 -261 3193 -231 ct 3193 -192 3198 -159 3210 -130 ct 
3221 -101 3238 -79 3262 -65 ct 3286 -51 3312 -44 3339 -44 ct 3373 -44 3402 -53 3425 -73 ct 
3448 -92 3464 -121 3472 -159 ct p ef
3597 0 m  3597 -455 l  3652 -455 l  3652 0 l  3597 0 l  p ef
3953 -41 m  3932 -24 3912 -11 3893 -4 ct 3874 3 3853 7 3832 7 ct 3795 7 3768 -2 3748 -20 ct 
3729 -37 3719 -60 3719 -87 ct 3719 -103 3723 -118 3730 -131 ct 3737 -145 3747 -156 3759 -164 ct 
3771 -172 3784 -178 3799 -182 ct 3810 -185 3826 -188 3849 -190 ct 3894 -196 3927 -202 3948 -209 ct 
3948 -217 3948 -222 3948 -224 ct 3948 -247 3943 -263 3933 -272 ct 3918 -285 3897 -291 3869 -291 ct 
3843 -291 3823 -286 3811 -277 ct 3798 -268 3789 -252 3783 -228 ct 3729 -236 l 
3734 -259 3742 -278 3753 -292 ct 3764 -307 3781 -318 3802 -326 ct 3824 -333 3849 -337 3877 -337 ct 
3905 -337 3928 -334 3946 -327 ct 3963 -321 3976 -312 3984 -302 ct 3993 -292 3998 -280 4002 -264 ct 
4004 -255 4005 -238 4005 -213 ct 4005 -138 l  4005 -87 4006 -54 4008 -40 ct 
4010 -26 4015 -13 4022 0 ct 3964 0 l  3958 -12 3954 -26 3953 -41 ct p
3948 -166 m  3928 -157 3897 -150 3857 -145 ct 3834 -141 3818 -138 3808 -133 ct 
3799 -129 3791 -123 3786 -115 ct 3781 -107 3778 -99 3778 -89 ct 3778 -74 3784 -62 3795 -52 ct 
3807 -42 3823 -37 3845 -37 ct 3866 -37 3885 -41 3902 -51 ct 3919 -60 3931 -73 3939 -89 ct 
3945 -102 3948 -121 3948 -145 ct 3948 -166 l  p ef
4067 -99 m  4122 -107 l  4125 -85 4133 -68 4148 -57 ct 4162 -45 4182 -39 4207 -39 ct 
4233 -39 4252 -44 4264 -55 ct 4276 -65 4283 -77 4283 -91 ct 4283 -104 4277 -114 4266 -121 ct 
4259 -126 4240 -132 4209 -140 ct 4168 -150 4140 -159 4124 -167 ct 4108 -174 4096 -185 4088 -198 ct 
4080 -211 4076 -226 4076 -242 ct 4076 -257 4079 -270 4086 -283 ct 4093 -295 4102 -306 4113 -314 ct 
4122 -320 4134 -326 4149 -330 ct 4164 -335 4180 -337 4197 -337 ct 4223 -337 4246 -333 4265 -326 ct 
4285 -318 4299 -308 4308 -296 ct 4318 -283 4324 -266 4328 -245 ct 4273 -237 l 
4271 -254 4263 -267 4251 -277 ct 4240 -286 4223 -291 4201 -291 ct 4175 -291 4157 -287 4146 -278 ct 
4135 -270 4130 -260 4130 -249 ct 4130 -241 4132 -235 4137 -229 ct 4141 -223 4148 -218 4158 -214 ct 
4164 -212 4180 -207 4207 -200 ct 4247 -189 4274 -181 4290 -174 ct 4306 -167 4318 -158 4327 -145 ct 
4336 -132 4340 -116 4340 -97 ct 4340 -79 4335 -61 4324 -45 ct 4313 -28 4297 -15 4277 -6 ct 
4256 3 4233 7 4207 7 ct 4165 7 4132 -2 4109 -20 ct 4087 -37 4073 -64 4067 -99 ct 
p ef
4385 -99 m  4440 -107 l  4443 -85 4451 -68 4466 -57 ct 4480 -45 4500 -39 4525 -39 ct 
4551 -39 4570 -44 4582 -55 ct 4594 -65 4601 -77 4601 -91 ct 4601 -104 4595 -114 4584 -121 ct 
4577 -126 4558 -132 4527 -140 ct 4486 -150 4458 -159 4442 -167 ct 4426 -174 4414 -185 4406 -198 ct 
4398 -211 4394 -226 4394 -242 ct 4394 -257 4397 -270 4404 -283 ct 4411 -295 4420 -306 4431 -314 ct 
4440 -320 4452 -326 4467 -330 ct 4482 -335 4498 -337 4515 -337 ct 4541 -337 4564 -333 4583 -326 ct 
4603 -318 4617 -308 4626 -296 ct 4636 -283 4642 -266 4646 -245 ct 4591 -237 l 
4589 -254 4581 -267 4569 -277 ct 4558 -286 4541 -291 4519 -291 ct 4493 -291 4475 -287 4464 -278 ct 
4453 -270 4448 -260 4448 -249 ct 4448 -241 4450 -235 4455 -229 ct 4459 -223 4466 -218 4476 -214 ct 
4482 -212 4498 -207 4525 -200 ct 4565 -189 4592 -181 4608 -174 ct 4624 -167 4636 -158 4645 -145 ct 
4654 -132 4658 -116 4658 -97 ct 4658 -79 4653 -61 4642 -45 ct 4631 -28 4615 -15 4595 -6 ct 
4574 3 4551 7 4525 7 ct 4483 7 4450 -2 4427 -20 ct 4405 -37 4391 -64 4385 -99 ct 
p ef
4724 -391 m  4724 -455 l  4780 -455 l  4780 -391 l  4724 -391 l  p
4724 0 m  4724 -330 l  4780 -330 l  4780 0 l  4724 0 l  p ef
4877 0 m  4877 -286 l  4828 -286 l  4828 -329 l  4877 -329 l  4877 -364 l 
4877 -387 4879 -403 4883 -414 ct 4888 -428 4898 -440 4911 -449 ct 4925 -458 4944 -462 4968 -462 ct 
4984 -462 5001 -460 5020 -457 ct 5012 -408 l  5000 -410 4990 -411 4979 -411 ct 
4962 -411 4950 -407 4943 -400 ct 4936 -393 4933 -379 4933 -360 ct 4933 -329 l 
4997 -329 l  4997 -286 l  4933 -286 l  4933 0 l  4877 0 l  p ef
5042 -391 m  5042 -455 l  5098 -455 l  5098 -391 l  5042 -391 l  p
5042 0 m  5042 -330 l  5098 -330 l  5098 0 l  5042 0 l  p ef
5406 -107 m  5464 -99 l  5455 -66 5438 -40 5413 -21 ct 5389 -2 5357 7 5319 7 ct 
5271 7 5233 -8 5205 -37 ct 5176 -67 5162 -109 5162 -162 ct 5162 -218 5177 -261 5205 -291 ct 
5234 -322 5271 -337 5316 -337 ct 5360 -337 5396 -322 5424 -292 ct 5452 -262 5466 -220 5466 -166 ct 
5466 -163 5466 -158 5465 -151 ct 5220 -151 l  5222 -115 5232 -87 5251 -68 ct 
5269 -49 5292 -39 5319 -39 ct 5340 -39 5357 -44 5372 -55 ct 5386 -66 5398 -83 5406 -107 ct 
p
5223 -197 m  5407 -197 l  5404 -225 5397 -245 5386 -259 ct 5368 -280 5345 -291 5317 -291 ct 
5291 -291 5269 -283 5252 -265 ct 5235 -248 5225 -226 5223 -197 ct p ef
5532 0 m  5532 -330 l  5582 -330 l  5582 -280 l  5595 -303 5607 -318 5618 -326 ct 
5629 -333 5641 -337 5654 -337 ct 5673 -337 5692 -331 5711 -319 ct 5692 -267 l 
5678 -275 5665 -279 5651 -279 ct 5639 -279 5628 -276 5618 -268 ct 5608 -261 5601 -251 5597 -238 ct 
5591 -218 5588 -196 5588 -173 ct 5588 0 l  5532 0 l  p ef
5731 -146 m  5787 -151 l  5790 -128 5796 -109 5806 -95 ct 5816 -80 5831 -68 5852 -59 ct 
5872 -51 5896 -46 5922 -46 ct 5944 -46 5965 -49 5982 -56 ct 6000 -63 6013 -72 6022 -84 ct 
6030 -96 6034 -109 6034 -123 ct 6034 -137 6030 -150 6022 -161 ct 6014 -171 6000 -180 5981 -187 ct 
5969 -192 5942 -200 5900 -210 ct 5858 -220 5829 -229 5812 -238 ct 5791 -249 5775 -263 5764 -280 ct 
5753 -297 5748 -316 5748 -337 ct 5748 -360 5754 -381 5767 -401 ct 5780 -421 5799 -436 5824 -447 ct 
5849 -457 5877 -462 5908 -462 ct 5942 -462 5971 -457 5997 -446 ct 6023 -435 6043 -419 6056 -398 ct 
6070 -377 6078 -353 6079 -326 ct 6021 -322 l  6018 -351 6007 -372 5990 -387 ct 
5972 -402 5945 -409 5910 -409 ct 5874 -409 5847 -402 5831 -389 ct 5814 -376 5806 -360 5806 -341 ct 
5806 -324 5812 -311 5824 -301 ct 5835 -290 5865 -279 5914 -268 ct 5963 -257 5997 -247 6015 -239 ct 
6041 -227 6061 -211 6073 -193 ct 6086 -174 6092 -153 6092 -128 ct 6092 -104 6085 -81 6072 -60 ct 
6058 -38 6038 -22 6012 -10 ct 5986 2 5957 8 5924 8 ct 5883 8 5849 2 5821 -10 ct 
5793 -22 5771 -40 5755 -64 ct 5740 -88 5731 -115 5731 -146 ct p ef
6393 -107 m  6451 -99 l  6442 -66 6425 -40 6400 -21 ct 6376 -2 6344 7 6306 7 ct 
6258 7 6220 -8 6192 -37 ct 6163 -67 6149 -109 6149 -162 ct 6149 -218 6164 -261 6192 -291 ct 
6221 -322 6258 -337 6303 -337 ct 6347 -337 6383 -322 6411 -292 ct 6439 -262 6453 -220 6453 -166 ct 
6453 -163 6453 -158 6452 -151 ct 6207 -151 l  6209 -115 6219 -87 6238 -68 ct 
6256 -49 6279 -39 6306 -39 ct 6327 -39 6344 -44 6359 -55 ct 6373 -66 6385 -83 6393 -107 ct 
p
6210 -197 m  6394 -197 l  6391 -225 6384 -245 6373 -259 ct 6355 -280 6332 -291 6304 -291 ct 
6278 -291 6256 -283 6239 -265 ct 6222 -248 6212 -226 6210 -197 ct p ef
6641 -50 m  6649 -1 l  6633 2 6619 4 6607 4 ct 6586 4 6571 1 6559 -6 ct 6548 -12 6540 -20 6536 -31 ct 
6531 -41 6529 -63 6529 -97 ct 6529 -287 l  6488 -287 l  6488 -330 l  6529 -330 l 
6529 -412 l  6585 -445 l  6585 -330 l  6641 -330 l  6641 -287 l  6585 -287 l 
6585 -94 l  6585 -78 6586 -68 6588 -63 ct 6590 -58 6593 -55 6597 -52 ct 6602 -49 6608 -48 6616 -48 ct 
6622 -48 6631 -49 6641 -50 ct p ef
pom
gr
gr
5444 6715 m  5594 7165 l  5294 7165 l  5444 6715 l  p ef
7032 7985 m  5444 7985 l  5444 7075 l  ps
10524 8620 m  10674 9070 l  10374 9070 l  10524 8620 l  p ef
12112 9889 m  10524 9889 l  10524 8980 l  ps
10524 8620 m  10674 9070 l  10374 9070 l  10524 8620 l  p ef
12113 14970 m  10524 14970 l  10524 8980 l  ps
5444 6715 m  5594 7165 l  5294 7165 l  5444 6715 l  p ef
12112 11795 m  5444 11795 l  5444 7075 l  ps
5444 6715 m  5594 7165 l  5294 7165 l  5444 6715 l  p ef
12112 16557 m  5444 16557 l  5444 7075 l  ps
15754 11011 m  15604 11161 l  15454 11011 l  15604 10861 l  15754 11011 l 
p ef
15604 10524 m  15604 10921 l  ps
0.996 c 15605 18779 m  12113 18779 l  12113 17510 l  19097 17510 l  19097 18779 l 
15605 18779 l  p ef
0.000 c 15605 18779 m  12113 18779 l  12113 17510 l  19097 17510 l  19097 18779 l 
15605 18779 l  pc
gs
gs
pum
14547 18377 t
20 -99 m  75 -107 l  78 -85 86 -68 101 -57 ct 115 -45 135 -39 160 -39 ct 186 -39 205 -44 217 -55 ct 
229 -65 236 -77 236 -91 ct 236 -104 230 -114 219 -121 ct 212 -126 193 -132 162 -140 ct 
121 -150 93 -159 77 -167 ct 61 -174 49 -185 41 -198 ct 33 -211 29 -226 29 -242 ct 
29 -257 32 -270 39 -283 ct 46 -295 55 -306 66 -314 ct 75 -320 87 -326 102 -330 ct 
117 -335 133 -337 150 -337 ct 176 -337 199 -333 218 -326 ct 238 -318 252 -308 261 -296 ct 
271 -283 277 -266 281 -245 ct 226 -237 l  224 -254 216 -267 204 -277 ct 193 -286 176 -291 154 -291 ct 
128 -291 110 -287 99 -278 ct 88 -270 83 -260 83 -249 ct 83 -241 85 -235 90 -229 ct 
94 -223 101 -218 111 -214 ct 117 -212 133 -207 160 -200 ct 200 -189 227 -181 243 -174 ct 
259 -167 271 -158 280 -145 ct 289 -132 293 -116 293 -97 ct 293 -79 288 -61 277 -45 ct 
266 -28 250 -15 230 -6 ct 209 3 186 7 160 7 ct 118 7 85 -2 62 -20 ct 40 -37 26 -64 20 -99 ct 
p ef
451 0 m  326 -330 l  385 -330 l  456 -132 l  463 -111 470 -89 477 -66 ct 
482 -83 489 -104 498 -128 ct 571 -330 l  628 -330 l  503 0 l  451 0 l  p ef
676 0 m  676 -455 l  731 -455 l  731 0 l  676 0 l  p ef
804 -146 m  860 -151 l  863 -128 869 -109 879 -95 ct 889 -80 904 -68 925 -59 ct 
945 -51 969 -46 995 -46 ct 1017 -46 1038 -49 1055 -56 ct 1073 -63 1086 -72 1095 -84 ct 
1103 -96 1107 -109 1107 -123 ct 1107 -137 1103 -150 1095 -161 ct 1087 -171 1073 -180 1054 -187 ct 
1042 -192 1015 -200 973 -210 ct 931 -220 902 -229 885 -238 ct 864 -249 848 -263 837 -280 ct 
826 -297 821 -316 821 -337 ct 821 -360 827 -381 840 -401 ct 853 -421 872 -436 897 -447 ct 
922 -457 950 -462 981 -462 ct 1015 -462 1044 -457 1070 -446 ct 1096 -435 1116 -419 1129 -398 ct 
1143 -377 1151 -353 1152 -326 ct 1094 -322 l  1091 -351 1080 -372 1063 -387 ct 
1045 -402 1018 -409 983 -409 ct 947 -409 920 -402 904 -389 ct 887 -376 879 -360 879 -341 ct 
879 -324 885 -311 897 -301 ct 908 -290 938 -279 987 -268 ct 1036 -257 1070 -247 1088 -239 ct 
1114 -227 1134 -211 1146 -193 ct 1159 -174 1165 -153 1165 -128 ct 1165 -104 1158 -81 1145 -60 ct 
1131 -38 1111 -22 1085 -10 ct 1059 2 1030 8 997 8 ct 956 8 922 2 894 -10 ct 866 -22 844 -40 828 -64 ct 
813 -88 804 -115 804 -146 ct p ef
1377 0 m  1201 -455 l  1266 -455 l  1384 -124 l  1394 -98 1402 -73 1408 -50 ct 
1415 -75 1423 -100 1432 -124 ct 1555 -455 l  1617 -455 l  1439 0 l  1377 0 l 
p ef
1668 0 m  1668 -455 l  1759 -455 l  1866 -133 l  1876 -103 1883 -80 1888 -65 ct 
1893 -82 1901 -106 1912 -138 ct 2021 -455 l  2102 -455 l  2102 0 l  2044 0 l 
2044 -381 l  1912 0 l  1858 0 l  1726 -387 l  1726 0 l  1668 0 l  p ef
pom
gr
gr
10524 8620 m  10674 9070 l  10374 9070 l  10524 8620 l  p ef
12113 18145 m  10524 18145 l  10524 8980 l  ps
0.996 c 15605 14016 m  12113 14016 l  12113 12747 l  19097 12747 l  19097 14016 l 
15605 14016 l  p ef
0.000 c 15605 14016 m  12113 14016 l  12113 12747 l  19097 12747 l  19097 14016 l 
15605 14016 l  pc
gs
gs
pum
13377 13615 t
20 -99 m  75 -107 l  78 -85 86 -68 101 -57 ct 115 -45 135 -39 160 -39 ct 186 -39 205 -44 217 -55 ct 
229 -65 236 -77 236 -91 ct 236 -104 230 -114 219 -121 ct 212 -126 193 -132 162 -140 ct 
121 -150 93 -159 77 -167 ct 61 -174 49 -185 41 -198 ct 33 -211 29 -226 29 -242 ct 
29 -257 32 -270 39 -283 ct 46 -295 55 -306 66 -314 ct 75 -320 87 -326 102 -330 ct 
117 -335 133 -337 150 -337 ct 176 -337 199 -333 218 -326 ct 238 -318 252 -308 261 -296 ct 
271 -283 277 -266 281 -245 ct 226 -237 l  224 -254 216 -267 204 -277 ct 193 -286 176 -291 154 -291 ct 
128 -291 110 -287 99 -278 ct 88 -270 83 -260 83 -249 ct 83 -241 85 -235 90 -229 ct 
94 -223 101 -218 111 -214 ct 117 -212 133 -207 160 -200 ct 200 -189 227 -181 243 -174 ct 
259 -167 271 -158 280 -145 ct 289 -132 293 -116 293 -97 ct 293 -79 288 -61 277 -45 ct 
266 -28 250 -15 230 -6 ct 209 3 186 7 160 7 ct 118 7 85 -2 62 -20 ct 40 -37 26 -64 20 -99 ct 
p ef
451 0 m  326 -330 l  385 -330 l  456 -132 l  463 -111 470 -89 477 -66 ct 
482 -83 489 -104 498 -128 ct 571 -330 l  628 -330 l  503 0 l  451 0 l  p ef
676 0 m  676 -455 l  731 -455 l  731 0 l  676 0 l  p ef
824 0 m  824 -455 l  981 -455 l  1016 -455 1043 -453 1062 -448 ct 1088 -442 1110 -432 1128 -416 ct 
1152 -396 1170 -370 1182 -338 ct 1194 -307 1200 -271 1200 -230 ct 1200 -195 1196 -165 1188 -138 ct 
1180 -111 1169 -89 1157 -72 ct 1144 -54 1130 -41 1115 -31 ct 1100 -21 1082 -13 1061 -8 ct 
1040 -3 1016 0 988 0 ct 824 0 l  p
884 -54 m  981 -54 l  1011 -54 1035 -56 1052 -62 ct 1069 -68 1082 -76 1093 -86 ct 
1107 -100 1118 -119 1126 -143 ct 1134 -167 1138 -197 1138 -231 ct 1138 -279 1130 -315 1114 -341 ct 
1099 -366 1080 -383 1057 -392 ct 1041 -398 1015 -401 980 -401 ct 884 -401 l 
884 -54 l  p ef
1499 -107 m  1557 -99 l  1548 -66 1531 -40 1506 -21 ct 1482 -2 1450 7 1412 7 ct 
1364 7 1326 -8 1298 -37 ct 1269 -67 1255 -109 1255 -162 ct 1255 -218 1270 -261 1298 -291 ct 
1327 -322 1364 -337 1409 -337 ct 1453 -337 1489 -322 1517 -292 ct 1545 -262 1559 -220 1559 -166 ct 
1559 -163 1559 -158 1558 -151 ct 1313 -151 l  1315 -115 1325 -87 1344 -68 ct 
1362 -49 1385 -39 1412 -39 ct 1433 -39 1450 -44 1465 -55 ct 1479 -66 1491 -83 1499 -107 ct 
p
1316 -197 m  1500 -197 l  1497 -225 1490 -245 1479 -259 ct 1461 -280 1438 -291 1410 -291 ct 
1384 -291 1362 -283 1345 -265 ct 1328 -248 1318 -226 1316 -197 ct p ef
1840 -121 m  1895 -114 l  1889 -76 1873 -46 1849 -25 ct 1824 -4 1794 7 1758 7 ct 
1713 7 1676 -8 1649 -37 ct 1622 -67 1608 -109 1608 -164 ct 1608 -199 1614 -230 1625 -257 ct 
1637 -284 1655 -304 1679 -317 ct 1703 -330 1730 -337 1758 -337 ct 1794 -337 1823 -328 1846 -310 ct 
1868 -292 1883 -266 1889 -233 ct 1835 -224 l  1830 -247 1821 -263 1808 -274 ct 
1795 -286 1779 -291 1760 -291 ct 1732 -291 1709 -281 1692 -261 ct 1674 -241 1665 -209 1665 -165 ct 
1665 -121 1674 -89 1691 -69 ct 1708 -49 1730 -39 1757 -39 ct 1779 -39 1797 -46 1812 -59 ct 
1827 -72 1836 -93 1840 -121 ct p ef
1943 -391 m  1943 -455 l  1999 -455 l  1999 -391 l  1943 -391 l  p
1943 0 m  1943 -330 l  1999 -330 l  1999 0 l  1943 0 l  p ef
2060 -99 m  2115 -107 l  2118 -85 2126 -68 2141 -57 ct 2155 -45 2175 -39 2200 -39 ct 
2226 -39 2245 -44 2257 -55 ct 2269 -65 2276 -77 2276 -91 ct 2276 -104 2270 -114 2259 -121 ct 
2252 -126 2233 -132 2202 -140 ct 2161 -150 2133 -159 2117 -167 ct 2101 -174 2089 -185 2081 -198 ct 
2073 -211 2069 -226 2069 -242 ct 2069 -257 2072 -270 2079 -283 ct 2086 -295 2095 -306 2106 -314 ct 
2115 -320 2127 -326 2142 -330 ct 2157 -335 2173 -337 2190 -337 ct 2216 -337 2239 -333 2258 -326 ct 
2278 -318 2292 -308 2301 -296 ct 2311 -283 2317 -266 2321 -245 ct 2266 -237 l 
2264 -254 2256 -267 2244 -277 ct 2233 -286 2216 -291 2194 -291 ct 2168 -291 2150 -287 2139 -278 ct 
2128 -270 2123 -260 2123 -249 ct 2123 -241 2125 -235 2130 -229 ct 2134 -223 2141 -218 2151 -214 ct 
2157 -212 2173 -207 2200 -200 ct 2240 -189 2267 -181 2283 -174 ct 2299 -167 2311 -158 2320 -145 ct 
2329 -132 2333 -116 2333 -97 ct 2333 -79 2328 -61 2317 -45 ct 2306 -28 2290 -15 2270 -6 ct 
2249 3 2226 7 2200 7 ct 2158 7 2125 -2 2102 -20 ct 2080 -37 2066 -64 2060 -99 ct 
p ef
2400 -391 m  2400 -455 l  2456 -455 l  2456 -391 l  2400 -391 l  p
2400 0 m  2400 -330 l  2456 -330 l  2456 0 l  2400 0 l  p ef
2519 -165 m  2519 -226 2536 -271 2570 -301 ct 2598 -325 2633 -337 2674 -337 ct 
2719 -337 2756 -322 2784 -293 ct 2813 -263 2828 -222 2828 -170 ct 2828 -127 2821 -94 2809 -70 ct 
2796 -45 2777 -27 2753 -13 ct 2729 0 2702 7 2674 7 ct 2627 7 2590 -8 2562 -37 ct 
2533 -67 2519 -110 2519 -165 ct p
2576 -165 m  2576 -123 2586 -91 2604 -70 ct 2622 -49 2646 -39 2674 -39 ct 2701 -39 2724 -49 2743 -71 ct 
2761 -92 2770 -124 2770 -167 ct 2770 -208 2761 -239 2742 -260 ct 2724 -281 2701 -291 2674 -291 ct 
2646 -291 2622 -281 2604 -260 ct 2586 -239 2576 -207 2576 -165 ct p ef
2891 0 m  2891 -330 l  2941 -330 l  2941 -283 l  2965 -319 3000 -337 3046 -337 ct 
3066 -337 3084 -333 3101 -326 ct 3117 -319 3130 -310 3138 -298 ct 3146 -287 3152 -273 3155 -257 ct 
3157 -247 3158 -229 3158 -203 ct 3158 0 l  3103 0 l  3103 -200 l  3103 -223 3100 -240 3096 -252 ct 
3092 -263 3084 -272 3073 -279 ct 3062 -285 3049 -289 3034 -289 ct 3010 -289 2990 -281 2973 -266 ct 
2955 -251 2947 -222 2947 -180 ct 2947 0 l  2891 0 l  p ef
3365 0 m  3365 -401 l  3215 -401 l  3215 -455 l  3575 -455 l  3575 -401 l 
3425 -401 l  3425 0 l  3365 0 l  p ef
3610 0 m  3610 -330 l  3660 -330 l  3660 -280 l  3673 -303 3685 -318 3696 -326 ct 
3707 -333 3719 -337 3732 -337 ct 3751 -337 3770 -331 3789 -319 ct 3770 -267 l 
3756 -275 3743 -279 3729 -279 ct 3717 -279 3706 -276 3696 -268 ct 3686 -261 3679 -251 3675 -238 ct 
3669 -218 3666 -196 3666 -173 ct 3666 0 l  3610 0 l  p ef
4047 -107 m  4105 -99 l  4096 -66 4079 -40 4054 -21 ct 4030 -2 3998 7 3960 7 ct 
3912 7 3874 -8 3846 -37 ct 3817 -67 3803 -109 3803 -162 ct 3803 -218 3818 -261 3846 -291 ct 
3875 -322 3912 -337 3957 -337 ct 4001 -337 4037 -322 4065 -292 ct 4093 -262 4107 -220 4107 -166 ct 
4107 -163 4107 -158 4106 -151 ct 3861 -151 l  3863 -115 3873 -87 3892 -68 ct 
3910 -49 3933 -39 3960 -39 ct 3981 -39 3998 -44 4013 -55 ct 4027 -66 4039 -83 4047 -107 ct 
p
3864 -197 m  4048 -197 l  4045 -225 4038 -245 4027 -259 ct 4009 -280 3986 -291 3958 -291 ct 
3932 -291 3910 -283 3893 -265 ct 3876 -248 3866 -226 3864 -197 ct p ef
4399 -107 m  4457 -99 l  4448 -66 4431 -40 4406 -21 ct 4382 -2 4350 7 4312 7 ct 
4264 7 4226 -8 4198 -37 ct 4169 -67 4155 -109 4155 -162 ct 4155 -218 4170 -261 4198 -291 ct 
4227 -322 4264 -337 4309 -337 ct 4353 -337 4389 -322 4417 -292 ct 4445 -262 4459 -220 4459 -166 ct 
4459 -163 4459 -158 4458 -151 ct 4213 -151 l  4215 -115 4225 -87 4244 -68 ct 
4262 -49 4285 -39 4312 -39 ct 4333 -39 4350 -44 4365 -55 ct 4379 -66 4391 -83 4399 -107 ct 
p
4216 -197 m  4400 -197 l  4397 -225 4390 -245 4379 -259 ct 4361 -280 4338 -291 4310 -291 ct 
4284 -291 4262 -283 4245 -265 ct 4228 -248 4218 -226 4216 -197 ct p ef
pom
gr
gr
10524 8620 m  10674 9070 l  10374 9070 l  10524 8620 l  p ef
12113 13382 m  10524 13382 l  10524 8980 l  ps
0 13335 t 
pom
count op_count sub {pop} repeat countdictstack dict_count sub {end} repeat b4_inc_state restore
%%PageTrailer
%%Trailer
%%EOF
