%!PS-Adobe-3.0 EPSF-3.0 
%%BoundingBox: 0 0 444 459
%%Pages: 0
%%Creator: Sun Microsystems, Inc.
%%Title: none
%%CreationDate: none
%%LanguageLevel: 2
%%EndComments
%%BeginProlog
%%BeginResource: procset SDRes-Prolog 1.0 0
/b4_inc_state save def
/dict_count countdictstack def
/op_count count 1 sub def
userdict begin
0 setgray 0 setlinecap 1 setlinewidth 0 setlinejoin 10 setmiterlimit[] 0 setdash newpath
/languagelevel where {pop languagelevel 1 ne {false setstrokeadjust false setoverprint} if} if
/bdef {bind def} bind def
/c {setgray} bdef
/l {neg lineto} bdef
/rl {neg rlineto} bdef
/lc {setlinecap} bdef
/lj {setlinejoin} bdef
/lw {setlinewidth} bdef
/ml {setmiterlimit} bdef
/ld {setdash} bdef
/m {neg moveto} bdef
/ct {6 2 roll neg 6 2 roll neg 6 2 roll neg curveto} bdef
/r {rotate} bdef
/t {neg translate} bdef
/s {scale} bdef
/sw {show} bdef
/gs {gsave} bdef
/gr {grestore} bdef
/f {findfont dup length dict begin
{1 index /FID ne {def} {pop pop} ifelse} forall /Encoding ISOLatin1Encoding def
currentdict end /NFont exch definefont pop /NFont findfont} bdef
/p {closepath} bdef
/sf {scalefont setfont} bdef
/ef {eofill}bdef
/pc {closepath stroke}bdef
/ps {stroke}bdef
/pum {matrix currentmatrix}bdef
/pom {setmatrix}bdef
/bs {/aString exch def /nXOfs exch def /nWidth exch def currentpoint nXOfs 0 rmoveto pum nWidth aString stringwidth pop div 1 scale aString show pom moveto} bdef
%%EndResource
%%EndProlog
%%BeginSetup
%%EndSetup
%%Page: 1 1
%%BeginPageSetup
%%EndPageSetup
pum
0.02835 0.02836 s 
0 -16184 t
/tm matrix currentmatrix def
tm setmatrix
-2904 -4175 t 
1 1 s 
0.758 c 10682 16874 m  2904 16874 l  2904 7031 l  18461 7031 l  18461 16874 l 
10682 16874 l  p ef
0.000 c 10682 16874 m  2904 16874 l  2904 7031 l  18461 7031 l  18461 16874 l 
10682 16874 l  pc
0.758 c 10682 6397 m  2904 6397 l  2904 4175 l  18461 4175 l  18461 6397 l 
10682 6397 l  p ef
0.000 c 10682 6397 m  2904 6397 l  2904 4175 l  18461 4175 l  18461 6397 l 
10682 6397 l  pc
0.996 c 12906 6080 m  11477 6080 l  11477 4492 l  14335 4492 l  14335 6080 l 
12906 6080 l  p ef
0.000 c 12906 6080 m  11477 6080 l  11477 4492 l  14335 4492 l  14335 6080 l 
12906 6080 l  pc
gs
gs
pum
11556 5518 t
31 -221 m  31 -297 51 -356 91 -399 ct 132 -441 184 -463 248 -463 ct 290 -463 328 -453 362 -433 ct 
396 -413 421 -385 439 -349 ct 457 -313 465 -272 465 -227 ct 465 -181 456 -139 437 -103 ct 
419 -66 393 -39 358 -20 ct 324 -1 288 8 248 8 ct 205 8 167 -2 133 -23 ct 100 -44 74 -72 57 -108 ct 
39 -144 31 -181 31 -221 ct p
93 -220 m  93 -166 107 -122 137 -91 ct 166 -59 203 -44 248 -44 ct 293 -44 330 -59 360 -91 ct 
389 -123 403 -168 403 -227 ct 403 -264 397 -296 385 -324 ct 372 -352 354 -373 330 -388 ct 
306 -403 279 -411 249 -411 ct 206 -411 169 -396 139 -367 ct 108 -338 93 -289 93 -220 ct 
p ef
537 126 m  537 -330 l  588 -330 l  588 -287 l  600 -304 613 -316 628 -324 ct 
643 -333 662 -337 683 -337 ct 711 -337 736 -330 758 -315 ct 779 -301 795 -280 806 -254 ct 
817 -228 823 -199 823 -167 ct 823 -134 817 -103 805 -77 ct 793 -50 775 -29 752 -15 ct 
729 0 705 7 679 7 ct 661 7 644 3 629 -5 ct 614 -13 602 -23 593 -35 ct 593 126 l 
537 126 l  p
587 -163 m  587 -121 596 -90 613 -69 ct 630 -49 651 -39 675 -39 ct 700 -39 722 -49 739 -70 ct 
757 -91 766 -124 766 -168 ct 766 -210 757 -241 740 -262 ct 723 -283 702 -293 678 -293 ct 
654 -293 633 -282 615 -260 ct 597 -238 587 -205 587 -163 ct p ef
1114 -107 m  1172 -99 l  1163 -66 1146 -40 1121 -21 ct 1097 -2 1065 7 1027 7 ct 
979 7 941 -8 913 -37 ct 884 -67 870 -109 870 -162 ct 870 -218 885 -261 913 -291 ct 
942 -322 979 -337 1024 -337 ct 1068 -337 1104 -322 1132 -292 ct 1160 -262 1174 -220 1174 -166 ct 
1174 -163 1174 -158 1173 -151 ct 928 -151 l  930 -115 940 -87 959 -68 ct 977 -49 1000 -39 1027 -39 ct 
1048 -39 1065 -44 1080 -55 ct 1094 -66 1106 -83 1114 -107 ct p
931 -197 m  1115 -197 l  1112 -225 1105 -245 1094 -259 ct 1076 -280 1053 -291 1025 -291 ct 
999 -291 977 -283 960 -265 ct 943 -248 933 -226 931 -197 ct p ef
1240 0 m  1240 -330 l  1290 -330 l  1290 -283 l  1314 -319 1349 -337 1395 -337 ct 
1415 -337 1433 -333 1450 -326 ct 1466 -319 1479 -310 1487 -298 ct 1495 -287 1501 -273 1504 -257 ct 
1506 -247 1507 -229 1507 -203 ct 1507 0 l  1452 0 l  1452 -200 l  1452 -223 1449 -240 1445 -252 ct 
1441 -263 1433 -272 1422 -279 ct 1411 -285 1398 -289 1383 -289 ct 1359 -289 1339 -281 1322 -266 ct 
1304 -251 1296 -222 1296 -180 ct 1296 0 l  1240 0 l  p ef
1922 -159 m  1982 -144 l  1970 -95 1947 -57 1914 -31 ct 1882 -5 1842 8 1794 8 ct 
1745 8 1705 -2 1675 -22 ct 1644 -42 1621 -71 1605 -109 ct 1589 -147 1581 -187 1581 -231 ct 
1581 -278 1590 -319 1608 -355 ct 1626 -390 1652 -417 1685 -435 ct 1718 -453 1755 -463 1795 -463 ct 
1841 -463 1879 -451 1910 -428 ct 1941 -405 1963 -372 1975 -330 ct 1915 -316 l 
1905 -349 1890 -373 1870 -388 ct 1850 -403 1824 -411 1794 -411 ct 1759 -411 1730 -403 1706 -386 ct 
1683 -369 1666 -347 1657 -318 ct 1647 -290 1643 -261 1643 -231 ct 1643 -192 1648 -159 1660 -130 ct 
1671 -101 1688 -79 1712 -65 ct 1736 -51 1762 -44 1789 -44 ct 1823 -44 1852 -53 1875 -73 ct 
1898 -92 1914 -121 1922 -159 ct p ef
2186 0 m  2010 -455 l  2075 -455 l  2193 -124 l  2203 -98 2211 -73 2217 -50 ct 
2224 -75 2232 -100 2241 -124 ct 2364 -455 l  2426 -455 l  2248 0 l  2186 0 l 
p ef
2450 -372 m  2464 -416 l  2497 -404 2521 -394 2536 -386 ct 2532 -423 2530 -449 2530 -463 ct 
2574 -463 l  2574 -443 2572 -417 2567 -386 ct 2589 -397 2613 -407 2641 -416 ct 
2655 -372 l  2629 -363 2603 -357 2578 -354 ct 2590 -343 2608 -324 2631 -296 ct 
2594 -269 l  2582 -286 2568 -308 2551 -336 ct 2536 -307 2523 -285 2511 -269 ct 
2474 -296 l  2498 -325 2515 -345 2526 -354 ct 2499 -360 2474 -365 2450 -372 ct 
p ef
pom
gr
gr
0.996 c 16397 6080 m  14651 6080 l  14651 4492 l  18144 4492 l  18144 6080 l 
16397 6080 l  p ef
0.000 c 16397 6080 m  14651 6080 l  14651 4492 l  18144 4492 l  18144 6080 l 
16397 6080 l  pc
gs
gs
pum
14757 5518 t
103 0 m  2 -330 l  60 -330 l  112 -139 l  131 -69 l  132 -72 138 -95 149 -137 ct 
201 -330 l  258 -330 l  308 -138 l  324 -75 l  343 -139 l  399 -330 l 
454 -330 l  351 0 l  293 0 l  240 -197 l  228 -253 l  161 0 l  103 0 l 
p ef
450 0 m  570 -171 l  459 -330 l  528 -330 l  579 -252 l  588 -238 596 -225 602 -215 ct 
611 -229 619 -241 627 -252 ct 683 -330 l  749 -330 l  635 -174 l  758 0 l 
689 0 l  622 -102 l  604 -130 l  517 0 l  450 0 l  p ef
886 0 m  766 -455 l  827 -455 l  897 -157 l  904 -126 910 -94 916 -64 ct 
927 -112 934 -140 936 -148 ct 1023 -455 l  1095 -455 l  1160 -225 l  1177 -168 1189 -114 1196 -64 ct 
1202 -92 1209 -125 1218 -163 ct 1290 -455 l  1350 -455 l  1226 0 l  1168 0 l 
1072 -347 l  1064 -376 1059 -393 1058 -400 ct 1053 -379 1048 -361 1044 -347 ct 
948 0 l  886 0 l  p ef
1401 -391 m  1401 -455 l  1457 -455 l  1457 -391 l  1401 -391 l  p
1401 0 m  1401 -330 l  1457 -330 l  1457 0 l  1401 0 l  p ef
1754 0 m  1754 -42 l  1734 -9 1703 7 1662 7 ct 1636 7 1612 0 1590 -15 ct 1568 -29 1551 -49 1539 -75 ct 
1527 -101 1521 -131 1521 -165 ct 1521 -198 1526 -228 1537 -254 ct 1548 -281 1565 -302 1586 -316 ct 
1608 -330 1633 -337 1660 -337 ct 1680 -337 1697 -333 1713 -325 ct 1728 -316 1741 -305 1751 -292 ct 
1751 -455 l  1806 -455 l  1806 0 l  1754 0 l  p
1578 -165 m  1578 -123 1587 -91 1605 -70 ct 1623 -49 1643 -39 1668 -39 ct 1692 -39 1713 -49 1730 -69 ct 
1747 -89 1755 -119 1755 -160 ct 1755 -205 1747 -238 1729 -259 ct 1712 -280 1691 -291 1665 -291 ct 
1640 -291 1620 -281 1603 -261 ct 1586 -240 1578 -208 1578 -165 ct p ef
1882 28 m  1936 36 l  1938 52 1944 65 1955 72 ct 1969 83 1988 88 2012 88 ct 
2037 88 2057 83 2071 72 ct 2085 62 2095 47 2100 29 ct 2103 17 2104 -6 2104 -43 ct 
2080 -14 2049 0 2013 0 ct 1968 0 1932 -16 1908 -49 ct 1883 -82 1870 -121 1870 -167 ct 
1870 -198 1876 -227 1888 -254 ct 1899 -280 1915 -301 1937 -315 ct 1959 -330 1984 -337 2013 -337 ct 
2052 -337 2084 -321 2109 -290 ct 2109 -330 l  2161 -330 l  2161 -45 l  2161 7 2155 43 2145 65 ct 
2135 86 2118 103 2095 115 ct 2073 128 2045 134 2012 134 ct 1973 134 1941 125 1917 107 ct 
1892 90 1881 63 1882 28 ct p
1928 -171 m  1928 -127 1936 -96 1954 -76 ct 1971 -56 1992 -46 2018 -46 ct 2044 -46 2065 -56 2083 -76 ct 
2100 -95 2109 -126 2109 -169 ct 2109 -209 2100 -240 2082 -260 ct 2064 -281 2042 -291 2017 -291 ct 
1992 -291 1971 -281 1954 -260 ct 1937 -240 1928 -210 1928 -171 ct p ef
2468 -107 m  2526 -99 l  2517 -66 2500 -40 2475 -21 ct 2451 -2 2419 7 2381 7 ct 
2333 7 2295 -8 2267 -37 ct 2238 -67 2224 -109 2224 -162 ct 2224 -218 2239 -261 2267 -291 ct 
2296 -322 2333 -337 2378 -337 ct 2422 -337 2458 -322 2486 -292 ct 2514 -262 2528 -220 2528 -166 ct 
2528 -163 2528 -158 2527 -151 ct 2282 -151 l  2284 -115 2294 -87 2313 -68 ct 
2331 -49 2354 -39 2381 -39 ct 2402 -39 2419 -44 2434 -55 ct 2448 -66 2460 -83 2468 -107 ct 
p
2285 -197 m  2469 -197 l  2466 -225 2459 -245 2448 -259 ct 2430 -280 2407 -291 2379 -291 ct 
2353 -291 2331 -283 2314 -265 ct 2297 -248 2287 -226 2285 -197 ct p ef
2717 -50 m  2725 -1 l  2709 2 2695 4 2683 4 ct 2662 4 2647 1 2635 -6 ct 2624 -12 2616 -20 2612 -31 ct 
2607 -41 2605 -63 2605 -97 ct 2605 -287 l  2564 -287 l  2564 -330 l  2605 -330 l 
2605 -412 l  2661 -445 l  2661 -330 l  2717 -330 l  2717 -287 l  2661 -287 l 
2661 -94 l  2661 -78 2662 -68 2664 -63 ct 2666 -58 2669 -55 2673 -52 ct 2678 -49 2684 -48 2692 -48 ct 
2698 -48 2707 -49 2717 -50 ct p ef
2751 -99 m  2806 -107 l  2809 -85 2817 -68 2832 -57 ct 2846 -45 2866 -39 2891 -39 ct 
2917 -39 2936 -44 2948 -55 ct 2960 -65 2967 -77 2967 -91 ct 2967 -104 2961 -114 2950 -121 ct 
2943 -126 2924 -132 2893 -140 ct 2852 -150 2824 -159 2808 -167 ct 2792 -174 2780 -185 2772 -198 ct 
2764 -211 2760 -226 2760 -242 ct 2760 -257 2763 -270 2770 -283 ct 2777 -295 2786 -306 2797 -314 ct 
2806 -320 2818 -326 2833 -330 ct 2848 -335 2864 -337 2881 -337 ct 2907 -337 2930 -333 2949 -326 ct 
2969 -318 2983 -308 2992 -296 ct 3002 -283 3008 -266 3012 -245 ct 2957 -237 l 
2955 -254 2947 -267 2935 -277 ct 2924 -286 2907 -291 2885 -291 ct 2859 -291 2841 -287 2830 -278 ct 
2819 -270 2814 -260 2814 -249 ct 2814 -241 2816 -235 2821 -229 ct 2825 -223 2832 -218 2842 -214 ct 
2848 -212 2864 -207 2891 -200 ct 2931 -189 2958 -181 2974 -174 ct 2990 -167 3002 -158 3011 -145 ct 
3020 -132 3024 -116 3024 -97 ct 3024 -79 3019 -61 3008 -45 ct 2997 -28 2981 -15 2961 -6 ct 
2940 3 2917 7 2891 7 ct 2849 7 2816 -2 2793 -20 ct 2771 -37 2757 -64 2751 -99 ct 
p ef
3068 -372 m  3082 -416 l  3115 -404 3139 -394 3154 -386 ct 3150 -423 3148 -449 3148 -463 ct 
3192 -463 l  3192 -443 3190 -417 3185 -386 ct 3207 -397 3231 -407 3259 -416 ct 
3273 -372 l  3247 -363 3221 -357 3196 -354 ct 3208 -343 3226 -324 3249 -296 ct 
3212 -269 l  3200 -286 3186 -308 3169 -336 ct 3154 -307 3141 -285 3129 -269 ct 
3092 -296 l  3116 -325 3133 -345 3144 -354 ct 3117 -360 3092 -365 3068 -372 ct 
p ef
pom
gr
gr
0.996 c 6872 8938 m  5126 8938 l  5126 7350 l  8619 7350 l  8619 8938 l 
6872 8938 l  p ef
0.000 c 6872 8938 m  5126 8938 l  5126 7350 l  8619 7350 l  8619 8938 l 
6872 8938 l  pc
gs
gs
pum
5753 8376 t
20 -99 m  75 -107 l  78 -85 86 -68 101 -57 ct 115 -45 135 -39 160 -39 ct 186 -39 205 -44 217 -55 ct 
229 -65 236 -77 236 -91 ct 236 -104 230 -114 219 -121 ct 212 -126 193 -132 162 -140 ct 
121 -150 93 -159 77 -167 ct 61 -174 49 -185 41 -198 ct 33 -211 29 -226 29 -242 ct 
29 -257 32 -270 39 -283 ct 46 -295 55 -306 66 -314 ct 75 -320 87 -326 102 -330 ct 
117 -335 133 -337 150 -337 ct 176 -337 199 -333 218 -326 ct 238 -318 252 -308 261 -296 ct 
271 -283 277 -266 281 -245 ct 226 -237 l  224 -254 216 -267 204 -277 ct 193 -286 176 -291 154 -291 ct 
128 -291 110 -287 99 -278 ct 88 -270 83 -260 83 -249 ct 83 -241 85 -235 90 -229 ct 
94 -223 101 -218 111 -214 ct 117 -212 133 -207 160 -200 ct 200 -189 227 -181 243 -174 ct 
259 -167 271 -158 280 -145 ct 289 -132 293 -116 293 -97 ct 293 -79 288 -61 277 -45 ct 
266 -28 250 -15 230 -6 ct 209 3 186 7 160 7 ct 118 7 85 -2 62 -20 ct 40 -37 26 -64 20 -99 ct 
p ef
451 0 m  326 -330 l  385 -330 l  456 -132 l  463 -111 470 -89 477 -66 ct 
482 -83 489 -104 498 -128 ct 571 -330 l  628 -330 l  503 0 l  451 0 l  p ef
676 0 m  676 -455 l  731 -455 l  731 0 l  676 0 l  p ef
822 0 m  822 -455 l  992 -455 l  1027 -455 1055 -450 1076 -441 ct 1097 -432 1113 -418 1125 -399 ct 
1137 -380 1143 -359 1143 -339 ct 1143 -319 1137 -301 1127 -284 ct 1116 -266 1100 -253 1079 -242 ct 
1107 -234 1128 -220 1143 -201 ct 1157 -181 1165 -158 1165 -132 ct 1165 -111 1160 -91 1151 -72 ct 
1142 -54 1131 -40 1118 -30 ct 1105 -20 1088 -13 1068 -8 ct 1048 -3 1024 0 995 0 ct 
822 0 l  p
882 -264 m  980 -264 l  1007 -264 1026 -265 1037 -269 ct 1053 -274 1064 -281 1072 -292 ct 
1080 -302 1084 -315 1084 -331 ct 1084 -347 1080 -360 1073 -371 ct 1065 -383 1055 -391 1042 -395 ct 
1028 -399 1005 -401 973 -401 ct 882 -401 l  882 -264 l  p
882 -54 m  995 -54 l  1014 -54 1028 -54 1036 -56 ct 1050 -58 1061 -62 1070 -68 ct 
1080 -74 1087 -82 1093 -94 ct 1099 -105 1102 -117 1102 -132 ct 1102 -149 1098 -164 1089 -176 ct 
1081 -189 1069 -197 1053 -202 ct 1038 -207 1016 -210 987 -210 ct 882 -210 l 
882 -54 l  p ef
1455 -41 m  1434 -24 1414 -11 1395 -4 ct 1376 3 1355 7 1334 7 ct 1297 7 1270 -2 1250 -20 ct 
1231 -37 1221 -60 1221 -87 ct 1221 -103 1225 -118 1232 -131 ct 1239 -145 1249 -156 1261 -164 ct 
1273 -172 1286 -178 1301 -182 ct 1312 -185 1328 -188 1351 -190 ct 1396 -196 1429 -202 1450 -209 ct 
1450 -217 1450 -222 1450 -224 ct 1450 -247 1445 -263 1435 -272 ct 1420 -285 1399 -291 1371 -291 ct 
1345 -291 1325 -286 1313 -277 ct 1300 -268 1291 -252 1285 -228 ct 1231 -236 l 
1236 -259 1244 -278 1255 -292 ct 1266 -307 1283 -318 1304 -326 ct 1326 -333 1351 -337 1379 -337 ct 
1407 -337 1430 -334 1448 -327 ct 1465 -321 1478 -312 1486 -302 ct 1495 -292 1500 -280 1504 -264 ct 
1506 -255 1507 -238 1507 -213 ct 1507 -138 l  1507 -87 1508 -54 1510 -40 ct 
1512 -26 1517 -13 1524 0 ct 1466 0 l  1460 -12 1456 -26 1455 -41 ct p
1450 -166 m  1430 -157 1399 -150 1359 -145 ct 1336 -141 1320 -138 1310 -133 ct 
1301 -129 1293 -123 1288 -115 ct 1283 -107 1280 -99 1280 -89 ct 1280 -74 1286 -62 1297 -52 ct 
1309 -42 1325 -37 1347 -37 ct 1368 -37 1387 -41 1404 -51 ct 1421 -60 1433 -73 1441 -89 ct 
1447 -102 1450 -121 1450 -145 ct 1450 -166 l  p ef
1569 -99 m  1624 -107 l  1627 -85 1635 -68 1650 -57 ct 1664 -45 1684 -39 1709 -39 ct 
1735 -39 1754 -44 1766 -55 ct 1778 -65 1785 -77 1785 -91 ct 1785 -104 1779 -114 1768 -121 ct 
1761 -126 1742 -132 1711 -140 ct 1670 -150 1642 -159 1626 -167 ct 1610 -174 1598 -185 1590 -198 ct 
1582 -211 1578 -226 1578 -242 ct 1578 -257 1581 -270 1588 -283 ct 1595 -295 1604 -306 1615 -314 ct 
1624 -320 1636 -326 1651 -330 ct 1666 -335 1682 -337 1699 -337 ct 1725 -337 1748 -333 1767 -326 ct 
1787 -318 1801 -308 1810 -296 ct 1820 -283 1826 -266 1830 -245 ct 1775 -237 l 
1773 -254 1765 -267 1753 -277 ct 1742 -286 1725 -291 1703 -291 ct 1677 -291 1659 -287 1648 -278 ct 
1637 -270 1632 -260 1632 -249 ct 1632 -241 1634 -235 1639 -229 ct 1643 -223 1650 -218 1660 -214 ct 
1666 -212 1682 -207 1709 -200 ct 1749 -189 1776 -181 1792 -174 ct 1808 -167 1820 -158 1829 -145 ct 
1838 -132 1842 -116 1842 -97 ct 1842 -79 1837 -61 1826 -45 ct 1815 -28 1799 -15 1779 -6 ct 
1758 3 1735 7 1709 7 ct 1667 7 1634 -2 1611 -20 ct 1589 -37 1575 -64 1569 -99 ct 
p ef
2134 -107 m  2192 -99 l  2183 -66 2166 -40 2141 -21 ct 2117 -2 2085 7 2047 7 ct 
1999 7 1961 -8 1933 -37 ct 1904 -67 1890 -109 1890 -162 ct 1890 -218 1905 -261 1933 -291 ct 
1962 -322 1999 -337 2044 -337 ct 2088 -337 2124 -322 2152 -292 ct 2180 -262 2194 -220 2194 -166 ct 
2194 -163 2194 -158 2193 -151 ct 1948 -151 l  1950 -115 1960 -87 1979 -68 ct 
1997 -49 2020 -39 2047 -39 ct 2068 -39 2085 -44 2100 -55 ct 2114 -66 2126 -83 2134 -107 ct 
p
1951 -197 m  2135 -197 l  2132 -225 2125 -245 2114 -259 ct 2096 -280 2073 -291 2045 -291 ct 
2019 -291 1997 -283 1980 -265 ct 1963 -248 1953 -226 1951 -197 ct p ef
pom
gr
gr
0.996 c 8777 11478 m  7031 11478 l  7031 9890 l  10524 9890 l  10524 11478 l 
8777 11478 l  p ef
0.000 c 8777 11478 m  7031 11478 l  7031 9890 l  10524 9890 l  10524 11478 l 
8777 11478 l  pc
gs
gs
pum
7943 10916 t
20 -99 m  75 -107 l  78 -85 86 -68 101 -57 ct 115 -45 135 -39 160 -39 ct 186 -39 205 -44 217 -55 ct 
229 -65 236 -77 236 -91 ct 236 -104 230 -114 219 -121 ct 212 -126 193 -132 162 -140 ct 
121 -150 93 -159 77 -167 ct 61 -174 49 -185 41 -198 ct 33 -211 29 -226 29 -242 ct 
29 -257 32 -270 39 -283 ct 46 -295 55 -306 66 -314 ct 75 -320 87 -326 102 -330 ct 
117 -335 133 -337 150 -337 ct 176 -337 199 -333 218 -326 ct 238 -318 252 -308 261 -296 ct 
271 -283 277 -266 281 -245 ct 226 -237 l  224 -254 216 -267 204 -277 ct 193 -286 176 -291 154 -291 ct 
128 -291 110 -287 99 -278 ct 88 -270 83 -260 83 -249 ct 83 -241 85 -235 90 -229 ct 
94 -223 101 -218 111 -214 ct 117 -212 133 -207 160 -200 ct 200 -189 227 -181 243 -174 ct 
259 -167 271 -158 280 -145 ct 289 -132 293 -116 293 -97 ct 293 -79 288 -61 277 -45 ct 
266 -28 250 -15 230 -6 ct 209 3 186 7 160 7 ct 118 7 85 -2 62 -20 ct 40 -37 26 -64 20 -99 ct 
p ef
451 0 m  326 -330 l  385 -330 l  456 -132 l  463 -111 470 -89 477 -66 ct 
482 -83 489 -104 498 -128 ct 571 -330 l  628 -330 l  503 0 l  451 0 l  p ef
676 0 m  676 -455 l  731 -455 l  731 0 l  676 0 l  p ef
822 0 m  822 -455 l  913 -455 l  1020 -133 l  1030 -103 1037 -80 1042 -65 ct 
1047 -82 1055 -106 1066 -138 ct 1175 -455 l  1256 -455 l  1256 0 l  1198 0 l 
1198 -381 l  1066 0 l  1012 0 l  880 -387 l  880 0 l  822 0 l  p ef
1342 0 m  1342 -455 l  1402 -455 l  1402 -54 l  1626 -54 l  1626 0 l  1342 0 l 
p ef
pom
gr
gr
0.996 c 4967 11477 m  3221 11477 l  3221 9889 l  6714 9889 l  6714 11477 l 
4967 11477 l  p ef
0.000 c 4967 11477 m  3221 11477 l  3221 9889 l  6714 9889 l  6714 11477 l 
4967 11477 l  pc
gs
gs
pum
3850 10916 t
20 -99 m  75 -107 l  78 -85 86 -68 101 -57 ct 115 -45 135 -39 160 -39 ct 186 -39 205 -44 217 -55 ct 
229 -65 236 -77 236 -91 ct 236 -104 230 -114 219 -121 ct 212 -126 193 -132 162 -140 ct 
121 -150 93 -159 77 -167 ct 61 -174 49 -185 41 -198 ct 33 -211 29 -226 29 -242 ct 
29 -257 32 -270 39 -283 ct 46 -295 55 -306 66 -314 ct 75 -320 87 -326 102 -330 ct 
117 -335 133 -337 150 -337 ct 176 -337 199 -333 218 -326 ct 238 -318 252 -308 261 -296 ct 
271 -283 277 -266 281 -245 ct 226 -237 l  224 -254 216 -267 204 -277 ct 193 -286 176 -291 154 -291 ct 
128 -291 110 -287 99 -278 ct 88 -270 83 -260 83 -249 ct 83 -241 85 -235 90 -229 ct 
94 -223 101 -218 111 -214 ct 117 -212 133 -207 160 -200 ct 200 -189 227 -181 243 -174 ct 
259 -167 271 -158 280 -145 ct 289 -132 293 -116 293 -97 ct 293 -79 288 -61 277 -45 ct 
266 -28 250 -15 230 -6 ct 209 3 186 7 160 7 ct 118 7 85 -2 62 -20 ct 40 -37 26 -64 20 -99 ct 
p ef
451 0 m  326 -330 l  385 -330 l  456 -132 l  463 -111 470 -89 477 -66 ct 
482 -83 489 -104 498 -128 ct 571 -330 l  628 -330 l  503 0 l  451 0 l  p ef
676 0 m  676 -455 l  731 -455 l  731 0 l  676 0 l  p ef
824 0 m  824 -455 l  995 -455 l  1026 -455 1049 -454 1065 -451 ct 1087 -447 1106 -440 1121 -429 ct 
1136 -419 1148 -404 1157 -385 ct 1166 -367 1171 -346 1171 -323 ct 1171 -285 1159 -252 1134 -225 ct 
1109 -198 1065 -185 1001 -185 ct 884 -185 l  884 0 l  824 0 l  p
884 -239 m  1002 -239 l  1041 -239 1068 -246 1084 -260 ct 1101 -275 1109 -295 1109 -322 ct 
1109 -341 1104 -357 1095 -370 ct 1085 -384 1072 -393 1057 -397 ct 1046 -400 1028 -401 1000 -401 ct 
884 -401 l  884 -239 l  p ef
1460 -178 m  1460 -231 l  1652 -231 l  1652 -63 l  1623 -39 1592 -22 1561 -10 ct 
1529 2 1497 8 1464 8 ct 1419 8 1379 -2 1342 -21 ct 1306 -40 1278 -68 1260 -104 ct 
1241 -140 1232 -180 1232 -225 ct 1232 -269 1241 -311 1260 -349 ct 1278 -387 1305 -416 1339 -435 ct 
1374 -453 1414 -463 1459 -463 ct 1492 -463 1522 -457 1549 -447 ct 1575 -436 1596 -421 1611 -402 ct 
1626 -383 1638 -358 1645 -327 ct 1591 -312 l  1584 -336 1576 -354 1566 -367 ct 
1556 -380 1541 -391 1522 -399 ct 1504 -407 1483 -411 1460 -411 ct 1432 -411 1408 -407 1388 -398 ct 
1368 -390 1352 -379 1340 -365 ct 1328 -352 1318 -337 1311 -320 ct 1300 -292 1294 -262 1294 -229 ct 
1294 -188 1301 -154 1315 -127 ct 1329 -100 1349 -79 1376 -66 ct 1402 -53 1431 -46 1461 -46 ct 
1487 -46 1512 -51 1537 -61 ct 1562 -71 1581 -82 1593 -93 ct 1593 -178 l  1460 -178 l 
p ef
1740 0 m  1740 -455 l  1831 -455 l  1938 -133 l  1948 -103 1955 -80 1960 -65 ct 
1965 -82 1973 -106 1984 -138 ct 2093 -455 l  2174 -455 l  2174 0 l  2116 0 l 
2116 -381 l  1984 0 l  1930 0 l  1798 -387 l  1798 0 l  1740 0 l  p ef
pom
gr
gr
0.996 c 12904 14016 m  11158 14016 l  11158 12429 l  14651 12429 l  14651 14016 l 
12904 14016 l  p ef
0.000 c 12904 14016 m  11158 14016 l  11158 12429 l  14651 12429 l  14651 14016 l 
12904 14016 l  pc
gs
gs
pum
11651 13456 t
20 -99 m  75 -107 l  78 -85 86 -68 101 -57 ct 115 -45 135 -39 160 -39 ct 186 -39 205 -44 217 -55 ct 
229 -65 236 -77 236 -91 ct 236 -104 230 -114 219 -121 ct 212 -126 193 -132 162 -140 ct 
121 -150 93 -159 77 -167 ct 61 -174 49 -185 41 -198 ct 33 -211 29 -226 29 -242 ct 
29 -257 32 -270 39 -283 ct 46 -295 55 -306 66 -314 ct 75 -320 87 -326 102 -330 ct 
117 -335 133 -337 150 -337 ct 176 -337 199 -333 218 -326 ct 238 -318 252 -308 261 -296 ct 
271 -283 277 -266 281 -245 ct 226 -237 l  224 -254 216 -267 204 -277 ct 193 -286 176 -291 154 -291 ct 
128 -291 110 -287 99 -278 ct 88 -270 83 -260 83 -249 ct 83 -241 85 -235 90 -229 ct 
94 -223 101 -218 111 -214 ct 117 -212 133 -207 160 -200 ct 200 -189 227 -181 243 -174 ct 
259 -167 271 -158 280 -145 ct 289 -132 293 -116 293 -97 ct 293 -79 288 -61 277 -45 ct 
266 -28 250 -15 230 -6 ct 209 3 186 7 160 7 ct 118 7 85 -2 62 -20 ct 40 -37 26 -64 20 -99 ct 
p ef
451 0 m  326 -330 l  385 -330 l  456 -132 l  463 -111 470 -89 477 -66 ct 
482 -83 489 -104 498 -128 ct 571 -330 l  628 -330 l  503 0 l  451 0 l  p ef
676 0 m  676 -455 l  731 -455 l  731 0 l  676 0 l  p ef
954 0 m  778 -455 l  843 -455 l  961 -124 l  971 -98 979 -73 985 -50 ct 992 -75 1000 -100 1009 -124 ct 
1132 -455 l  1194 -455 l  1016 0 l  954 0 l  p ef
1227 -391 m  1227 -455 l  1283 -455 l  1283 -391 l  1227 -391 l  p
1227 0 m  1227 -330 l  1283 -330 l  1283 0 l  1227 0 l  p ef
1345 -99 m  1400 -107 l  1403 -85 1411 -68 1426 -57 ct 1440 -45 1460 -39 1485 -39 ct 
1511 -39 1530 -44 1542 -55 ct 1554 -65 1561 -77 1561 -91 ct 1561 -104 1555 -114 1544 -121 ct 
1537 -126 1518 -132 1487 -140 ct 1446 -150 1418 -159 1402 -167 ct 1386 -174 1374 -185 1366 -198 ct 
1358 -211 1354 -226 1354 -242 ct 1354 -257 1357 -270 1364 -283 ct 1371 -295 1380 -306 1391 -314 ct 
1400 -320 1412 -326 1427 -330 ct 1442 -335 1458 -337 1475 -337 ct 1501 -337 1524 -333 1543 -326 ct 
1563 -318 1577 -308 1586 -296 ct 1596 -283 1602 -266 1606 -245 ct 1551 -237 l 
1549 -254 1541 -267 1529 -277 ct 1518 -286 1501 -291 1479 -291 ct 1453 -291 1435 -287 1424 -278 ct 
1413 -270 1408 -260 1408 -249 ct 1408 -241 1410 -235 1415 -229 ct 1419 -223 1426 -218 1436 -214 ct 
1442 -212 1458 -207 1485 -200 ct 1525 -189 1552 -181 1568 -174 ct 1584 -167 1596 -158 1605 -145 ct 
1614 -132 1618 -116 1618 -97 ct 1618 -79 1613 -61 1602 -45 ct 1591 -28 1575 -15 1555 -6 ct 
1534 3 1511 7 1485 7 ct 1443 7 1410 -2 1387 -20 ct 1365 -37 1351 -64 1345 -99 ct 
p ef
1685 -391 m  1685 -455 l  1741 -455 l  1741 -391 l  1685 -391 l  p
1685 0 m  1685 -330 l  1741 -330 l  1741 0 l  1685 0 l  p ef
1803 -165 m  1803 -226 1820 -271 1854 -301 ct 1882 -325 1917 -337 1958 -337 ct 
2003 -337 2040 -322 2068 -293 ct 2097 -263 2112 -222 2112 -170 ct 2112 -127 2105 -94 2093 -70 ct 
2080 -45 2061 -27 2037 -13 ct 2013 0 1986 7 1958 7 ct 1911 7 1874 -8 1846 -37 ct 
1817 -67 1803 -110 1803 -165 ct p
1860 -165 m  1860 -123 1870 -91 1888 -70 ct 1906 -49 1930 -39 1958 -39 ct 1985 -39 2008 -49 2027 -71 ct 
2045 -92 2054 -124 2054 -167 ct 2054 -208 2045 -239 2026 -260 ct 2008 -281 1985 -291 1958 -291 ct 
1930 -291 1906 -281 1888 -260 ct 1870 -239 1860 -207 1860 -165 ct p ef
2176 0 m  2176 -330 l  2226 -330 l  2226 -283 l  2250 -319 2285 -337 2331 -337 ct 
2351 -337 2369 -333 2386 -326 ct 2402 -319 2415 -310 2423 -298 ct 2431 -287 2437 -273 2440 -257 ct 
2442 -247 2443 -229 2443 -203 ct 2443 0 l  2388 0 l  2388 -200 l  2388 -223 2385 -240 2381 -252 ct 
2377 -263 2369 -272 2358 -279 ct 2347 -285 2334 -289 2319 -289 ct 2295 -289 2275 -281 2258 -266 ct 
2240 -251 2232 -222 2232 -180 ct 2232 0 l  2176 0 l  p ef
pom
gr
gr
0.996 c 11000 16558 m  9253 16558 l  9253 14970 l  12747 14970 l  12747 16558 l 
11000 16558 l  p ef
0.000 c 11000 16558 m  9253 16558 l  9253 14970 l  12747 14970 l  12747 16558 l 
11000 16558 l  pc
gs
gs
pum
9846 15996 t
20 -99 m  75 -107 l  78 -85 86 -68 101 -57 ct 115 -45 135 -39 160 -39 ct 186 -39 205 -44 217 -55 ct 
229 -65 236 -77 236 -91 ct 236 -104 230 -114 219 -121 ct 212 -126 193 -132 162 -140 ct 
121 -150 93 -159 77 -167 ct 61 -174 49 -185 41 -198 ct 33 -211 29 -226 29 -242 ct 
29 -257 32 -270 39 -283 ct 46 -295 55 -306 66 -314 ct 75 -320 87 -326 102 -330 ct 
117 -335 133 -337 150 -337 ct 176 -337 199 -333 218 -326 ct 238 -318 252 -308 261 -296 ct 
271 -283 277 -266 281 -245 ct 226 -237 l  224 -254 216 -267 204 -277 ct 193 -286 176 -291 154 -291 ct 
128 -291 110 -287 99 -278 ct 88 -270 83 -260 83 -249 ct 83 -241 85 -235 90 -229 ct 
94 -223 101 -218 111 -214 ct 117 -212 133 -207 160 -200 ct 200 -189 227 -181 243 -174 ct 
259 -167 271 -158 280 -145 ct 289 -132 293 -116 293 -97 ct 293 -79 288 -61 277 -45 ct 
266 -28 250 -15 230 -6 ct 209 3 186 7 160 7 ct 118 7 85 -2 62 -20 ct 40 -37 26 -64 20 -99 ct 
p ef
451 0 m  326 -330 l  385 -330 l  456 -132 l  463 -111 470 -89 477 -66 ct 
482 -83 489 -104 498 -128 ct 571 -330 l  628 -330 l  503 0 l  451 0 l  p ef
676 0 m  676 -455 l  731 -455 l  731 0 l  676 0 l  p ef
1148 -159 m  1208 -144 l  1196 -95 1173 -57 1140 -31 ct 1108 -5 1068 8 1020 8 ct 
971 8 931 -2 901 -22 ct 870 -42 847 -71 831 -109 ct 815 -147 807 -187 807 -231 ct 
807 -278 816 -319 834 -355 ct 852 -390 878 -417 911 -435 ct 944 -453 981 -463 1021 -463 ct 
1067 -463 1105 -451 1136 -428 ct 1167 -405 1189 -372 1201 -330 ct 1141 -316 l 
1131 -349 1116 -373 1096 -388 ct 1076 -403 1050 -411 1020 -411 ct 985 -411 956 -403 932 -386 ct 
909 -369 892 -347 883 -318 ct 873 -290 869 -261 869 -231 ct 869 -192 874 -159 886 -130 ct 
897 -101 914 -79 938 -65 ct 962 -51 988 -44 1015 -44 ct 1049 -44 1078 -53 1101 -73 ct 
1124 -92 1140 -121 1148 -159 ct p ef
1490 0 m  1490 -49 l  1464 -12 1429 7 1385 7 ct 1366 7 1348 3 1331 -4 ct 1314 -12 1301 -21 1293 -32 ct 
1285 -44 1279 -57 1276 -74 ct 1274 -85 1273 -102 1273 -126 ct 1273 -330 l  1328 -330 l 
1328 -147 l  1328 -118 1330 -98 1332 -88 ct 1335 -74 1343 -62 1354 -54 ct 1366 -45 1380 -41 1396 -41 ct 
1413 -41 1429 -45 1443 -54 ct 1458 -63 1469 -74 1475 -89 ct 1481 -104 1484 -125 1484 -153 ct 
1484 -330 l  1540 -330 l  1540 0 l  1490 0 l  p ef
1838 0 m  1838 -42 l  1818 -9 1787 7 1746 7 ct 1720 7 1696 0 1674 -15 ct 1652 -29 1635 -49 1623 -75 ct 
1611 -101 1605 -131 1605 -165 ct 1605 -198 1610 -228 1621 -254 ct 1632 -281 1649 -302 1670 -316 ct 
1692 -330 1717 -337 1744 -337 ct 1764 -337 1781 -333 1797 -325 ct 1812 -316 1825 -305 1835 -292 ct 
1835 -455 l  1890 -455 l  1890 0 l  1838 0 l  p
1662 -165 m  1662 -123 1671 -91 1689 -70 ct 1707 -49 1727 -39 1752 -39 ct 1776 -39 1797 -49 1814 -69 ct 
1831 -89 1839 -119 1839 -160 ct 1839 -205 1831 -238 1813 -259 ct 1796 -280 1775 -291 1749 -291 ct 
1724 -291 1704 -281 1687 -261 ct 1670 -240 1662 -208 1662 -165 ct p ef
2192 -41 m  2171 -24 2151 -11 2132 -4 ct 2113 3 2092 7 2071 7 ct 2034 7 2007 -2 1987 -20 ct 
1968 -37 1958 -60 1958 -87 ct 1958 -103 1962 -118 1969 -131 ct 1976 -145 1986 -156 1998 -164 ct 
2010 -172 2023 -178 2038 -182 ct 2049 -185 2065 -188 2088 -190 ct 2133 -196 2166 -202 2187 -209 ct 
2187 -217 2187 -222 2187 -224 ct 2187 -247 2182 -263 2172 -272 ct 2157 -285 2136 -291 2108 -291 ct 
2082 -291 2062 -286 2050 -277 ct 2037 -268 2028 -252 2022 -228 ct 1968 -236 l 
1973 -259 1981 -278 1992 -292 ct 2003 -307 2020 -318 2041 -326 ct 2063 -333 2088 -337 2116 -337 ct 
2144 -337 2167 -334 2185 -327 ct 2202 -321 2215 -312 2223 -302 ct 2232 -292 2237 -280 2241 -264 ct 
2243 -255 2244 -238 2244 -213 ct 2244 -138 l  2244 -87 2245 -54 2247 -40 ct 
2249 -26 2254 -13 2261 0 ct 2203 0 l  2197 -12 2193 -26 2192 -41 ct p
2187 -166 m  2167 -157 2136 -150 2096 -145 ct 2073 -141 2057 -138 2047 -133 ct 
2038 -129 2030 -123 2025 -115 ct 2020 -107 2017 -99 2017 -89 ct 2017 -74 2023 -62 2034 -52 ct 
2046 -42 2062 -37 2084 -37 ct 2105 -37 2124 -41 2141 -51 ct 2158 -60 2170 -73 2178 -89 ct 
2184 -102 2187 -121 2187 -145 ct 2187 -166 l  p ef
pom
gr
gr
0.996 c 4808 6080 m  3221 6080 l  3221 4492 l  6396 4492 l  6396 6080 l 
4808 6080 l  p ef
0.000 c 4808 6080 m  3221 6080 l  3221 4492 l  6396 4492 l  6396 6080 l 
4808 6080 l  pc
gs
gs
pum
3380 5518 t
5 0 m  125 -171 l  14 -330 l  83 -330 l  134 -252 l  143 -238 151 -225 157 -215 ct 
166 -229 174 -241 182 -252 ct 238 -330 l  304 -330 l  190 -174 l  313 0 l 
244 0 l  177 -102 l  159 -130 l  72 0 l  5 0 l  p ef
355 0 m  355 -330 l  405 -330 l  405 -283 l  415 -299 429 -312 446 -322 ct 
463 -332 483 -337 505 -337 ct 529 -337 549 -332 565 -322 ct 580 -312 591 -297 598 -279 ct 
624 -318 658 -337 699 -337 ct 732 -337 757 -328 775 -310 ct 792 -292 801 -264 801 -226 ct 
801 0 l  746 0 l  746 -208 l  746 -230 744 -246 740 -256 ct 737 -266 730 -274 720 -280 ct 
711 -286 700 -289 687 -289 ct 664 -289 645 -281 629 -265 ct 614 -250 606 -225 606 -191 ct 
606 0 l  551 0 l  551 -214 l  551 -239 546 -258 537 -270 ct 528 -282 513 -289 492 -289 ct 
477 -289 462 -284 449 -276 ct 435 -268 426 -256 420 -240 ct 414 -224 411 -201 411 -171 ct 
411 0 l  355 0 l  p ef
883 0 m  883 -455 l  938 -455 l  938 0 l  883 0 l  p ef
1031 0 m  1031 -455 l  1202 -455 l  1233 -455 1256 -454 1272 -451 ct 1294 -447 1313 -440 1328 -429 ct 
1343 -419 1355 -404 1364 -385 ct 1373 -367 1378 -346 1378 -323 ct 1378 -285 1366 -252 1341 -225 ct 
1316 -198 1272 -185 1208 -185 ct 1091 -185 l  1091 0 l  1031 0 l  p
1091 -239 m  1209 -239 l  1248 -239 1275 -246 1291 -260 ct 1308 -275 1316 -295 1316 -322 ct 
1316 -341 1311 -357 1302 -370 ct 1292 -384 1279 -393 1264 -397 ct 1253 -400 1235 -401 1207 -401 ct 
1091 -401 l  1091 -239 l  p ef
1662 -41 m  1641 -24 1621 -11 1602 -4 ct 1583 3 1562 7 1541 7 ct 1504 7 1477 -2 1457 -20 ct 
1438 -37 1428 -60 1428 -87 ct 1428 -103 1432 -118 1439 -131 ct 1446 -145 1456 -156 1468 -164 ct 
1480 -172 1493 -178 1508 -182 ct 1519 -185 1535 -188 1558 -190 ct 1603 -196 1636 -202 1657 -209 ct 
1657 -217 1657 -222 1657 -224 ct 1657 -247 1652 -263 1642 -272 ct 1627 -285 1606 -291 1578 -291 ct 
1552 -291 1532 -286 1520 -277 ct 1507 -268 1498 -252 1492 -228 ct 1438 -236 l 
1443 -259 1451 -278 1462 -292 ct 1473 -307 1490 -318 1511 -326 ct 1533 -333 1558 -337 1586 -337 ct 
1614 -337 1637 -334 1655 -327 ct 1672 -321 1685 -312 1693 -302 ct 1702 -292 1707 -280 1711 -264 ct 
1713 -255 1714 -238 1714 -213 ct 1714 -138 l  1714 -87 1715 -54 1717 -40 ct 
1719 -26 1724 -13 1731 0 ct 1673 0 l  1667 -12 1663 -26 1662 -41 ct p
1657 -166 m  1637 -157 1606 -150 1566 -145 ct 1543 -141 1527 -138 1517 -133 ct 
1508 -129 1500 -123 1495 -115 ct 1490 -107 1487 -99 1487 -89 ct 1487 -74 1493 -62 1504 -52 ct 
1516 -42 1532 -37 1554 -37 ct 1575 -37 1594 -41 1611 -51 ct 1628 -60 1640 -73 1648 -89 ct 
1654 -102 1657 -121 1657 -145 ct 1657 -166 l  p ef
1798 0 m  1798 -330 l  1848 -330 l  1848 -280 l  1861 -303 1873 -318 1884 -326 ct 
1895 -333 1907 -337 1920 -337 ct 1939 -337 1958 -331 1977 -319 ct 1958 -267 l 
1944 -275 1931 -279 1917 -279 ct 1905 -279 1894 -276 1884 -268 ct 1874 -261 1867 -251 1863 -238 ct 
1857 -218 1854 -196 1854 -173 ct 1854 0 l  1798 0 l  p ef
1989 -99 m  2044 -107 l  2047 -85 2055 -68 2070 -57 ct 2084 -45 2104 -39 2129 -39 ct 
2155 -39 2174 -44 2186 -55 ct 2198 -65 2205 -77 2205 -91 ct 2205 -104 2199 -114 2188 -121 ct 
2181 -126 2162 -132 2131 -140 ct 2090 -150 2062 -159 2046 -167 ct 2030 -174 2018 -185 2010 -198 ct 
2002 -211 1998 -226 1998 -242 ct 1998 -257 2001 -270 2008 -283 ct 2015 -295 2024 -306 2035 -314 ct 
2044 -320 2056 -326 2071 -330 ct 2086 -335 2102 -337 2119 -337 ct 2145 -337 2168 -333 2187 -326 ct 
2207 -318 2221 -308 2230 -296 ct 2240 -283 2246 -266 2250 -245 ct 2195 -237 l 
2193 -254 2185 -267 2173 -277 ct 2162 -286 2145 -291 2123 -291 ct 2097 -291 2079 -287 2068 -278 ct 
2057 -270 2052 -260 2052 -249 ct 2052 -241 2054 -235 2059 -229 ct 2063 -223 2070 -218 2080 -214 ct 
2086 -212 2102 -207 2129 -200 ct 2169 -189 2196 -181 2212 -174 ct 2228 -167 2240 -158 2249 -145 ct 
2258 -132 2262 -116 2262 -97 ct 2262 -79 2257 -61 2246 -45 ct 2235 -28 2219 -15 2199 -6 ct 
2178 3 2155 7 2129 7 ct 2087 7 2054 -2 2031 -20 ct 2009 -37 1995 -64 1989 -99 ct 
p ef
2553 -107 m  2611 -99 l  2602 -66 2585 -40 2560 -21 ct 2536 -2 2504 7 2466 7 ct 
2418 7 2380 -8 2352 -37 ct 2323 -67 2309 -109 2309 -162 ct 2309 -218 2324 -261 2352 -291 ct 
2381 -322 2418 -337 2463 -337 ct 2507 -337 2543 -322 2571 -292 ct 2599 -262 2613 -220 2613 -166 ct 
2613 -163 2613 -158 2612 -151 ct 2367 -151 l  2369 -115 2379 -87 2398 -68 ct 
2416 -49 2439 -39 2466 -39 ct 2487 -39 2504 -44 2519 -55 ct 2533 -66 2545 -83 2553 -107 ct 
p
2370 -197 m  2554 -197 l  2551 -225 2544 -245 2533 -259 ct 2515 -280 2492 -291 2464 -291 ct 
2438 -291 2416 -283 2399 -265 ct 2382 -248 2372 -226 2370 -197 ct p ef
2678 0 m  2678 -330 l  2728 -330 l  2728 -280 l  2741 -303 2753 -318 2764 -326 ct 
2775 -333 2787 -337 2800 -337 ct 2819 -337 2838 -331 2857 -319 ct 2838 -267 l 
2824 -275 2811 -279 2797 -279 ct 2785 -279 2774 -276 2764 -268 ct 2754 -261 2747 -251 2743 -238 ct 
2737 -218 2734 -196 2734 -173 ct 2734 0 l  2678 0 l  p ef
pom
gr
gr
0.996 c 7666 6080 m  6714 6080 l  6714 4492 l  8619 4492 l  8619 6080 l 
7666 6080 l  p ef
0.000 c 7666 6080 m  6714 6080 l  6714 4492 l  8619 4492 l  8619 6080 l 
7666 6080 l  pc
gs
gs
pum
6986 5518 t
41 0 m  41 -455 l  96 -455 l  96 0 l  41 0 l  p ef
233 0 m  182 0 l  182 -455 l  237 -455 l  237 -293 l  261 -322 291 -337 328 -337 ct 
348 -337 367 -333 385 -325 ct 403 -317 418 -305 430 -290 ct 441 -276 451 -258 457 -237 ct 
464 -216 467 -194 467 -170 ct 467 -114 453 -70 425 -39 ct 397 -8 364 7 325 7 ct 
286 7 255 -9 233 -42 ct 233 0 l  p
233 -167 m  233 -128 238 -100 249 -82 ct 266 -53 290 -39 320 -39 ct 345 -39 366 -50 383 -71 ct 
401 -92 410 -123 410 -165 ct 410 -208 402 -240 384 -260 ct 367 -281 347 -291 323 -291 ct 
298 -291 277 -281 259 -259 ct 242 -238 233 -208 233 -167 ct p ef
546 0 m  546 -286 l  497 -286 l  497 -329 l  546 -329 l  546 -364 l  546 -387 548 -403 552 -414 ct 
557 -428 567 -440 580 -449 ct 594 -458 613 -462 637 -462 ct 653 -462 670 -460 689 -457 ct 
681 -408 l  669 -410 659 -411 648 -411 ct 631 -411 619 -407 612 -400 ct 605 -393 602 -379 602 -360 ct 
602 -329 l  666 -329 l  666 -286 l  602 -286 l  602 0 l  546 0 l  p ef
701 28 m  755 36 l  757 52 763 65 774 72 ct 788 83 807 88 831 88 ct 856 88 876 83 890 72 ct 
904 62 914 47 919 29 ct 922 17 923 -6 923 -43 ct 899 -14 868 0 832 0 ct 787 0 751 -16 727 -49 ct 
702 -82 689 -121 689 -167 ct 689 -198 695 -227 707 -254 ct 718 -280 734 -301 756 -315 ct 
778 -330 803 -337 832 -337 ct 871 -337 903 -321 928 -290 ct 928 -330 l  980 -330 l 
980 -45 l  980 7 974 43 964 65 ct 954 86 937 103 914 115 ct 892 128 864 134 831 134 ct 
792 134 760 125 736 107 ct 711 90 700 63 701 28 ct p
747 -171 m  747 -127 755 -96 773 -76 ct 790 -56 811 -46 837 -46 ct 863 -46 884 -56 902 -76 ct 
919 -95 928 -126 928 -169 ct 928 -209 919 -240 901 -260 ct 883 -281 861 -291 836 -291 ct 
811 -291 790 -281 773 -260 ct 756 -240 747 -210 747 -171 ct p ef
1040 -99 m  1095 -107 l  1098 -85 1106 -68 1121 -57 ct 1135 -45 1155 -39 1180 -39 ct 
1206 -39 1225 -44 1237 -55 ct 1249 -65 1256 -77 1256 -91 ct 1256 -104 1250 -114 1239 -121 ct 
1232 -126 1213 -132 1182 -140 ct 1141 -150 1113 -159 1097 -167 ct 1081 -174 1069 -185 1061 -198 ct 
1053 -211 1049 -226 1049 -242 ct 1049 -257 1052 -270 1059 -283 ct 1066 -295 1075 -306 1086 -314 ct 
1095 -320 1107 -326 1122 -330 ct 1137 -335 1153 -337 1170 -337 ct 1196 -337 1219 -333 1238 -326 ct 
1258 -318 1272 -308 1281 -296 ct 1291 -283 1297 -266 1301 -245 ct 1246 -237 l 
1244 -254 1236 -267 1224 -277 ct 1213 -286 1196 -291 1174 -291 ct 1148 -291 1130 -287 1119 -278 ct 
1108 -270 1103 -260 1103 -249 ct 1103 -241 1105 -235 1110 -229 ct 1114 -223 1121 -218 1131 -214 ct 
1137 -212 1153 -207 1180 -200 ct 1220 -189 1247 -181 1263 -174 ct 1279 -167 1291 -158 1300 -145 ct 
1309 -132 1313 -116 1313 -97 ct 1313 -79 1308 -61 1297 -45 ct 1286 -28 1270 -15 1250 -6 ct 
1229 3 1206 7 1180 7 ct 1138 7 1105 -2 1082 -20 ct 1060 -37 1046 -64 1040 -99 ct 
p ef
pom
gr
gr
7667 6080 m  7556 6541 l  7301 6382 l  7667 6080 l  p ef
6873 7350 m  7476 6385 l  ps
4809 6080 m  5271 6188 l  5114 6444 l  4809 6080 l  p ef
6873 7350 m  5116 6269 l  ps
6873 8938 m  7343 9005 l  7208 9273 l  6873 8938 l  p ef
8778 9890 m  7195 9099 l  ps
6873 8938 m  6537 9273 l  6403 9005 l  6873 8938 l  p ef
4968 9889 m  6551 9099 l  ps
12906 6080 m  13056 6530 l  12756 6530 l  12906 6080 l  p ef
12905 12430 m  12906 6440 l  ps
8778 11478 m  9250 11433 l  9183 11725 l  8778 11478 l  p ef
12905 12430 m  9129 11559 l  ps
12905 14017 m  12570 14352 l  12435 14084 l  12905 14017 l  p ef
11000 14970 m  12583 14178 l  ps
gs
gs
pum
16796 6809 t
178 -71 m  216 -66 l  210 -43 199 -26 183 -14 ct 166 -1 145 5 120 5 ct 88 5 62 -5 44 -25 ct 
25 -44 15 -72 15 -108 ct 15 -145 25 -173 44 -193 ct 63 -214 88 -224 118 -224 ct 
147 -224 171 -214 190 -194 ct 208 -174 218 -146 218 -110 ct 218 -108 218 -104 217 -100 ct 
54 -100 l  55 -76 62 -58 74 -45 ct 87 -32 102 -26 120 -26 ct 134 -26 145 -29 155 -36 ct 
165 -43 172 -55 178 -71 ct p
56 -131 m  178 -131 l  177 -149 172 -163 164 -172 ct 153 -186 137 -193 118 -193 ct 
101 -193 87 -188 75 -176 ct 64 -165 57 -150 56 -131 ct p ef
240 0 m  320 -114 l  246 -219 l  293 -219 l  326 -168 l  333 -158 338 -150 342 -143 ct 
348 -152 353 -160 358 -167 ct 395 -219 l  440 -219 l  364 -116 l  445 0 l 
400 0 l  355 -68 l  343 -86 l  285 0 l  240 0 l  p ef
554 -33 m  559 0 l  549 2 540 3 531 3 ct 518 3 507 1 500 -3 ct 493 -8 487 -13 484 -20 ct 
481 -27 480 -42 480 -64 ct 480 -190 l  452 -190 l  452 -219 l  480 -219 l 
480 -273 l  517 -296 l  517 -219 l  554 -219 l  554 -190 l  517 -190 l 
517 -62 l  517 -51 517 -45 519 -42 ct 520 -39 522 -36 525 -34 ct 528 -33 532 -32 538 -32 ct 
542 -32 547 -32 554 -33 ct p ef
741 -71 m  779 -66 l  773 -43 762 -26 746 -14 ct 729 -1 708 5 683 5 ct 651 5 625 -5 607 -25 ct 
588 -44 578 -72 578 -108 ct 578 -145 588 -173 607 -193 ct 626 -214 651 -224 681 -224 ct 
710 -224 734 -214 753 -194 ct 771 -174 781 -146 781 -110 ct 781 -108 781 -104 780 -100 ct 
617 -100 l  618 -76 625 -58 637 -45 ct 650 -32 665 -26 683 -26 ct 697 -26 708 -29 718 -36 ct 
728 -43 735 -55 741 -71 ct p
619 -131 m  741 -131 l  740 -149 735 -163 727 -172 ct 716 -186 700 -193 681 -193 ct 
664 -193 650 -188 638 -176 ct 627 -165 620 -150 619 -131 ct p ef
827 0 m  827 -219 l  861 -219 l  861 -186 l  869 -201 877 -212 885 -217 ct 
892 -222 900 -224 908 -224 ct 921 -224 934 -220 947 -212 ct 934 -178 l  925 -183 916 -186 907 -186 ct 
898 -186 891 -183 885 -178 ct 878 -173 874 -167 871 -158 ct 867 -145 865 -130 865 -115 ct 
865 0 l  827 0 l  p ef
968 0 m  968 -219 l  1001 -219 l  1001 -188 l  1017 -212 1041 -224 1071 -224 ct 
1084 -224 1097 -222 1108 -217 ct 1119 -212 1127 -206 1133 -198 ct 1138 -191 1142 -181 1144 -171 ct 
1145 -164 1146 -152 1146 -135 ct 1146 0 l  1109 0 l  1109 -133 l  1109 -148 1108 -160 1105 -167 ct 
1102 -175 1097 -181 1089 -185 ct 1082 -190 1073 -192 1063 -192 ct 1047 -192 1034 -187 1022 -177 ct 
1011 -167 1005 -148 1005 -120 ct 1005 0 l  968 0 l  p ef
1348 -27 m  1334 -15 1321 -7 1308 -2 ct 1296 3 1282 5 1267 5 ct 1243 5 1225 -1 1212 -13 ct 
1199 -24 1192 -39 1192 -58 ct 1192 -68 1195 -78 1200 -87 ct 1205 -96 1211 -103 1219 -108 ct 
1227 -114 1236 -118 1246 -121 ct 1253 -123 1264 -124 1279 -126 ct 1309 -130 1331 -134 1345 -139 ct 
1345 -144 1345 -147 1345 -149 ct 1345 -164 1342 -174 1335 -181 ct 1325 -189 1311 -193 1292 -193 ct 
1275 -193 1262 -190 1254 -184 ct 1245 -178 1239 -167 1235 -152 ct 1199 -157 l 
1202 -172 1207 -185 1215 -194 ct 1223 -204 1234 -211 1248 -216 ct 1262 -221 1279 -224 1298 -224 ct 
1316 -224 1332 -222 1343 -217 ct 1355 -213 1364 -207 1369 -201 ct 1375 -194 1378 -186 1381 -176 ct 
1382 -169 1383 -158 1383 -141 ct 1383 -92 l  1383 -57 1383 -35 1385 -26 ct 1386 -17 1390 -8 1394 0 ct 
1355 0 l  1352 -8 1349 -17 1348 -27 ct p
1345 -110 m  1331 -104 1311 -100 1284 -96 ct 1269 -94 1258 -91 1252 -88 ct 1245 -86 1241 -82 1237 -76 ct 
1234 -71 1232 -65 1232 -59 ct 1232 -49 1236 -41 1243 -34 ct 1251 -27 1262 -24 1276 -24 ct 
1290 -24 1303 -27 1314 -33 ct 1326 -40 1334 -48 1339 -59 ct 1343 -68 1345 -80 1345 -96 ct 
1345 -110 l  p ef
1441 0 m  1441 -302 l  1478 -302 l  1478 0 l  1441 0 l  p ef
pom
gr
gr
gs
gs
pum
16161 17286 t
13 -65 m  50 -71 l  52 -56 58 -45 67 -37 ct 76 -29 90 -26 107 -26 ct 124 -26 136 -29 145 -36 ct 
153 -43 157 -51 157 -60 ct 157 -69 153 -75 146 -80 ct 141 -84 128 -88 108 -93 ct 
81 -100 62 -106 51 -111 ct 41 -116 33 -123 27 -131 ct 22 -140 19 -150 19 -161 ct 
19 -171 21 -180 26 -188 ct 30 -196 37 -203 44 -209 ct 50 -213 58 -217 68 -220 ct 
78 -223 89 -224 100 -224 ct 117 -224 132 -222 145 -217 ct 158 -212 168 -205 174 -196 ct 
180 -188 185 -177 187 -163 ct 151 -158 l  149 -169 144 -178 136 -184 ct 128 -190 117 -193 103 -193 ct 
86 -193 73 -191 66 -185 ct 59 -179 55 -173 55 -165 ct 55 -160 57 -156 60 -152 ct 
63 -148 67 -145 74 -142 ct 78 -141 89 -138 107 -133 ct 133 -126 151 -120 162 -116 ct 
172 -111 180 -105 186 -96 ct 192 -88 195 -77 195 -64 ct 195 -52 192 -40 184 -29 ct 
177 -18 167 -10 153 -4 ct 139 2 124 5 107 5 ct 78 5 57 -1 42 -13 ct 27 -25 17 -42 13 -65 ct 
p ef
301 0 m  217 -219 l  257 -219 l  304 -88 l  309 -74 313 -59 318 -44 ct 321 -55 326 -69 332 -85 ct 
380 -219 l  419 -219 l  336 0 l  301 0 l  p ef
446 0 m  446 -302 l  483 -302 l  483 0 l  446 0 l  p ef
658 0 m  658 -302 l  695 -302 l  695 0 l  658 0 l  p ef
752 -260 m  752 -303 l  789 -303 l  789 -260 l  752 -260 l  p
752 0 m  752 -219 l  789 -219 l  789 0 l  752 0 l  p ef
879 0 m  845 0 l  845 -302 l  882 -302 l  882 -195 l  898 -214 918 -224 942 -224 ct 
955 -224 968 -221 980 -216 ct 992 -210 1002 -203 1010 -193 ct 1018 -183 1024 -171 1028 -157 ct 
1033 -143 1035 -129 1035 -113 ct 1035 -75 1026 -46 1007 -26 ct 988 -5 966 5 940 5 ct 
914 5 894 -6 879 -27 ct 879 0 l  p
879 -111 m  879 -85 882 -66 890 -54 ct 901 -35 917 -26 937 -26 ct 953 -26 967 -33 979 -47 ct 
991 -61 997 -82 997 -110 ct 997 -138 991 -159 980 -173 ct 969 -187 955 -193 939 -193 ct 
922 -193 908 -186 897 -172 ct 885 -158 879 -138 879 -111 ct p ef
1081 0 m  1081 -219 l  1115 -219 l  1115 -186 l  1123 -201 1131 -212 1139 -217 ct 
1146 -222 1154 -224 1162 -224 ct 1175 -224 1188 -220 1201 -212 ct 1188 -178 l 
1179 -183 1170 -186 1161 -186 ct 1152 -186 1145 -183 1139 -178 ct 1132 -173 1128 -167 1125 -158 ct 
1121 -145 1119 -130 1119 -115 ct 1119 0 l  1081 0 l  p ef
1365 -27 m  1351 -15 1338 -7 1325 -2 ct 1313 3 1299 5 1284 5 ct 1260 5 1242 -1 1229 -13 ct 
1216 -24 1209 -39 1209 -58 ct 1209 -68 1212 -78 1217 -87 ct 1222 -96 1228 -103 1236 -108 ct 
1244 -114 1253 -118 1263 -121 ct 1270 -123 1281 -124 1296 -126 ct 1326 -130 1348 -134 1362 -139 ct 
1362 -144 1362 -147 1362 -149 ct 1362 -164 1359 -174 1352 -181 ct 1342 -189 1328 -193 1309 -193 ct 
1292 -193 1279 -190 1271 -184 ct 1262 -178 1256 -167 1252 -152 ct 1216 -157 l 
1219 -172 1224 -185 1232 -194 ct 1240 -204 1251 -211 1265 -216 ct 1279 -221 1296 -224 1315 -224 ct 
1333 -224 1349 -222 1360 -217 ct 1372 -213 1381 -207 1386 -201 ct 1392 -194 1395 -186 1398 -176 ct 
1399 -169 1400 -158 1400 -141 ct 1400 -92 l  1400 -57 1400 -35 1402 -26 ct 1403 -17 1407 -8 1411 0 ct 
1372 0 l  1369 -8 1366 -17 1365 -27 ct p
1362 -110 m  1348 -104 1328 -100 1301 -96 ct 1286 -94 1275 -91 1269 -88 ct 1262 -86 1258 -82 1254 -76 ct 
1251 -71 1249 -65 1249 -59 ct 1249 -49 1253 -41 1260 -34 ct 1268 -27 1279 -24 1293 -24 ct 
1307 -24 1320 -27 1331 -33 ct 1343 -40 1351 -48 1356 -59 ct 1360 -68 1362 -80 1362 -96 ct 
1362 -110 l  p ef
1458 0 m  1458 -219 l  1492 -219 l  1492 -186 l  1500 -201 1508 -212 1516 -217 ct 
1523 -222 1531 -224 1539 -224 ct 1552 -224 1565 -220 1578 -212 ct 1565 -178 l 
1556 -183 1547 -186 1538 -186 ct 1529 -186 1522 -183 1516 -178 ct 1509 -173 1505 -167 1502 -158 ct 
1498 -145 1496 -130 1496 -115 ct 1496 0 l  1458 0 l  p ef
1599 -260 m  1599 -303 l  1636 -303 l  1636 -260 l  1599 -260 l  p
1599 0 m  1599 -219 l  1636 -219 l  1636 0 l  1599 0 l  p ef
1842 -71 m  1880 -66 l  1874 -43 1863 -26 1847 -14 ct 1830 -1 1809 5 1784 5 ct 
1752 5 1726 -5 1708 -25 ct 1689 -44 1679 -72 1679 -108 ct 1679 -145 1689 -173 1708 -193 ct 
1727 -214 1752 -224 1782 -224 ct 1811 -224 1835 -214 1854 -194 ct 1872 -174 1882 -146 1882 -110 ct 
1882 -108 1882 -104 1881 -100 ct 1718 -100 l  1719 -76 1726 -58 1738 -45 ct 
1751 -32 1766 -26 1784 -26 ct 1798 -26 1809 -29 1819 -36 ct 1829 -43 1836 -55 1842 -71 ct 
p
1720 -131 m  1842 -131 l  1841 -149 1836 -163 1828 -172 ct 1817 -186 1801 -193 1782 -193 ct 
1765 -193 1751 -188 1739 -176 ct 1728 -165 1721 -150 1720 -131 ct p ef
1914 -65 m  1951 -71 l  1953 -56 1959 -45 1968 -37 ct 1977 -29 1991 -26 2008 -26 ct 
2025 -26 2037 -29 2046 -36 ct 2054 -43 2058 -51 2058 -60 ct 2058 -69 2054 -75 2047 -80 ct 
2042 -84 2029 -88 2009 -93 ct 1982 -100 1963 -106 1952 -111 ct 1942 -116 1934 -123 1928 -131 ct 
1923 -140 1920 -150 1920 -161 ct 1920 -171 1922 -180 1927 -188 ct 1931 -196 1938 -203 1945 -209 ct 
1951 -213 1959 -217 1969 -220 ct 1979 -223 1990 -224 2001 -224 ct 2018 -224 2033 -222 2046 -217 ct 
2059 -212 2069 -205 2075 -196 ct 2081 -188 2086 -177 2088 -163 ct 2052 -158 l 
2050 -169 2045 -178 2037 -184 ct 2029 -190 2018 -193 2004 -193 ct 1987 -193 1974 -191 1967 -185 ct 
1960 -179 1956 -173 1956 -165 ct 1956 -160 1958 -156 1961 -152 ct 1964 -148 1968 -145 1975 -142 ct 
1979 -141 1990 -138 2008 -133 ct 2034 -126 2052 -120 2063 -116 ct 2073 -111 2081 -105 2087 -96 ct 
2093 -88 2096 -77 2096 -64 ct 2096 -52 2093 -40 2085 -29 ct 2078 -18 2068 -10 2054 -4 ct 
2040 2 2025 5 2008 5 ct 1979 5 1958 -1 1943 -13 ct 1928 -25 1918 -42 1914 -65 ct 
p ef
pom
gr
gr
0.758 c 10682 19733 m  2904 19733 l  2904 17511 l  18461 17511 l  18461 19733 l 
10682 19733 l  p ef
0.000 c 10682 19733 m  2904 19733 l  2904 17511 l  18461 17511 l  18461 19733 l 
10682 19733 l  pc
0.996 c 9412 19415 m  8301 19415 l  8301 17827 l  10524 17827 l  10524 19415 l 
9412 19415 l  p ef
0.000 c 9412 19415 m  8301 19415 l  8301 17827 l  10524 17827 l  10524 19415 l 
9412 19415 l  pc
gs
gs
pum
8966 18853 t
47 0 m  47 -455 l  138 -455 l  245 -133 l  255 -103 262 -80 267 -65 ct 272 -82 280 -106 291 -138 ct 
400 -455 l  481 -455 l  481 0 l  423 0 l  423 -381 l  291 0 l  237 0 l 
105 -387 l  105 0 l  47 0 l  p ef
568 0 m  568 -455 l  628 -455 l  628 -54 l  852 -54 l  852 0 l  568 0 l 
p ef
pom
gr
gr
0.996 c 11954 19416 m  10843 19416 l  10843 17828 l  13065 17828 l  13065 19416 l 
11954 19416 l  p ef
0.000 c 11954 19416 m  10843 19416 l  10843 17828 l  13065 17828 l  13065 19416 l 
11954 19416 l  pc
gs
gs
pum
11248 18853 t
49 0 m  49 -455 l  220 -455 l  251 -455 274 -454 290 -451 ct 312 -447 331 -440 346 -429 ct 
361 -419 373 -404 382 -385 ct 391 -367 396 -346 396 -323 ct 396 -285 384 -252 359 -225 ct 
334 -198 290 -185 226 -185 ct 109 -185 l  109 0 l  49 0 l  p
109 -239 m  227 -239 l  266 -239 293 -246 309 -260 ct 326 -275 334 -295 334 -322 ct 
334 -341 329 -357 320 -370 ct 310 -384 297 -393 282 -397 ct 271 -400 253 -401 225 -401 ct 
109 -401 l  109 -239 l  p ef
685 -178 m  685 -231 l  877 -231 l  877 -63 l  848 -39 817 -22 786 -10 ct 
754 2 722 8 689 8 ct 644 8 604 -2 567 -21 ct 531 -40 503 -68 485 -104 ct 466 -140 457 -180 457 -225 ct 
457 -269 466 -311 485 -349 ct 503 -387 530 -416 564 -435 ct 599 -453 639 -463 684 -463 ct 
717 -463 747 -457 774 -447 ct 800 -436 821 -421 836 -402 ct 851 -383 863 -358 870 -327 ct 
816 -312 l  809 -336 801 -354 791 -367 ct 781 -380 766 -391 747 -399 ct 729 -407 708 -411 685 -411 ct 
657 -411 633 -407 613 -398 ct 593 -390 577 -379 565 -365 ct 553 -352 543 -337 536 -320 ct 
525 -292 519 -262 519 -229 ct 519 -188 526 -154 540 -127 ct 554 -100 574 -79 601 -66 ct 
627 -53 656 -46 686 -46 ct 712 -46 737 -51 762 -61 ct 787 -71 806 -82 818 -93 ct 
818 -178 l  685 -178 l  p ef
966 0 m  966 -455 l  1057 -455 l  1164 -133 l  1174 -103 1181 -80 1186 -65 ct 
1191 -82 1199 -106 1210 -138 ct 1319 -455 l  1400 -455 l  1400 0 l  1342 0 l 
1342 -381 l  1210 0 l  1156 0 l  1024 -387 l  1024 0 l  966 0 l  p ef
pom
gr
gr
0.996 c 4332 19416 m  3221 19416 l  3221 17828 l  5444 17828 l  5444 19416 l 
4332 19416 l  p ef
0.000 c 4332 19416 m  3221 19416 l  3221 17828 l  5444 17828 l  5444 19416 l 
4332 19416 l  pc
gs
gs
pum
3757 18853 t
262 -178 m  262 -231 l  454 -231 l  454 -63 l  425 -39 394 -22 363 -10 ct 
331 2 299 8 266 8 ct 221 8 181 -2 144 -21 ct 108 -40 80 -68 62 -104 ct 43 -140 34 -180 34 -225 ct 
34 -269 43 -311 62 -349 ct 80 -387 107 -416 141 -435 ct 176 -453 216 -463 261 -463 ct 
294 -463 324 -457 351 -447 ct 377 -436 398 -421 413 -402 ct 428 -383 440 -358 447 -327 ct 
393 -312 l  386 -336 378 -354 368 -367 ct 358 -380 343 -391 324 -399 ct 306 -407 285 -411 262 -411 ct 
234 -411 210 -407 190 -398 ct 170 -390 154 -379 142 -365 ct 130 -352 120 -337 113 -320 ct 
102 -292 96 -262 96 -229 ct 96 -188 103 -154 117 -127 ct 131 -100 151 -79 178 -66 ct 
204 -53 233 -46 263 -46 ct 289 -46 314 -51 339 -61 ct 364 -71 383 -82 395 -93 ct 
395 -178 l  262 -178 l  p ef
842 -455 m  902 -455 l  902 -192 l  902 -146 897 -110 887 -83 ct 877 -56 858 -34 831 -17 ct 
804 0 769 8 725 8 ct 682 8 647 1 620 -14 ct 593 -29 574 -50 562 -78 ct 551 -106 545 -144 545 -192 ct 
545 -455 l  605 -455 l  605 -192 l  605 -153 609 -123 616 -105 ct 623 -86 636 -72 654 -62 ct 
672 -51 694 -46 719 -46 ct 764 -46 795 -56 814 -76 ct 833 -96 842 -135 842 -192 ct 
842 -455 l  p ef
1012 0 m  1012 -455 l  1072 -455 l  1072 0 l  1012 0 l  p ef
pom
gr
gr
0.996 c 6874 19416 m  5763 19416 l  5763 17828 l  7985 17828 l  7985 19416 l 
6874 19416 l  p ef
0.000 c 6874 19416 m  5763 19416 l  5763 17828 l  7985 17828 l  7985 19416 l 
6874 19416 l  pc
gs
gs
pum
5920 18853 t
47 0 m  47 -455 l  138 -455 l  245 -133 l  255 -103 262 -80 267 -65 ct 272 -82 280 -106 291 -138 ct 
400 -455 l  481 -455 l  481 0 l  423 0 l  423 -381 l  291 0 l  237 0 l 
105 -387 l  105 0 l  47 0 l  p ef
778 -41 m  757 -24 737 -11 718 -4 ct 699 3 678 7 657 7 ct 620 7 593 -2 573 -20 ct 
554 -37 544 -60 544 -87 ct 544 -103 548 -118 555 -131 ct 562 -145 572 -156 584 -164 ct 
596 -172 609 -178 624 -182 ct 635 -185 651 -188 674 -190 ct 719 -196 752 -202 773 -209 ct 
773 -217 773 -222 773 -224 ct 773 -247 768 -263 758 -272 ct 743 -285 722 -291 694 -291 ct 
668 -291 648 -286 636 -277 ct 623 -268 614 -252 608 -228 ct 554 -236 l  559 -259 567 -278 578 -292 ct 
589 -307 606 -318 627 -326 ct 649 -333 674 -337 702 -337 ct 730 -337 753 -334 771 -327 ct 
788 -321 801 -312 809 -302 ct 818 -292 823 -280 827 -264 ct 829 -255 830 -238 830 -213 ct 
830 -138 l  830 -87 831 -54 833 -40 ct 835 -26 840 -13 847 0 ct 789 0 l  783 -12 779 -26 778 -41 ct 
p
773 -166 m  753 -157 722 -150 682 -145 ct 659 -141 643 -138 633 -133 ct 624 -129 616 -123 611 -115 ct 
606 -107 603 -99 603 -89 ct 603 -74 609 -62 620 -52 ct 632 -42 648 -37 670 -37 ct 
691 -37 710 -41 727 -51 ct 744 -60 756 -73 764 -89 ct 770 -102 773 -121 773 -145 ct 
773 -166 l  p ef
1036 -50 m  1044 -1 l  1028 2 1014 4 1002 4 ct 981 4 966 1 954 -6 ct 943 -12 935 -20 931 -31 ct 
926 -41 924 -63 924 -97 ct 924 -287 l  883 -287 l  883 -330 l  924 -330 l 
924 -412 l  980 -445 l  980 -330 l  1036 -330 l  1036 -287 l  980 -287 l 
980 -94 l  980 -78 981 -68 983 -63 ct 985 -58 988 -55 992 -52 ct 997 -49 1003 -48 1011 -48 ct 
1017 -48 1026 -49 1036 -50 ct p ef
1091 0 m  1091 -455 l  1146 -455 l  1146 0 l  1091 0 l  p ef
1447 -41 m  1426 -24 1406 -11 1387 -4 ct 1368 3 1347 7 1326 7 ct 1289 7 1262 -2 1242 -20 ct 
1223 -37 1213 -60 1213 -87 ct 1213 -103 1217 -118 1224 -131 ct 1231 -145 1241 -156 1253 -164 ct 
1265 -172 1278 -178 1293 -182 ct 1304 -185 1320 -188 1343 -190 ct 1388 -196 1421 -202 1442 -209 ct 
1442 -217 1442 -222 1442 -224 ct 1442 -247 1437 -263 1427 -272 ct 1412 -285 1391 -291 1363 -291 ct 
1337 -291 1317 -286 1305 -277 ct 1292 -268 1283 -252 1277 -228 ct 1223 -236 l 
1228 -259 1236 -278 1247 -292 ct 1258 -307 1275 -318 1296 -326 ct 1318 -333 1343 -337 1371 -337 ct 
1399 -337 1422 -334 1440 -327 ct 1457 -321 1470 -312 1478 -302 ct 1487 -292 1492 -280 1496 -264 ct 
1498 -255 1499 -238 1499 -213 ct 1499 -138 l  1499 -87 1500 -54 1502 -40 ct 
1504 -26 1509 -13 1516 0 ct 1458 0 l  1452 -12 1448 -26 1447 -41 ct p
1442 -166 m  1422 -157 1391 -150 1351 -145 ct 1328 -141 1312 -138 1302 -133 ct 
1293 -129 1285 -123 1280 -115 ct 1275 -107 1272 -99 1272 -89 ct 1272 -74 1278 -62 1289 -52 ct 
1301 -42 1317 -37 1339 -37 ct 1360 -37 1379 -41 1396 -51 ct 1413 -60 1425 -73 1433 -89 ct 
1439 -102 1442 -121 1442 -145 ct 1442 -166 l  p ef
1634 0 m  1583 0 l  1583 -455 l  1638 -455 l  1638 -293 l  1662 -322 1692 -337 1729 -337 ct 
1749 -337 1768 -333 1786 -325 ct 1804 -317 1819 -305 1831 -290 ct 1842 -276 1852 -258 1858 -237 ct 
1865 -216 1868 -194 1868 -170 ct 1868 -114 1854 -70 1826 -39 ct 1798 -8 1765 7 1726 7 ct 
1687 7 1656 -9 1634 -42 ct 1634 0 l  p
1634 -167 m  1634 -128 1639 -100 1650 -82 ct 1667 -53 1691 -39 1721 -39 ct 1746 -39 1767 -50 1784 -71 ct 
1802 -92 1811 -123 1811 -165 ct 1811 -208 1803 -240 1785 -260 ct 1768 -281 1748 -291 1724 -291 ct 
1699 -291 1678 -281 1660 -259 ct 1643 -238 1634 -208 1634 -167 ct p ef
pom
gr
gr
gs
gs
pum
15393 20144 t
13 -65 m  50 -71 l  52 -56 58 -45 67 -37 ct 76 -29 90 -26 107 -26 ct 124 -26 136 -29 145 -36 ct 
153 -43 157 -51 157 -60 ct 157 -69 153 -75 146 -80 ct 141 -84 128 -88 108 -93 ct 
81 -100 62 -106 51 -111 ct 41 -116 33 -123 27 -131 ct 22 -140 19 -150 19 -161 ct 
19 -171 21 -180 26 -188 ct 30 -196 37 -203 44 -209 ct 50 -213 58 -217 68 -220 ct 
78 -223 89 -224 100 -224 ct 117 -224 132 -222 145 -217 ct 158 -212 168 -205 174 -196 ct 
180 -188 185 -177 187 -163 ct 151 -158 l  149 -169 144 -178 136 -184 ct 128 -190 117 -193 103 -193 ct 
86 -193 73 -191 66 -185 ct 59 -179 55 -173 55 -165 ct 55 -160 57 -156 60 -152 ct 
63 -148 67 -145 74 -142 ct 78 -141 89 -138 107 -133 ct 133 -126 151 -120 162 -116 ct 
172 -111 180 -105 186 -96 ct 192 -88 195 -77 195 -64 ct 195 -52 192 -40 184 -29 ct 
177 -18 167 -10 153 -4 ct 139 2 124 5 107 5 ct 78 5 57 -1 42 -13 ct 27 -25 17 -42 13 -65 ct 
p ef
301 0 m  217 -219 l  257 -219 l  304 -88 l  309 -74 313 -59 318 -44 ct 321 -55 326 -69 332 -85 ct 
380 -219 l  419 -219 l  336 0 l  301 0 l  p ef
446 0 m  446 -302 l  483 -302 l  483 0 l  446 0 l  p ef
802 -27 m  788 -15 775 -7 762 -2 ct 750 3 736 5 721 5 ct 697 5 679 -1 666 -13 ct 
653 -24 646 -39 646 -58 ct 646 -68 649 -78 654 -87 ct 659 -96 665 -103 673 -108 ct 
681 -114 690 -118 700 -121 ct 707 -123 718 -124 733 -126 ct 763 -130 785 -134 799 -139 ct 
799 -144 799 -147 799 -149 ct 799 -164 796 -174 789 -181 ct 779 -189 765 -193 746 -193 ct 
729 -193 716 -190 708 -184 ct 699 -178 693 -167 689 -152 ct 653 -157 l  656 -172 661 -185 669 -194 ct 
677 -204 688 -211 702 -216 ct 716 -221 733 -224 752 -224 ct 770 -224 786 -222 797 -217 ct 
809 -213 818 -207 823 -201 ct 829 -194 832 -186 835 -176 ct 836 -169 837 -158 837 -141 ct 
837 -92 l  837 -57 837 -35 839 -26 ct 840 -17 844 -8 848 0 ct 809 0 l  806 -8 803 -17 802 -27 ct 
p
799 -110 m  785 -104 765 -100 738 -96 ct 723 -94 712 -91 706 -88 ct 699 -86 695 -82 691 -76 ct 
688 -71 686 -65 686 -59 ct 686 -49 690 -41 697 -34 ct 705 -27 716 -24 730 -24 ct 
744 -24 757 -27 768 -33 ct 780 -40 788 -48 793 -59 ct 797 -68 799 -80 799 -96 ct 
799 -110 l  p ef
896 84 m  896 -219 l  930 -219 l  930 -191 l  938 -202 947 -210 957 -216 ct 
967 -221 979 -224 993 -224 ct 1012 -224 1029 -219 1043 -210 ct 1057 -200 1068 -186 1075 -169 ct 
1083 -151 1086 -132 1086 -111 ct 1086 -89 1082 -69 1074 -51 ct 1066 -33 1054 -19 1039 -9 ct 
1024 0 1008 5 991 5 ct 978 5 967 2 957 -3 ct 947 -8 939 -15 933 -23 ct 933 84 l 
896 84 l  p
930 -108 m  930 -80 935 -59 947 -46 ct 958 -32 972 -26 988 -26 ct 1005 -26 1019 -33 1031 -46 ct 
1042 -60 1048 -82 1048 -111 ct 1048 -139 1043 -160 1031 -174 ct 1020 -188 1006 -195 990 -195 ct 
974 -195 960 -188 948 -173 ct 936 -158 930 -136 930 -108 ct p ef
1133 84 m  1133 -219 l  1167 -219 l  1167 -191 l  1175 -202 1184 -210 1194 -216 ct 
1204 -221 1216 -224 1230 -224 ct 1249 -224 1266 -219 1280 -210 ct 1294 -200 1305 -186 1312 -169 ct 
1320 -151 1323 -132 1323 -111 ct 1323 -89 1319 -69 1311 -51 ct 1303 -33 1291 -19 1276 -9 ct 
1261 0 1245 5 1228 5 ct 1215 5 1204 2 1194 -3 ct 1184 -8 1176 -15 1170 -23 ct 1170 84 l 
1133 84 l  p
1167 -108 m  1167 -80 1172 -59 1184 -46 ct 1195 -32 1209 -26 1225 -26 ct 1242 -26 1256 -33 1268 -46 ct 
1279 -60 1285 -82 1285 -111 ct 1285 -139 1280 -160 1268 -174 ct 1257 -188 1243 -195 1227 -195 ct 
1211 -195 1197 -188 1185 -173 ct 1173 -158 1167 -136 1167 -108 ct p ef
1369 0 m  1369 -302 l  1406 -302 l  1406 0 l  1369 0 l  p ef
1463 -260 m  1463 -303 l  1500 -303 l  1500 -260 l  1463 -260 l  p
1463 0 m  1463 -219 l  1500 -219 l  1500 0 l  1463 0 l  p ef
1699 -80 m  1736 -75 l  1732 -50 1721 -31 1705 -16 ct 1688 -2 1668 5 1644 5 ct 
1614 5 1590 -5 1572 -24 ct 1554 -44 1545 -72 1545 -109 ct 1545 -132 1548 -153 1556 -171 ct 
1564 -189 1576 -202 1592 -211 ct 1608 -220 1626 -224 1644 -224 ct 1668 -224 1688 -218 1703 -206 ct 
1718 -194 1728 -177 1732 -155 ct 1696 -149 l  1692 -164 1686 -175 1678 -182 ct 
1669 -190 1658 -193 1646 -193 ct 1627 -193 1612 -187 1600 -173 ct 1589 -160 1583 -139 1583 -110 ct 
1583 -80 1588 -59 1600 -46 ct 1611 -32 1626 -26 1644 -26 ct 1658 -26 1671 -30 1680 -39 ct 
1690 -48 1696 -62 1699 -80 ct p ef
1911 -27 m  1897 -15 1884 -7 1871 -2 ct 1859 3 1845 5 1830 5 ct 1806 5 1788 -1 1775 -13 ct 
1762 -24 1755 -39 1755 -58 ct 1755 -68 1758 -78 1763 -87 ct 1768 -96 1774 -103 1782 -108 ct 
1790 -114 1799 -118 1809 -121 ct 1816 -123 1827 -124 1842 -126 ct 1872 -130 1894 -134 1908 -139 ct 
1908 -144 1908 -147 1908 -149 ct 1908 -164 1905 -174 1898 -181 ct 1888 -189 1874 -193 1855 -193 ct 
1838 -193 1825 -190 1817 -184 ct 1808 -178 1802 -167 1798 -152 ct 1762 -157 l 
1765 -172 1770 -185 1778 -194 ct 1786 -204 1797 -211 1811 -216 ct 1825 -221 1842 -224 1861 -224 ct 
1879 -224 1895 -222 1906 -217 ct 1918 -213 1927 -207 1932 -201 ct 1938 -194 1941 -186 1944 -176 ct 
1945 -169 1946 -158 1946 -141 ct 1946 -92 l  1946 -57 1946 -35 1948 -26 ct 1949 -17 1953 -8 1957 0 ct 
1918 0 l  1915 -8 1912 -17 1911 -27 ct p
1908 -110 m  1894 -104 1874 -100 1847 -96 ct 1832 -94 1821 -91 1815 -88 ct 1808 -86 1804 -82 1800 -76 ct 
1797 -71 1795 -65 1795 -59 ct 1795 -49 1799 -41 1806 -34 ct 1814 -27 1825 -24 1839 -24 ct 
1853 -24 1866 -27 1877 -33 ct 1889 -40 1897 -48 1902 -59 ct 1906 -68 1908 -80 1908 -96 ct 
1908 -110 l  p ef
2086 -33 m  2091 0 l  2081 2 2072 3 2063 3 ct 2050 3 2039 1 2032 -3 ct 2025 -8 2019 -13 2016 -20 ct 
2013 -27 2012 -42 2012 -64 ct 2012 -190 l  1984 -190 l  1984 -219 l  2012 -219 l 
2012 -273 l  2049 -296 l  2049 -219 l  2086 -219 l  2086 -190 l  2049 -190 l 
2049 -62 l  2049 -51 2049 -45 2051 -42 ct 2052 -39 2054 -36 2057 -34 ct 2060 -33 2064 -32 2070 -32 ct 
2074 -32 2079 -32 2086 -33 ct p ef
2124 -260 m  2124 -303 l  2161 -303 l  2161 -260 l  2124 -260 l  p
2124 0 m  2124 -219 l  2161 -219 l  2161 0 l  2124 0 l  p ef
2203 -109 m  2203 -150 2214 -180 2237 -200 ct 2256 -216 2279 -224 2306 -224 ct 
2336 -224 2361 -214 2380 -194 ct 2399 -175 2409 -147 2409 -113 ct 2409 -84 2404 -62 2396 -46 ct 
2387 -30 2375 -17 2359 -8 ct 2343 1 2325 5 2306 5 ct 2275 5 2250 -5 2231 -25 ct 
2213 -44 2203 -73 2203 -109 ct p
2241 -110 m  2241 -81 2247 -60 2260 -46 ct 2272 -33 2287 -26 2306 -26 ct 2324 -26 2340 -33 2352 -47 ct 
2364 -61 2370 -82 2370 -111 ct 2370 -138 2364 -158 2352 -172 ct 2340 -186 2324 -193 2306 -193 ct 
2287 -193 2272 -186 2260 -172 ct 2247 -159 2241 -138 2241 -110 ct p ef
2454 0 m  2454 -219 l  2487 -219 l  2487 -188 l  2503 -212 2527 -224 2557 -224 ct 
2570 -224 2583 -222 2594 -217 ct 2605 -212 2613 -206 2619 -198 ct 2624 -191 2628 -181 2630 -171 ct 
2631 -164 2632 -152 2632 -135 ct 2632 0 l  2595 0 l  2595 -133 l  2595 -148 2594 -160 2591 -167 ct 
2588 -175 2583 -181 2575 -185 ct 2568 -190 2559 -192 2549 -192 ct 2533 -192 2520 -187 2508 -177 ct 
2497 -167 2491 -148 2491 -120 ct 2491 0 l  2454 0 l  p ef
2676 -65 m  2713 -71 l  2715 -56 2721 -45 2730 -37 ct 2739 -29 2753 -26 2770 -26 ct 
2787 -26 2799 -29 2808 -36 ct 2816 -43 2820 -51 2820 -60 ct 2820 -69 2816 -75 2809 -80 ct 
2804 -84 2791 -88 2771 -93 ct 2744 -100 2725 -106 2714 -111 ct 2704 -116 2696 -123 2690 -131 ct 
2685 -140 2682 -150 2682 -161 ct 2682 -171 2684 -180 2689 -188 ct 2693 -196 2700 -203 2707 -209 ct 
2713 -213 2721 -217 2731 -220 ct 2741 -223 2752 -224 2763 -224 ct 2780 -224 2795 -222 2808 -217 ct 
2821 -212 2831 -205 2837 -196 ct 2843 -188 2848 -177 2850 -163 ct 2814 -158 l 
2812 -169 2807 -178 2799 -184 ct 2791 -190 2780 -193 2766 -193 ct 2749 -193 2736 -191 2729 -185 ct 
2722 -179 2718 -173 2718 -165 ct 2718 -160 2720 -156 2723 -152 ct 2726 -148 2730 -145 2737 -142 ct 
2741 -141 2752 -138 2770 -133 ct 2796 -126 2814 -120 2825 -116 ct 2835 -111 2843 -105 2849 -96 ct 
2855 -88 2858 -77 2858 -64 ct 2858 -52 2855 -40 2847 -29 ct 2840 -18 2830 -10 2816 -4 ct 
2802 2 2787 5 2770 5 ct 2741 5 2720 -1 2705 -13 ct 2690 -25 2680 -42 2676 -65 ct 
p ef
pom
gr
gr
0.996 c 14492 19416 m  13381 19416 l  13381 17828 l  15604 17828 l  15604 19416 l 
14492 19416 l  p ef
0.000 c 14492 19416 m  13381 19416 l  13381 17828 l  15604 17828 l  15604 19416 l 
14492 19416 l  pc
gs
gs
pum
13898 18853 t
165 0 m  165 -401 l  15 -401 l  15 -455 l  375 -455 l  375 -401 l  225 -401 l 
225 0 l  165 0 l  p ef
589 -107 m  647 -99 l  638 -66 621 -40 596 -21 ct 572 -2 540 7 502 7 ct 454 7 416 -8 388 -37 ct 
359 -67 345 -109 345 -162 ct 345 -218 360 -261 388 -291 ct 417 -322 454 -337 499 -337 ct 
543 -337 579 -322 607 -292 ct 635 -262 649 -220 649 -166 ct 649 -163 649 -158 648 -151 ct 
403 -151 l  405 -115 415 -87 434 -68 ct 452 -49 475 -39 502 -39 ct 523 -39 540 -44 555 -55 ct 
569 -66 581 -83 589 -107 ct p
406 -197 m  590 -197 l  587 -225 580 -245 569 -259 ct 551 -280 528 -291 500 -291 ct 
474 -291 452 -283 435 -265 ct 418 -248 408 -226 406 -197 ct p ef
693 -99 m  748 -107 l  751 -85 759 -68 774 -57 ct 788 -45 808 -39 833 -39 ct 
859 -39 878 -44 890 -55 ct 902 -65 909 -77 909 -91 ct 909 -104 903 -114 892 -121 ct 
885 -126 866 -132 835 -140 ct 794 -150 766 -159 750 -167 ct 734 -174 722 -185 714 -198 ct 
706 -211 702 -226 702 -242 ct 702 -257 705 -270 712 -283 ct 719 -295 728 -306 739 -314 ct 
748 -320 760 -326 775 -330 ct 790 -335 806 -337 823 -337 ct 849 -337 872 -333 891 -326 ct 
911 -318 925 -308 934 -296 ct 944 -283 950 -266 954 -245 ct 899 -237 l  897 -254 889 -267 877 -277 ct 
866 -286 849 -291 827 -291 ct 801 -291 783 -287 772 -278 ct 761 -270 756 -260 756 -249 ct 
756 -241 758 -235 763 -229 ct 767 -223 774 -218 784 -214 ct 790 -212 806 -207 833 -200 ct 
873 -189 900 -181 916 -174 ct 932 -167 944 -158 953 -145 ct 962 -132 966 -116 966 -97 ct 
966 -79 961 -61 950 -45 ct 939 -28 923 -15 903 -6 ct 882 3 859 7 833 7 ct 791 7 758 -2 735 -20 ct 
713 -37 699 -64 693 -99 ct p ef
1155 -50 m  1163 -1 l  1147 2 1133 4 1121 4 ct 1100 4 1085 1 1073 -6 ct 1062 -12 1054 -20 1050 -31 ct 
1045 -41 1043 -63 1043 -97 ct 1043 -287 l  1002 -287 l  1002 -330 l  1043 -330 l 
1043 -412 l  1099 -445 l  1099 -330 l  1155 -330 l  1155 -287 l  1099 -287 l 
1099 -94 l  1099 -78 1100 -68 1102 -63 ct 1104 -58 1107 -55 1111 -52 ct 1116 -49 1122 -48 1130 -48 ct 
1136 -48 1145 -49 1155 -50 ct p ef
pom
gr
gr
0.996 c 17032 19415 m  15921 19415 l  15921 17827 l  18144 17827 l  18144 19415 l 
17032 19415 l  p ef
0.000 c 17032 19415 m  15921 19415 l  15921 17827 l  18144 17827 l  18144 19415 l 
17032 19415 l  pc
gs
gs
pum
16167 18853 t
179 0 m  3 -455 l  68 -455 l  186 -124 l  196 -98 204 -73 210 -50 ct 217 -75 225 -100 234 -124 ct 
357 -455 l  419 -455 l  241 0 l  179 0 l  p ef
453 -391 m  453 -455 l  509 -455 l  509 -391 l  453 -391 l  p
453 0 m  453 -330 l  509 -330 l  509 0 l  453 0 l  p ef
570 -99 m  625 -107 l  628 -85 636 -68 651 -57 ct 665 -45 685 -39 710 -39 ct 
736 -39 755 -44 767 -55 ct 779 -65 786 -77 786 -91 ct 786 -104 780 -114 769 -121 ct 
762 -126 743 -132 712 -140 ct 671 -150 643 -159 627 -167 ct 611 -174 599 -185 591 -198 ct 
583 -211 579 -226 579 -242 ct 579 -257 582 -270 589 -283 ct 596 -295 605 -306 616 -314 ct 
625 -320 637 -326 652 -330 ct 667 -335 683 -337 700 -337 ct 726 -337 749 -333 768 -326 ct 
788 -318 802 -308 811 -296 ct 821 -283 827 -266 831 -245 ct 776 -237 l  774 -254 766 -267 754 -277 ct 
743 -286 726 -291 704 -291 ct 678 -291 660 -287 649 -278 ct 638 -270 633 -260 633 -249 ct 
633 -241 635 -235 640 -229 ct 644 -223 651 -218 661 -214 ct 667 -212 683 -207 710 -200 ct 
750 -189 777 -181 793 -174 ct 809 -167 821 -158 830 -145 ct 839 -132 843 -116 843 -97 ct 
843 -79 838 -61 827 -45 ct 816 -28 800 -15 780 -6 ct 759 3 736 7 710 7 ct 668 7 635 -2 612 -20 ct 
590 -37 576 -64 570 -99 ct p ef
910 -391 m  910 -455 l  966 -455 l  966 -391 l  910 -391 l  p
910 0 m  910 -330 l  966 -330 l  966 0 l  910 0 l  p ef
1029 -165 m  1029 -226 1046 -271 1080 -301 ct 1108 -325 1143 -337 1184 -337 ct 
1229 -337 1266 -322 1294 -293 ct 1323 -263 1338 -222 1338 -170 ct 1338 -127 1331 -94 1319 -70 ct 
1306 -45 1287 -27 1263 -13 ct 1239 0 1212 7 1184 7 ct 1137 7 1100 -8 1072 -37 ct 
1043 -67 1029 -110 1029 -165 ct p
1086 -165 m  1086 -123 1096 -91 1114 -70 ct 1132 -49 1156 -39 1184 -39 ct 1211 -39 1234 -49 1253 -71 ct 
1271 -92 1280 -124 1280 -167 ct 1280 -208 1271 -239 1252 -260 ct 1234 -281 1211 -291 1184 -291 ct 
1156 -291 1132 -281 1114 -260 ct 1096 -239 1086 -207 1086 -165 ct p ef
1401 0 m  1401 -330 l  1451 -330 l  1451 -283 l  1475 -319 1510 -337 1556 -337 ct 
1576 -337 1594 -333 1611 -326 ct 1627 -319 1640 -310 1648 -298 ct 1656 -287 1662 -273 1665 -257 ct 
1667 -247 1668 -229 1668 -203 ct 1668 0 l  1613 0 l  1613 -200 l  1613 -223 1610 -240 1606 -252 ct 
1602 -263 1594 -272 1583 -279 ct 1572 -285 1559 -289 1544 -289 ct 1520 -289 1500 -281 1483 -266 ct 
1465 -251 1457 -222 1457 -180 ct 1457 0 l  1401 0 l  p ef
pom
gr
gr
0.996 c 14809 16558 m  13063 16558 l  13063 14970 l  16556 14970 l  16556 16558 l 
14809 16558 l  p ef
0.000 c 14809 16558 m  13063 16558 l  13063 14970 l  16556 14970 l  16556 16558 l 
14809 16558 l  pc
gs
gs
pum
13143 15996 t
20 -99 m  75 -107 l  78 -85 86 -68 101 -57 ct 115 -45 135 -39 160 -39 ct 186 -39 205 -44 217 -55 ct 
229 -65 236 -77 236 -91 ct 236 -104 230 -114 219 -121 ct 212 -126 193 -132 162 -140 ct 
121 -150 93 -159 77 -167 ct 61 -174 49 -185 41 -198 ct 33 -211 29 -226 29 -242 ct 
29 -257 32 -270 39 -283 ct 46 -295 55 -306 66 -314 ct 75 -320 87 -326 102 -330 ct 
117 -335 133 -337 150 -337 ct 176 -337 199 -333 218 -326 ct 238 -318 252 -308 261 -296 ct 
271 -283 277 -266 281 -245 ct 226 -237 l  224 -254 216 -267 204 -277 ct 193 -286 176 -291 154 -291 ct 
128 -291 110 -287 99 -278 ct 88 -270 83 -260 83 -249 ct 83 -241 85 -235 90 -229 ct 
94 -223 101 -218 111 -214 ct 117 -212 133 -207 160 -200 ct 200 -189 227 -181 243 -174 ct 
259 -167 271 -158 280 -145 ct 289 -132 293 -116 293 -97 ct 293 -79 288 -61 277 -45 ct 
266 -28 250 -15 230 -6 ct 209 3 186 7 160 7 ct 118 7 85 -2 62 -20 ct 40 -37 26 -64 20 -99 ct 
p ef
451 0 m  326 -330 l  385 -330 l  456 -132 l  463 -111 470 -89 477 -66 ct 
482 -83 489 -104 498 -128 ct 571 -330 l  628 -330 l  503 0 l  451 0 l  p ef
676 0 m  676 -455 l  731 -455 l  731 0 l  676 0 l  p ef
1037 -178 m  1037 -231 l  1229 -231 l  1229 -63 l  1200 -39 1169 -22 1138 -10 ct 
1106 2 1074 8 1041 8 ct 996 8 956 -2 919 -21 ct 883 -40 855 -68 837 -104 ct 818 -140 809 -180 809 -225 ct 
809 -269 818 -311 837 -349 ct 855 -387 882 -416 916 -435 ct 951 -453 991 -463 1036 -463 ct 
1069 -463 1099 -457 1126 -447 ct 1152 -436 1173 -421 1188 -402 ct 1203 -383 1215 -358 1222 -327 ct 
1168 -312 l  1161 -336 1153 -354 1143 -367 ct 1133 -380 1118 -391 1099 -399 ct 
1081 -407 1060 -411 1037 -411 ct 1009 -411 985 -407 965 -398 ct 945 -390 929 -379 917 -365 ct 
905 -352 895 -337 888 -320 ct 877 -292 871 -262 871 -229 ct 871 -188 878 -154 892 -127 ct 
906 -100 926 -79 953 -66 ct 979 -53 1008 -46 1038 -46 ct 1064 -46 1089 -51 1114 -61 ct 
1139 -71 1158 -82 1170 -93 ct 1170 -178 l  1037 -178 l  p ef
1311 0 m  1311 -330 l  1361 -330 l  1361 -280 l  1374 -303 1386 -318 1397 -326 ct 
1408 -333 1420 -337 1433 -337 ct 1452 -337 1471 -331 1490 -319 ct 1471 -267 l 
1457 -275 1444 -279 1430 -279 ct 1418 -279 1407 -276 1397 -268 ct 1387 -261 1380 -251 1376 -238 ct 
1370 -218 1367 -196 1367 -173 ct 1367 0 l  1311 0 l  p ef
1739 -41 m  1718 -24 1698 -11 1679 -4 ct 1660 3 1639 7 1618 7 ct 1581 7 1554 -2 1534 -20 ct 
1515 -37 1505 -60 1505 -87 ct 1505 -103 1509 -118 1516 -131 ct 1523 -145 1533 -156 1545 -164 ct 
1557 -172 1570 -178 1585 -182 ct 1596 -185 1612 -188 1635 -190 ct 1680 -196 1713 -202 1734 -209 ct 
1734 -217 1734 -222 1734 -224 ct 1734 -247 1729 -263 1719 -272 ct 1704 -285 1683 -291 1655 -291 ct 
1629 -291 1609 -286 1597 -277 ct 1584 -268 1575 -252 1569 -228 ct 1515 -236 l 
1520 -259 1528 -278 1539 -292 ct 1550 -307 1567 -318 1588 -326 ct 1610 -333 1635 -337 1663 -337 ct 
1691 -337 1714 -334 1732 -327 ct 1749 -321 1762 -312 1770 -302 ct 1779 -292 1784 -280 1788 -264 ct 
1790 -255 1791 -238 1791 -213 ct 1791 -138 l  1791 -87 1792 -54 1794 -40 ct 
1796 -26 1801 -13 1808 0 ct 1750 0 l  1744 -12 1740 -26 1739 -41 ct p
1734 -166 m  1714 -157 1683 -150 1643 -145 ct 1620 -141 1604 -138 1594 -133 ct 
1585 -129 1577 -123 1572 -115 ct 1567 -107 1564 -99 1564 -89 ct 1564 -74 1570 -62 1581 -52 ct 
1593 -42 1609 -37 1631 -37 ct 1652 -37 1671 -41 1688 -51 ct 1705 -60 1717 -73 1725 -89 ct 
1731 -102 1734 -121 1734 -145 ct 1734 -166 l  p ef
1875 126 m  1875 -330 l  1926 -330 l  1926 -287 l  1938 -304 1951 -316 1966 -324 ct 
1981 -333 2000 -337 2021 -337 ct 2049 -337 2074 -330 2096 -315 ct 2117 -301 2133 -280 2144 -254 ct 
2155 -228 2161 -199 2161 -167 ct 2161 -134 2155 -103 2143 -77 ct 2131 -50 2113 -29 2090 -15 ct 
2067 0 2043 7 2017 7 ct 1999 7 1982 3 1967 -5 ct 1952 -13 1940 -23 1931 -35 ct 
1931 126 l  1875 126 l  p
1925 -163 m  1925 -121 1934 -90 1951 -69 ct 1968 -49 1989 -39 2013 -39 ct 2038 -39 2060 -49 2077 -70 ct 
2095 -91 2104 -124 2104 -168 ct 2104 -210 2095 -241 2078 -262 ct 2061 -283 2040 -293 2016 -293 ct 
1992 -293 1971 -282 1953 -260 ct 1935 -238 1925 -205 1925 -163 ct p ef
2226 0 m  2226 -455 l  2282 -455 l  2282 -292 l  2308 -322 2341 -337 2380 -337 ct 
2405 -337 2426 -332 2444 -323 ct 2462 -313 2475 -300 2482 -283 ct 2490 -266 2494 -241 2494 -209 ct 
2494 0 l  2438 0 l  2438 -209 l  2438 -237 2432 -257 2420 -270 ct 2408 -283 2391 -289 2369 -289 ct 
2352 -289 2337 -285 2322 -276 ct 2308 -267 2297 -256 2291 -241 ct 2285 -226 2282 -206 2282 -180 ct 
2282 0 l  2226 0 l  p ef
2578 -391 m  2578 -455 l  2634 -455 l  2634 -391 l  2578 -391 l  p
2578 0 m  2578 -330 l  2634 -330 l  2634 0 l  2578 0 l  p ef
2932 -121 m  2987 -114 l  2981 -76 2965 -46 2941 -25 ct 2916 -4 2886 7 2850 7 ct 
2805 7 2768 -8 2741 -37 ct 2714 -67 2700 -109 2700 -164 ct 2700 -199 2706 -230 2717 -257 ct 
2729 -284 2747 -304 2771 -317 ct 2795 -330 2822 -337 2850 -337 ct 2886 -337 2915 -328 2938 -310 ct 
2960 -292 2975 -266 2981 -233 ct 2927 -224 l  2922 -247 2913 -263 2900 -274 ct 
2887 -286 2871 -291 2852 -291 ct 2824 -291 2801 -281 2784 -261 ct 2766 -241 2757 -209 2757 -165 ct 
2757 -121 2766 -89 2783 -69 ct 2800 -49 2822 -39 2849 -39 ct 2871 -39 2889 -46 2904 -59 ct 
2919 -72 2928 -93 2932 -121 ct p ef
3013 -99 m  3068 -107 l  3071 -85 3079 -68 3094 -57 ct 3108 -45 3128 -39 3153 -39 ct 
3179 -39 3198 -44 3210 -55 ct 3222 -65 3229 -77 3229 -91 ct 3229 -104 3223 -114 3212 -121 ct 
3205 -126 3186 -132 3155 -140 ct 3114 -150 3086 -159 3070 -167 ct 3054 -174 3042 -185 3034 -198 ct 
3026 -211 3022 -226 3022 -242 ct 3022 -257 3025 -270 3032 -283 ct 3039 -295 3048 -306 3059 -314 ct 
3068 -320 3080 -326 3095 -330 ct 3110 -335 3126 -337 3143 -337 ct 3169 -337 3192 -333 3211 -326 ct 
3231 -318 3245 -308 3254 -296 ct 3264 -283 3270 -266 3274 -245 ct 3219 -237 l 
3217 -254 3209 -267 3197 -277 ct 3186 -286 3169 -291 3147 -291 ct 3121 -291 3103 -287 3092 -278 ct 
3081 -270 3076 -260 3076 -249 ct 3076 -241 3078 -235 3083 -229 ct 3087 -223 3094 -218 3104 -214 ct 
3110 -212 3126 -207 3153 -200 ct 3193 -189 3220 -181 3236 -174 ct 3252 -167 3264 -158 3273 -145 ct 
3282 -132 3286 -116 3286 -97 ct 3286 -79 3281 -61 3270 -45 ct 3259 -28 3243 -15 3223 -6 ct 
3202 3 3179 7 3153 7 ct 3111 7 3078 -2 3055 -20 ct 3033 -37 3019 -64 3013 -99 ct 
p ef
pom
gr
gr
0.996 c 10049 6080 m  8938 6080 l  8938 4492 l  11160 4492 l  11160 6080 l 
10049 6080 l  p ef
0.000 c 10049 6080 m  8938 6080 l  8938 4492 l  11160 4492 l  11160 6080 l 
10049 6080 l  pc
gs
gs
pum
9148 5518 t
267 -107 m  325 -99 l  316 -66 299 -40 274 -21 ct 250 -2 218 7 180 7 ct 132 7 94 -8 66 -37 ct 
37 -67 23 -109 23 -162 ct 23 -218 38 -261 66 -291 ct 95 -322 132 -337 177 -337 ct 
221 -337 257 -322 285 -292 ct 313 -262 327 -220 327 -166 ct 327 -163 327 -158 326 -151 ct 
81 -151 l  83 -115 93 -87 112 -68 ct 130 -49 153 -39 180 -39 ct 201 -39 218 -44 233 -55 ct 
247 -66 259 -83 267 -107 ct p
84 -197 m  268 -197 l  265 -225 258 -245 247 -259 ct 229 -280 206 -291 178 -291 ct 
152 -291 130 -283 113 -265 ct 96 -248 86 -226 84 -197 ct p ef
393 -391 m  393 -455 l  449 -455 l  449 -391 l  393 -391 l  p
393 0 m  393 -330 l  449 -330 l  449 0 l  393 0 l  p ef
523 28 m  577 36 l  579 52 585 65 596 72 ct 610 83 629 88 653 88 ct 678 88 698 83 712 72 ct 
726 62 736 47 741 29 ct 744 17 745 -6 745 -43 ct 721 -14 690 0 654 0 ct 609 0 573 -16 549 -49 ct 
524 -82 511 -121 511 -167 ct 511 -198 517 -227 529 -254 ct 540 -280 556 -301 578 -315 ct 
600 -330 625 -337 654 -337 ct 693 -337 725 -321 750 -290 ct 750 -330 l  802 -330 l 
802 -45 l  802 7 796 43 786 65 ct 776 86 759 103 736 115 ct 714 128 686 134 653 134 ct 
614 134 582 125 558 107 ct 533 90 522 63 523 28 ct p
569 -171 m  569 -127 577 -96 595 -76 ct 612 -56 633 -46 659 -46 ct 685 -46 706 -56 724 -76 ct 
741 -95 750 -126 750 -169 ct 750 -209 741 -240 723 -260 ct 705 -281 683 -291 658 -291 ct 
633 -291 612 -281 595 -260 ct 578 -240 569 -210 569 -171 ct p ef
1109 -107 m  1167 -99 l  1158 -66 1141 -40 1116 -21 ct 1092 -2 1060 7 1022 7 ct 
974 7 936 -8 908 -37 ct 879 -67 865 -109 865 -162 ct 865 -218 880 -261 908 -291 ct 
937 -322 974 -337 1019 -337 ct 1063 -337 1099 -322 1127 -292 ct 1155 -262 1169 -220 1169 -166 ct 
1169 -163 1169 -158 1168 -151 ct 923 -151 l  925 -115 935 -87 954 -68 ct 972 -49 995 -39 1022 -39 ct 
1043 -39 1060 -44 1075 -55 ct 1089 -66 1101 -83 1109 -107 ct p
926 -197 m  1110 -197 l  1107 -225 1100 -245 1089 -259 ct 1071 -280 1048 -291 1020 -291 ct 
994 -291 972 -283 955 -265 ct 938 -248 928 -226 926 -197 ct p ef
1236 0 m  1236 -330 l  1286 -330 l  1286 -283 l  1310 -319 1345 -337 1391 -337 ct 
1411 -337 1429 -333 1446 -326 ct 1462 -319 1475 -310 1483 -298 ct 1491 -287 1497 -273 1500 -257 ct 
1502 -247 1503 -229 1503 -203 ct 1503 0 l  1448 0 l  1448 -200 l  1448 -223 1445 -240 1441 -252 ct 
1437 -263 1429 -272 1418 -279 ct 1407 -285 1394 -289 1379 -289 ct 1355 -289 1335 -281 1318 -266 ct 
1300 -251 1292 -222 1292 -180 ct 1292 0 l  1236 0 l  p ef
1565 -372 m  1579 -416 l  1612 -404 1636 -394 1651 -386 ct 1647 -423 1645 -449 1645 -463 ct 
1689 -463 l  1689 -443 1687 -417 1682 -386 ct 1704 -397 1728 -407 1756 -416 ct 
1770 -372 l  1744 -363 1718 -357 1693 -354 ct 1705 -343 1723 -324 1746 -296 ct 
1709 -269 l  1697 -286 1683 -308 1666 -336 ct 1651 -307 1638 -285 1626 -269 ct 
1589 -296 l  1613 -325 1630 -345 1641 -354 ct 1614 -360 1589 -365 1565 -372 ct 
p ef
pom
gr
gr
10049 6080 m  10049 6554 l  9764 6459 l  10049 6080 l  p ef
8778 9890 m  9935 6421 l  ps
12905 14017 m  13375 14084 l  13240 14352 l  12905 14017 l  p ef
14810 14970 m  13227 14178 l  ps
0 16184 t 
pom
count op_count sub {pop} repeat countdictstack dict_count sub {end} repeat b4_inc_state restore
%%PageTrailer
%%Trailer
%%EOF
